%!PS-Adobe-3.0 EPSF-3.0
%%Creator: cairo 1.15.2 (http://cairographics.org)
%%CreationDate: Fri Jun 09 16:49:52 2017
%%Pages: 1
%%DocumentData: Clean7Bit
%%LanguageLevel: 2
%%BoundingBox: 0 5 513 376
%%EndComments
%%BeginProlog
save
50 dict begin
/q { gsave } bind def
/Q { grestore } bind def
/cm { 6 array astore concat } bind def
/w { setlinewidth } bind def
/J { setlinecap } bind def
/j { setlinejoin } bind def
/M { setmiterlimit } bind def
/d { setdash } bind def
/m { moveto } bind def
/l { lineto } bind def
/c { curveto } bind def
/h { closepath } bind def
/re { exch dup neg 3 1 roll 5 3 roll moveto 0 rlineto
      0 exch rlineto 0 rlineto closepath } bind def
/S { stroke } bind def
/f { fill } bind def
/f* { eofill } bind def
/n { newpath } bind def
/W { clip } bind def
/W* { eoclip } bind def
/BT { } bind def
/ET { } bind def
/pdfmark where { pop globaldict /?pdfmark /exec load put }
    { globaldict begin /?pdfmark /pop load def /pdfmark
    /cleartomark load def end } ifelse
/BDC { mark 3 1 roll /BDC pdfmark } bind def
/EMC { mark /EMC pdfmark } bind def
/cairo_store_point { /cairo_point_y exch def /cairo_point_x exch def } def
/Tj { show currentpoint cairo_store_point } bind def
/TJ {
  {
    dup
    type /stringtype eq
    { show } { -0.001 mul 0 cairo_font_matrix dtransform rmoveto } ifelse
  } forall
  currentpoint cairo_store_point
} bind def
/cairo_selectfont { cairo_font_matrix aload pop pop pop 0 0 6 array astore
    cairo_font exch selectfont cairo_point_x cairo_point_y moveto } bind def
/Tf { pop /cairo_font exch def /cairo_font_matrix where
      { pop cairo_selectfont } if } bind def
/Td { matrix translate cairo_font_matrix matrix concatmatrix dup
      /cairo_font_matrix exch def dup 4 get exch 5 get cairo_store_point
      /cairo_font where { pop cairo_selectfont } if } bind def
/Tm { 2 copy 8 2 roll 6 array astore /cairo_font_matrix exch def
      cairo_store_point /cairo_font where { pop cairo_selectfont } if } bind def
/g { setgray } bind def
/rg { setrgbcolor } bind def
/d1 { setcachedevice } bind def
%%EndProlog
%%BeginSetup
%%EndSetup
%%Page: 1 1
%%BeginPageSetup
%%PageBoundingBox: 0 5 513 376
%%EndPageSetup
q 0 5 513 371 rectclip q
1 g
-5.559 18.18 m 570.434 15.379 l 572.359 411.371 l -3.633 414.176 l h
-5.559 18.18 m f
0.917647 0.917647 0.94902 rg
66.09 65.996 m 512.492 66.574 l 512.094 373.473 l 65.695 372.898 l h
66.09 65.996 m f
0.14902 g
87.813 60.027 m 88.313 59.441 88.672 58.875 88.891 58.324 c 89.098 57.781
 89.203 57.203 89.203 56.59 c 89.203 55.559 88.953 54.766 88.453 54.215 
c 87.945 53.672 87.297 53.402 86.516 53.402 c 86.07 53.402 85.656 53.504
 85.281 53.715 c 84.898 53.922 84.59 54.191 84.359 54.527 c 84.133 54.859
 83.961 55.238 83.844 55.668 c 83.762 55.98 83.684 56.449 83.609 57.074 
c 83.445 58.344 83.258 59.281 83.047 59.887 c 82.828 59.887 82.688 59.887
 82.625 59.887 c 81.992 59.887 81.539 59.734 81.266 59.434 c 80.922 59.027
 80.75 58.426 80.75 57.637 c 80.75 56.887 80.883 56.332 81.141 55.98 c 81.402
 55.625 81.867 55.363 82.531 55.199 c 82.313 53.652 l 81.648 53.797 81.109
 54.027 80.703 54.34 c 80.297 54.66 79.984 55.125 79.766 55.73 c 79.547 
56.344 79.438 57.059 79.438 57.871 c 79.43 58.66 79.516 59.309 79.703 59.809
 c 79.891 60.309 80.133 60.672 80.422 60.902 c 80.703 61.141 81.059 61.309
 81.484 61.402 c 81.758 61.453 82.246 61.484 82.953 61.496 c 85.063 61.496
 l 86.531 61.496 87.465 61.527 87.859 61.59 c 88.246 61.66 88.617 61.797
 88.969 61.996 c 88.969 60.34 l 88.637 60.172 88.25 60.066 87.813 60.027
 c h
84.281 59.887 m 84.523 59.313 84.727 58.453 84.891 57.309 c 84.984 56.66
 85.094 56.203 85.219 55.934 c 85.336 55.66 85.508 55.453 85.734 55.309 
c 85.953 55.16 86.203 55.09 86.484 55.09 c 86.902 55.09 87.25 55.246 87.531
 55.559 c 87.813 55.879 87.953 56.348 87.953 56.965 c 87.953 57.578 87.82
 58.121 87.547 58.59 c 87.277 59.066 86.914 59.418 86.453 59.637 c 86.09
 59.801 85.559 59.887 84.859 59.887 c h
84.281 59.887 m f
129.602 27.984 m 129.602 26.672 l 118.148 26.656 l 118.148 28.063 l 122.227
 28.063 l 121.488 28.656 121.117 29.414 121.117 30.344 c 121.117 30.852 
121.219 31.332 121.414 31.781 c 121.613 32.238 121.898 32.613 122.273 32.906
 c 122.648 33.207 123.102 33.441 123.633 33.609 c 124.156 33.785 124.711
 33.875 125.305 33.875 c 126.734 33.875 127.836 33.52 128.617 32.813 c 129.391
 32.113 129.777 31.27 129.789 30.281 c 129.789 29.301 129.379 28.535 128.555
 27.984 c h
125.383 27.969 m 126.383 27.969 127.102 28.102 127.539 28.375 c 128.27 
28.813 128.633 29.41 128.633 30.172 c 128.633 30.785 128.363 31.316 127.82
 31.766 c 127.281 32.211 126.484 32.438 125.43 32.438 c 124.348 32.438 123.551
 32.219 123.039 31.781 c 122.531 31.344 122.273 30.82 122.273 30.219 c 122.273
 29.602 122.539 29.07 123.07 28.625 c 123.602 28.188 124.375 27.969 125.383
 27.969 c h
125.383 27.969 m f
129.59 35.563 m 118.137 35.547 l 118.137 36.953 l 129.59 36.969 l h
129.59 35.563 m f
125.43 38.625 m 123.898 38.613 122.766 39.035 122.023 39.891 c 121.41 40.609
 121.102 41.477 121.102 42.5 c 121.094 43.645 121.461 44.578 122.211 45.297
 c 122.953 46.023 123.984 46.395 125.305 46.406 c 126.367 46.406 127.207
 46.242 127.82 45.922 c 128.438 45.598 128.914 45.129 129.258 44.516 c 129.602
 43.91 129.773 43.242 129.773 42.516 c 129.773 41.359 129.406 40.422 128.664
 39.703 c 127.914 38.984 126.836 38.625 125.43 38.625 c h
125.43 40.078 m 126.492 40.078 127.289 40.305 127.82 40.766 c 128.352 41.234
 128.617 41.816 128.617 42.516 c 128.617 43.211 128.352 43.789 127.82 44.25
 c 127.281 44.719 126.461 44.953 125.367 44.953 c 124.348 44.953 123.578
 44.719 123.055 44.25 c 122.523 43.781 122.258 43.195 122.258 42.5 c 122.258
 41.801 122.523 41.223 123.055 40.766 c 123.578 40.305 124.367 40.078 125.43
 40.078 c h
125.43 40.078 m f
126.512 53.469 m 126.699 54.859 l 127.648 54.703 128.398 54.313 128.949
 53.688 c 129.492 53.07 129.762 52.313 129.762 51.406 c 129.762 50.27 129.395
 49.352 128.652 48.656 c 127.902 47.969 126.836 47.625 125.449 47.625 c 
124.555 47.625 123.773 47.77 123.105 48.063 c 122.43 48.352 121.926 48.801
 121.59 49.406 c 121.258 50.02 121.09 50.68 121.09 51.391 c 121.09 52.297
 121.316 53.035 121.762 53.609 c 122.211 54.18 122.855 54.551 123.699 54.719
 c 123.902 53.359 l 123.352 53.211 122.941 52.973 122.668 52.641 c 122.387
 52.316 122.246 51.922 122.246 51.453 c 122.246 50.742 122.504 50.172 123.012
 49.734 c 123.512 49.297 124.316 49.078 125.418 49.078 c 126.535 49.078 
127.348 49.289 127.855 49.719 c 128.355 50.145 128.605 50.703 128.605 51.391
 c 128.605 51.941 128.434 52.398 128.09 52.766 c 127.746 53.141 127.223 
53.375 126.512 53.469 c h
126.512 53.469 m f
129.566 56.063 m 118.113 56.047 l 118.113 57.453 l 124.645 57.469 l 121.27
 60.781 l 121.254 62.609 l 124.348 59.453 l 129.551 62.938 l 129.551 61.203
 l 125.316 58.469 l 126.27 57.469 l 129.566 57.469 l h
129.566 56.063 m f
165.996 49.805 m 164.465 49.793 163.332 50.215 162.59 51.07 c 161.977 51.789
 161.668 52.656 161.668 53.68 c 161.66 54.824 162.027 55.758 162.777 56.477
 c 163.52 57.203 164.551 57.574 165.871 57.586 c 166.934 57.586 167.773 
57.422 168.387 57.102 c 169.004 56.777 169.48 56.309 169.824 55.695 c 170.168
 55.09 170.34 54.422 170.34 53.695 c 170.34 52.539 169.973 51.602 169.23
 50.883 c 168.48 50.164 167.402 49.805 165.996 49.805 c h
165.996 51.258 m 167.059 51.258 167.855 51.484 168.387 51.945 c 168.918
 52.414 169.184 52.996 169.184 53.695 c 169.184 54.391 168.918 54.969 168.387
 55.43 c 167.848 55.898 167.027 56.133 165.934 56.133 c 164.914 56.133 164.145
 55.898 163.621 55.43 c 163.09 54.961 162.824 54.375 162.824 53.68 c 162.824
 52.98 163.09 52.402 163.621 51.945 c 164.145 51.484 164.934 51.258 165.996
 51.258 c h
165.996 51.258 m f
170.145 59.57 m 162.941 59.555 l 162.941 58.32 l 161.848 58.32 l 161.848
 59.555 l 160.957 59.555 l 160.406 59.555 159.996 59.605 159.723 59.711 
c 159.359 59.844 159.063 60.078 158.832 60.414 c 158.605 60.758 158.488 
61.234 158.488 61.852 c 158.488 62.246 158.535 62.684 158.629 63.164 c 159.863
 62.961 l 159.813 62.668 159.785 62.391 159.785 62.133 c 159.785 61.703 
159.879 61.402 160.066 61.227 c 160.246 61.047 160.582 60.961 161.082 60.961
 c 161.848 60.961 l 161.848 62.57 l 162.941 62.57 l 162.941 60.961 l 170.145
 60.977 l h
170.145 59.57 m f
210.668 5.387 m 202.371 5.371 l 202.371 6.621 l 203.527 6.621 l 203.121
 6.879 202.801 7.223 202.559 7.652 c 202.309 8.09 202.184 8.582 202.184 
9.137 c 202.184 9.75 202.309 10.254 202.559 10.652 c 202.809 11.047 203.164
 11.324 203.621 11.48 c 202.652 12.137 202.168 12.988 202.168 14.043 c 202.168
 14.863 202.398 15.496 202.855 15.934 c 203.305 16.379 204.004 16.609 204.949
 16.621 c 210.652 16.621 l 210.652 15.23 l 205.418 15.23 l 204.855 15.23
 204.457 15.176 204.215 15.074 c 203.965 14.98 203.77 14.813 203.621 14.574
 c 203.465 14.332 203.387 14.051 203.387 13.73 c 203.387 13.145 203.582 
12.66 203.965 12.277 c 204.352 11.891 204.973 11.703 205.824 11.715 c 210.652
 11.715 l 210.668 10.309 l 205.277 10.309 l 204.652 10.297 204.184 10.176
 203.871 9.949 c 203.559 9.719 203.402 9.344 203.402 8.824 c 203.402 8.426
 203.508 8.063 203.715 7.73 c 203.926 7.395 204.23 7.156 204.637 7.012 c
 205.035 6.863 205.605 6.793 206.355 6.793 c 210.668 6.793 l h
207.965 24.434 m 208.137 25.887 l 208.992 25.656 209.66 25.23 210.137 24.605
 c 210.605 23.988 210.84 23.203 210.84 22.246 c 210.84 21.027 210.465 20.063
 209.715 19.355 c 208.965 18.645 207.918 18.293 206.574 18.293 c 205.18 
18.281 204.098 18.637 203.324 19.355 c 202.555 20.074 202.168 21.004 202.168
 22.152 c 202.16 23.254 202.535 24.156 203.293 24.855 c 204.043 25.563 205.102
 25.922 206.465 25.934 c 206.551 25.934 206.676 25.934 206.84 25.934 c 206.855
 19.746 l 207.773 19.797 208.477 20.051 208.965 20.512 c 209.445 20.98 209.684
 21.559 209.684 22.246 c 209.684 22.766 209.551 23.207 209.277 23.574 c 
208.996 23.938 208.559 24.223 207.965 24.434 c h
205.699 19.824 m 205.684 24.449 l 204.988 24.387 204.465 24.203 204.121
 23.902 c 203.59 23.453 203.324 22.875 203.324 22.168 c 203.324 21.52 203.543
 20.98 203.98 20.543 c 204.41 20.105 204.98 19.863 205.699 19.824 c h
205.699 19.824 m f
210.641 27.668 m 202.344 27.652 l 202.344 28.902 l 203.5 28.902 l 203.094
 29.16 202.773 29.504 202.531 29.934 c 202.281 30.371 202.156 30.863 202.156
 31.418 c 202.156 32.031 202.281 32.535 202.531 32.934 c 202.781 33.328 
203.137 33.605 203.594 33.762 c 202.625 34.418 202.141 35.27 202.141 36.324
 c 202.141 37.145 202.371 37.777 202.828 38.215 c 203.277 38.66 203.977 
38.891 204.922 38.902 c 210.625 38.902 l 210.625 37.512 l 205.391 37.512
 l 204.828 37.512 204.43 37.457 204.188 37.355 c 203.938 37.262 203.742 
37.094 203.594 36.855 c 203.438 36.613 203.359 36.332 203.359 36.012 c 203.359
 35.426 203.555 34.941 203.938 34.559 c 204.324 34.172 204.945 33.984 205.797
 33.996 c 210.625 33.996 l 210.641 32.59 l 205.25 32.59 l 204.625 32.578
 204.156 32.457 203.844 32.23 c 203.531 32 203.375 31.625 203.375 31.105
 c 203.375 30.707 203.48 30.344 203.688 30.012 c 203.898 29.676 204.203 
29.438 204.609 29.293 c 205.008 29.145 205.578 29.074 206.328 29.074 c 210.641
 29.074 l h
210.641 27.668 m f
206.465 40.512 m 204.934 40.5 203.801 40.922 203.059 41.777 c 202.445 42.496
 202.137 43.363 202.137 44.387 c 202.129 45.531 202.496 46.465 203.246 47.184
 c 203.988 47.91 205.02 48.281 206.34 48.293 c 207.402 48.293 208.242 48.129
 208.855 47.809 c 209.473 47.484 209.949 47.016 210.293 46.402 c 210.637
 45.797 210.809 45.129 210.809 44.402 c 210.809 43.246 210.441 42.309 209.699
 41.59 c 208.949 40.871 207.871 40.512 206.465 40.512 c h
206.465 41.965 m 207.527 41.965 208.324 42.191 208.855 42.652 c 209.387
 43.121 209.652 43.703 209.652 44.402 c 209.652 45.098 209.387 45.676 208.855
 46.137 c 208.316 46.605 207.496 46.84 206.402 46.84 c 205.383 46.84 204.613
 46.605 204.09 46.137 c 203.559 45.668 203.293 45.082 203.293 44.387 c 203.293
 43.688 203.559 43.109 204.09 42.652 c 204.613 42.191 205.402 41.965 206.465
 41.965 c h
206.465 41.965 m f
210.609 49.934 m 202.313 49.918 l 202.313 51.184 l 203.563 51.184 l 202.98
 51.504 202.594 51.801 202.406 52.074 c 202.219 52.344 202.125 52.645 202.125
 52.98 c 202.125 53.449 202.277 53.926 202.578 54.418 c 203.875 53.934 l
 203.68 53.59 203.578 53.246 203.578 52.902 c 203.578 52.598 203.672 52.324
 203.859 52.074 c 204.039 51.832 204.293 51.668 204.625 51.574 c 205.125
 51.418 205.672 51.34 206.266 51.34 c 210.609 51.34 l h
210.609 49.934 m f
213.809 55.23 m 212.48 55.074 l 212.563 55.375 212.605 55.641 212.605 55.871
 c 212.605 56.184 212.551 56.434 212.449 56.621 c 212.344 56.809 212.199
 56.965 212.012 57.09 c 211.875 57.172 211.527 57.313 210.965 57.512 c 210.891
 57.543 210.777 57.582 210.621 57.637 c 202.309 54.48 l 202.309 55.996 l
 207.105 57.73 l 207.723 57.957 208.363 58.16 209.027 58.34 c 208.383 58.496
 207.754 58.688 207.137 58.918 c 202.293 60.668 l 202.293 62.074 l 210.746
 58.934 l 211.66 58.598 212.293 58.34 212.637 58.152 c 213.094 57.902 213.434
 57.613 213.652 57.293 c 213.871 56.969 213.98 56.582 213.98 56.137 c 213.98
 55.863 213.922 55.563 213.809 55.23 c h
213.809 55.23 m f
250.07 39.422 m 251.32 39.625 l 251.402 39.227 251.445 38.875 251.445 38.563
 c 251.445 38.051 251.367 37.656 251.211 37.375 c 251.047 37.094 250.832
 36.895 250.57 36.781 c 250.301 36.664 249.742 36.609 248.898 36.609 c 244.133
 36.594 l 244.133 35.563 l 243.039 35.563 l 243.039 36.594 l 240.977 36.594
 l 240.133 38 l 243.039 38 l 243.039 39.406 l 244.133 39.406 l 244.133 38
 l 248.977 38.016 l 249.383 38.016 249.645 38.035 249.758 38.078 c 249.875
 38.129 249.969 38.211 250.039 38.328 c 250.102 38.441 250.133 38.602 250.133
 38.813 c 250.133 38.969 250.113 39.172 250.07 39.422 c h
251.328 40.797 m 239.875 40.781 l 239.875 42.188 l 243.984 42.188 l 243.227
 42.844 242.844 43.672 242.844 44.672 c 242.844 45.285 242.965 45.816 243.203
 46.266 c 243.434 46.723 243.762 47.047 244.188 47.234 c 244.617 47.43 245.234
 47.535 246.047 47.547 c 251.313 47.547 l 251.313 46.141 l 246.047 46.141
 l 245.352 46.129 244.844 45.973 244.531 45.672 c 244.211 45.367 244.047
 44.938 244.047 44.375 c 244.047 43.957 244.156 43.566 244.375 43.203 c 
244.594 42.836 244.891 42.578 245.266 42.422 c 245.633 42.273 246.137 42.203
 246.781 42.203 c 251.328 42.203 l h
251.328 40.797 m f
250.27 55.109 m 250.73 54.586 251.051 54.086 251.238 53.609 c 251.414 53.129
 251.504 52.613 251.504 52.063 c 251.504 51.145 251.281 50.441 250.832 49.953
 c 250.387 49.461 249.816 49.219 249.129 49.219 c 248.723 49.219 248.355
 49.313 248.02 49.5 c 247.676 49.688 247.406 49.926 247.207 50.219 c 247
 50.52 246.844 50.859 246.738 51.234 c 246.668 51.516 246.598 51.93 246.535
 52.484 c 246.402 53.617 246.234 54.457 246.035 55 c 245.84 55 245.715 55
 245.66 55 c 245.09 54.988 244.691 54.852 244.473 54.594 c 244.152 54.227
 243.988 53.691 243.988 52.984 c 243.988 52.328 244.109 51.836 244.348 51.516
 c 244.578 51.203 244.984 50.977 245.566 50.844 c 245.379 49.469 l 244.797
 49.582 244.324 49.781 243.957 50.063 c 243.594 50.352 243.316 50.77 243.129
 51.313 c 242.934 51.852 242.832 52.477 242.832 53.188 c 242.832 53.895 
242.918 54.469 243.082 54.906 c 243.238 55.352 243.441 55.68 243.691 55.891
 c 243.941 56.098 244.262 56.242 244.645 56.328 c 244.887 56.379 245.316
 56.41 245.941 56.422 c 247.816 56.422 l 249.129 56.422 249.957 56.445 250.301
 56.5 c 250.645 56.563 250.98 56.68 251.301 56.859 c 251.301 55.391 l 251.012
 55.242 250.668 55.148 250.27 55.109 c h
247.129 55 m 247.348 54.488 247.531 53.723 247.676 52.703 c 247.762 52.117
 247.855 51.707 247.957 51.469 c 248.063 51.227 248.219 51.039 248.426 50.906
 c 248.625 50.781 248.844 50.719 249.082 50.719 c 249.457 50.719 249.77 
50.859 250.02 51.141 c 250.27 51.43 250.395 51.848 250.395 52.391 c 250.395
 52.93 250.281 53.41 250.051 53.828 c 249.813 54.254 249.48 54.566 249.051
 54.766 c 248.738 54.922 248.27 55 247.645 55 c h
247.129 55 m f
250.039 61.672 m 251.289 61.875 l 251.371 61.477 251.414 61.125 251.414
 60.813 c 251.414 60.301 251.336 59.906 251.18 59.625 c 251.016 59.344 250.801
 59.145 250.539 59.031 c 250.27 58.914 249.711 58.859 248.867 58.859 c 244.102
 58.844 l 244.102 57.813 l 243.008 57.813 l 243.008 58.844 l 240.945 58.844
 l 240.102 60.25 l 243.008 60.25 l 243.008 61.656 l 244.102 61.656 l 244.102
 60.25 l 248.945 60.266 l 249.352 60.266 249.613 60.285 249.727 60.328 c
 249.844 60.379 249.938 60.461 250.008 60.578 c 250.07 60.691 250.102 60.852
 250.102 61.063 c 250.102 61.219 250.082 61.422 250.039 61.672 c h
250.039 61.672 m f
291.93 26.992 m 280.477 26.977 l 280.477 28.383 l 284.586 28.383 l 283.828
 29.039 283.445 29.867 283.445 30.867 c 283.445 31.48 283.566 32.012 283.805
 32.461 c 284.035 32.918 284.363 33.242 284.789 33.43 c 285.219 33.625 285.836
 33.73 286.648 33.742 c 291.914 33.742 l 291.914 32.336 l 286.648 32.336
 l 285.953 32.324 285.445 32.168 285.133 31.867 c 284.813 31.563 284.648
 31.133 284.648 30.57 c 284.648 30.152 284.758 29.762 284.977 29.398 c 285.195
 29.031 285.492 28.773 285.867 28.617 c 286.234 28.469 286.738 28.398 287.383
 28.398 c 291.93 28.398 l h
287.762 35.367 m 286.23 35.355 285.098 35.777 284.355 36.633 c 283.742 
37.352 283.434 38.219 283.434 39.242 c 283.426 40.387 283.793 41.32 284.543
 42.039 c 285.285 42.766 286.316 43.137 287.637 43.148 c 288.699 43.148 
289.539 42.984 290.152 42.664 c 290.77 42.34 291.246 41.871 291.59 41.258
 c 291.934 40.652 292.105 39.984 292.105 39.258 c 292.105 38.102 291.738
 37.164 290.996 36.445 c 290.246 35.727 289.168 35.367 287.762 35.367 c 
h
287.762 36.82 m 288.824 36.82 289.621 37.047 290.152 37.508 c 290.684 37.977
 290.949 38.559 290.949 39.258 c 290.949 39.953 290.684 40.531 290.152 40.992
 c 289.613 41.461 288.793 41.695 287.699 41.695 c 286.68 41.695 285.91 41.461
 285.387 40.992 c 284.855 40.523 284.59 39.938 284.59 39.242 c 284.59 38.543
 284.855 37.965 285.387 37.508 c 285.91 37.047 286.699 36.82 287.762 36.82
 c h
287.762 36.82 m f
291.906 44.773 m 280.453 44.758 l 280.453 46.164 l 291.906 46.18 l h
291.906 44.773 m f
291.887 53.742 m 290.84 53.742 l 291.676 53.219 292.09 52.449 292.09 51.43
 c 292.09 50.762 291.906 50.152 291.543 49.602 c 291.18 49.047 290.668 48.617
 290.012 48.305 c 289.355 48 288.605 47.852 287.762 47.852 c 286.93 47.852
 286.18 47.984 285.512 48.258 c 284.836 48.527 284.32 48.938 283.965 49.492
 c 283.602 50.043 283.418 50.664 283.418 51.352 c 283.418 51.852 283.523
 52.293 283.73 52.68 c 283.941 53.074 284.211 53.391 284.543 53.633 c 280.434
 53.633 l 280.434 55.039 l 291.887 55.055 l h
287.762 49.305 m 288.824 49.305 289.621 49.527 290.152 49.977 c 290.676
 50.422 290.934 50.949 290.934 51.555 c 290.934 52.168 290.68 52.688 290.168
 53.117 c 289.66 53.555 288.887 53.773 287.855 53.773 c 286.723 53.773 285.895
 53.547 285.371 53.102 c 284.84 52.664 284.574 52.121 284.574 51.477 c 284.574
 50.852 284.832 50.328 285.34 49.914 c 285.852 49.508 286.66 49.305 287.762
 49.305 c h
287.762 49.305 m f
289.406 56.711 m 289.188 58.102 l 289.75 58.172 290.184 58.387 290.484 
58.742 c 290.777 59.105 290.922 59.605 290.922 60.242 c 290.922 60.887 290.793
 61.367 290.531 61.68 c 290.262 61.992 289.949 62.148 289.594 62.148 c 289.281
 62.148 289.031 62.012 288.844 61.742 c 288.719 61.543 288.563 61.063 288.375
 60.305 c 288.117 59.273 287.891 58.555 287.703 58.148 c 287.508 57.75 287.242
 57.449 286.906 57.242 c 286.574 57.043 286.203 56.945 285.797 56.945 c 
285.422 56.934 285.078 57.012 284.766 57.18 c 284.453 57.344 284.195 57.574
 283.984 57.867 c 283.82 58.086 283.684 58.383 283.578 58.758 c 283.465 
59.141 283.406 59.547 283.406 59.977 c 283.406 60.633 283.5 61.203 283.688
 61.695 c 283.867 62.184 284.117 62.543 284.438 62.773 c 284.75 63.012 285.18
 63.18 285.719 63.273 c 285.922 61.914 l 285.496 61.84 285.164 61.652 284.922
 61.352 c 284.684 61.047 284.563 60.625 284.563 60.086 c 284.563 59.438 
284.672 58.977 284.891 58.695 c 285.102 58.422 285.344 58.289 285.625 58.289
 c 285.813 58.297 285.98 58.359 286.125 58.477 c 286.273 58.59 286.398 58.766
 286.5 59.008 c 286.555 59.152 286.672 59.57 286.859 60.258 c 287.121 61.246
 287.336 61.938 287.5 62.336 c 287.668 62.73 287.914 63.039 288.234 63.258
 c 288.559 63.484 288.961 63.602 289.438 63.602 c 289.906 63.602 290.352
 63.461 290.766 63.18 c 291.172 62.906 291.496 62.512 291.734 61.992 c 291.961
 61.48 292.078 60.902 292.078 60.258 c 292.078 59.172 291.855 58.352 291.406
 57.789 c 290.961 57.227 290.293 56.867 289.406 56.711 c h
289.406 56.711 m f
331.426 61.027 m 331.887 60.504 332.207 60.004 332.395 59.527 c 332.57 
59.047 332.66 58.531 332.66 57.98 c 332.66 57.063 332.438 56.359 331.988
 55.871 c 331.543 55.379 330.973 55.137 330.285 55.137 c 329.879 55.137 
329.512 55.23 329.176 55.418 c 328.832 55.605 328.563 55.844 328.363 56.137
 c 328.156 56.438 328 56.777 327.895 57.152 c 327.824 57.434 327.754 57.848
 327.691 58.402 c 327.559 59.535 327.391 60.375 327.191 60.918 c 326.996
 60.918 326.871 60.918 326.816 60.918 c 326.246 60.906 325.848 60.77 325.629
 60.512 c 325.309 60.145 325.145 59.609 325.145 58.902 c 325.145 58.246 
325.266 57.754 325.504 57.434 c 325.734 57.121 326.141 56.895 326.723 56.762
 c 326.535 55.387 l 325.953 55.5 325.48 55.699 325.113 55.98 c 324.75 56.27
 324.473 56.688 324.285 57.23 c 324.09 57.77 323.988 58.395 323.988 59.105
 c 323.988 59.813 324.074 60.387 324.238 60.824 c 324.395 61.27 324.598 
61.598 324.848 61.809 c 325.098 62.016 325.418 62.16 325.801 62.246 c 326.043
 62.297 326.473 62.328 327.098 62.34 c 328.973 62.34 l 330.285 62.34 331.113
 62.363 331.457 62.418 c 331.801 62.48 332.137 62.598 332.457 62.777 c 332.457
 61.309 l 332.168 61.16 331.824 61.066 331.426 61.027 c h
328.285 60.918 m 328.504 60.406 328.688 59.641 328.832 58.621 c 328.918
 58.035 329.012 57.625 329.113 57.387 c 329.219 57.145 329.375 56.957 329.582
 56.824 c 329.781 56.699 330 56.637 330.238 56.637 c 330.613 56.637 330.926
 56.777 331.176 57.059 c 331.426 57.348 331.551 57.766 331.551 58.309 c 
331.551 58.848 331.438 59.328 331.207 59.746 c 330.969 60.172 330.637 60.484
 330.207 60.684 c 329.895 60.84 329.426 60.918 328.801 60.918 c h
328.285 60.918 m f
370.691 10.457 m 370.473 11.848 l 371.035 11.918 371.469 12.133 371.77 
12.488 c 372.063 12.852 372.207 13.352 372.207 13.988 c 372.207 14.633 372.078
 15.113 371.816 15.426 c 371.547 15.738 371.234 15.895 370.879 15.895 c 
370.566 15.895 370.316 15.758 370.129 15.488 c 370.004 15.289 369.848 14.809
 369.66 14.051 c 369.402 13.02 369.176 12.301 368.988 11.895 c 368.793 11.496
 368.527 11.195 368.191 10.988 c 367.859 10.789 367.488 10.691 367.082 10.691
 c 366.707 10.68 366.363 10.758 366.051 10.926 c 365.738 11.09 365.48 11.32
 365.27 11.613 c 365.105 11.832 364.969 12.129 364.863 12.504 c 364.75 12.887
 364.691 13.293 364.691 13.723 c 364.691 14.379 364.785 14.949 364.973 15.441
 c 365.152 15.93 365.402 16.289 365.723 16.52 c 366.035 16.758 366.465 16.926
 367.004 17.02 c 367.207 15.66 l 366.781 15.586 366.449 15.398 366.207 15.098
 c 365.969 14.793 365.848 14.371 365.848 13.832 c 365.848 13.184 365.957
 12.723 366.176 12.441 c 366.387 12.168 366.629 12.035 366.91 12.035 c 367.098
 12.043 367.266 12.105 367.41 12.223 c 367.559 12.336 367.684 12.512 367.785
 12.754 c 367.84 12.898 367.957 13.316 368.145 14.004 c 368.406 14.992 368.621
 15.684 368.785 16.082 c 368.953 16.477 369.199 16.785 369.52 17.004 c 369.844
 17.23 370.246 17.348 370.723 17.348 c 371.191 17.348 371.637 17.207 372.051
 16.926 c 372.457 16.652 372.781 16.258 373.02 15.738 c 373.246 15.227 373.363
 14.648 373.363 14.004 c 373.363 12.918 373.141 12.098 372.691 11.535 c 
372.246 10.973 371.578 10.613 370.691 10.457 c h
376.352 19.02 m 364.867 19.004 l 364.867 20.285 l 365.945 20.285 l 365.52
 20.586 365.203 20.926 364.992 21.301 c 364.785 21.684 364.68 22.148 364.68
 22.691 c 364.68 23.398 364.863 24.023 365.227 24.566 c 365.582 25.105 366.094
 25.52 366.758 25.801 c 367.414 26.082 368.141 26.223 368.93 26.223 c 369.785
 26.223 370.551 26.066 371.227 25.754 c 371.906 25.449 372.43 25.008 372.805
 24.426 c 373.168 23.852 373.352 23.242 373.352 22.598 c 373.352 22.129 
373.25 21.707 373.055 21.332 c 372.859 20.965 372.609 20.664 372.305 20.426
 c 376.352 20.426 l h
369.055 20.285 m 370.129 20.285 370.922 20.496 371.43 20.926 c 371.941 
21.363 372.195 21.887 372.195 22.504 c 372.195 23.129 371.93 23.664 371.398
 24.113 c 370.859 24.559 370.035 24.785 368.93 24.785 c 367.867 24.785 367.078
 24.559 366.555 24.113 c 366.035 23.676 365.773 23.152 365.773 22.551 c 
365.773 21.957 366.055 21.43 366.617 20.973 c 367.18 20.512 367.992 20.285
 369.055 20.285 c h
369.055 20.285 m f
370.465 33.598 m 370.637 35.051 l 371.492 34.82 372.16 34.395 372.637 33.77
 c 373.105 33.152 373.34 32.367 373.34 31.41 c 373.34 30.191 372.965 29.227
 372.215 28.52 c 371.465 27.809 370.418 27.457 369.074 27.457 c 367.68 27.445
 366.598 27.801 365.824 28.52 c 365.055 29.238 364.668 30.168 364.668 31.316
 c 364.66 32.418 365.035 33.32 365.793 34.02 c 366.543 34.727 367.602 35.086
 368.965 35.098 c 369.051 35.098 369.176 35.098 369.34 35.098 c 369.355 
28.91 l 370.273 28.961 370.977 29.215 371.465 29.676 c 371.945 30.145 372.184
 30.723 372.184 31.41 c 372.184 31.93 372.051 32.371 371.777 32.738 c 371.496
 33.102 371.059 33.387 370.465 33.598 c h
368.199 28.988 m 368.184 33.613 l 367.488 33.551 366.965 33.367 366.621
 33.066 c 366.09 32.617 365.824 32.039 365.824 31.332 c 365.824 30.684 366.043
 30.145 366.48 29.707 c 366.91 29.27 367.48 29.027 368.199 28.988 c h
368.199 28.988 m f
370.082 42.238 m 370.27 43.629 l 371.219 43.473 371.969 43.082 372.52 42.457
 c 373.063 41.84 373.332 41.082 373.332 40.176 c 373.332 39.039 372.965 
38.121 372.223 37.426 c 371.473 36.738 370.406 36.395 369.02 36.395 c 368.125
 36.395 367.344 36.539 366.676 36.832 c 366 37.121 365.496 37.57 365.16 
38.176 c 364.828 38.789 364.66 39.449 364.66 40.16 c 364.66 41.066 364.887
 41.805 365.332 42.379 c 365.781 42.949 366.426 43.32 367.27 43.488 c 367.473
 42.129 l 366.922 41.98 366.512 41.742 366.238 41.41 c 365.957 41.086 365.816
 40.691 365.816 40.223 c 365.816 39.512 366.074 38.941 366.582 38.504 c 
367.082 38.066 367.887 37.848 368.988 37.848 c 370.105 37.848 370.918 38.059
 371.426 38.488 c 371.926 38.914 372.176 39.473 372.176 40.16 c 372.176 
40.711 372.004 41.168 371.66 41.535 c 371.316 41.91 370.793 42.145 370.082
 42.238 c h
370.082 42.238 m f
363.289 44.816 m 361.68 44.816 l 361.68 46.223 l 363.289 46.223 l h
373.133 44.832 m 364.836 44.816 l 364.836 46.223 l 373.133 46.238 l h
373.133 44.832 m f
373.129 48.723 m 365.926 48.707 l 365.926 47.473 l 364.832 47.473 l 364.832
 48.707 l 363.941 48.707 l 363.391 48.707 362.98 48.758 362.707 48.863 c
 362.344 48.996 362.047 49.23 361.816 49.566 c 361.59 49.91 361.473 50.387
 361.473 51.004 c 361.473 51.398 361.52 51.836 361.613 52.316 c 362.848 
52.113 l 362.797 51.82 362.77 51.543 362.77 51.285 c 362.77 50.855 362.863
 50.555 363.051 50.379 c 363.23 50.199 363.566 50.113 364.066 50.113 c 364.832
 50.113 l 364.832 51.723 l 365.926 51.723 l 365.926 50.113 l 373.129 50.129
 l h
373.129 48.723 m f
363.277 52.816 m 361.668 52.816 l 361.668 54.223 l 363.277 54.223 l h
373.121 52.832 m 364.824 52.816 l 364.824 54.223 l 373.121 54.238 l h
373.121 52.832 m f
370.055 61.801 m 370.242 63.191 l 371.191 63.035 371.941 62.645 372.492
 62.02 c 373.035 61.402 373.305 60.645 373.305 59.738 c 373.305 58.602 372.938
 57.684 372.195 56.988 c 371.445 56.301 370.379 55.957 368.992 55.957 c 
368.098 55.957 367.316 56.102 366.648 56.395 c 365.973 56.684 365.469 57.133
 365.133 57.738 c 364.801 58.352 364.633 59.012 364.633 59.723 c 364.633
 60.629 364.859 61.367 365.305 61.941 c 365.754 62.512 366.398 62.883 367.242
 63.051 c 367.445 61.691 l 366.895 61.543 366.484 61.305 366.211 60.973 
c 365.93 60.648 365.789 60.254 365.789 59.785 c 365.789 59.074 366.047 58.504
 366.555 58.066 c 367.055 57.629 367.859 57.41 368.961 57.41 c 370.078 57.41
 370.891 57.621 371.398 58.051 c 371.898 58.477 372.148 59.035 372.148 59.723
 c 372.148 60.273 371.977 60.73 371.633 61.098 c 371.289 61.473 370.766 
61.707 370.055 61.801 c h
370.055 61.801 m f
412.273 37.758 m 413.523 37.961 l 413.605 37.563 413.648 37.211 413.648
 36.898 c 413.648 36.387 413.57 35.992 413.414 35.711 c 413.25 35.43 413.035
 35.23 412.773 35.117 c 412.504 35 411.945 34.945 411.102 34.945 c 406.336
 34.93 l 406.336 33.898 l 405.242 33.898 l 405.242 34.93 l 403.18 34.93 
l 402.336 36.336 l 405.242 36.336 l 405.242 37.742 l 406.336 37.742 l 406.336
 36.336 l 411.18 36.352 l 411.586 36.352 411.848 36.371 411.961 36.414 c
 412.078 36.465 412.172 36.547 412.242 36.664 c 412.305 36.777 412.336 36.938
 412.336 37.148 c 412.336 37.305 412.316 37.508 412.273 37.758 c h
416.738 39.07 m 415.41 38.914 l 415.492 39.215 415.535 39.48 415.535 39.711
 c 415.535 40.023 415.48 40.273 415.379 40.461 c 415.273 40.648 415.129 
40.805 414.941 40.93 c 414.805 41.012 414.457 41.152 413.895 41.352 c 413.82
 41.383 413.707 41.422 413.551 41.477 c 405.238 38.32 l 405.238 39.836 l
 410.035 41.57 l 410.652 41.797 411.293 42 411.957 42.18 c 411.313 42.336
 410.684 42.527 410.066 42.758 c 405.223 44.508 l 405.223 45.914 l 413.676
 42.773 l 414.59 42.438 415.223 42.18 415.566 41.992 c 416.023 41.742 416.363
 41.453 416.582 41.133 c 416.801 40.809 416.91 40.422 416.91 39.977 c 416.91
 39.703 416.852 39.402 416.738 39.07 c h
416.738 39.07 m f
416.711 47.133 m 405.227 47.117 l 405.227 48.398 l 406.305 48.398 l 405.879
 48.699 405.563 49.039 405.352 49.414 c 405.145 49.797 405.039 50.262 405.039
 50.805 c 405.039 51.512 405.223 52.137 405.586 52.68 c 405.941 53.219 406.453
 53.633 407.117 53.914 c 407.773 54.195 408.5 54.336 409.289 54.336 c 410.145
 54.336 410.91 54.18 411.586 53.867 c 412.266 53.563 412.789 53.121 413.164
 52.539 c 413.527 51.965 413.711 51.355 413.711 50.711 c 413.711 50.242 
413.609 49.82 413.414 49.445 c 413.219 49.078 412.969 48.777 412.664 48.539
 c 416.711 48.539 l h
409.414 48.398 m 410.488 48.398 411.281 48.609 411.789 49.039 c 412.301
 49.477 412.555 50 412.555 50.617 c 412.555 51.242 412.289 51.777 411.758
 52.227 c 411.219 52.672 410.395 52.898 409.289 52.898 c 408.227 52.898 
407.438 52.672 406.914 52.227 c 406.395 51.789 406.133 51.266 406.133 50.664
 c 406.133 50.07 406.414 49.543 406.977 49.086 c 407.539 48.625 408.352 
48.398 409.414 48.398 c h
409.414 48.398 m f
410.824 61.711 m 410.996 63.164 l 411.852 62.934 412.52 62.508 412.996 
61.883 c 413.465 61.266 413.699 60.48 413.699 59.523 c 413.699 58.305 413.324
 57.34 412.574 56.633 c 411.824 55.922 410.777 55.57 409.434 55.57 c 408.039
 55.559 406.957 55.914 406.184 56.633 c 405.414 57.352 405.027 58.281 405.027
 59.43 c 405.02 60.531 405.395 61.434 406.152 62.133 c 406.902 62.84 407.961
 63.199 409.324 63.211 c 409.41 63.211 409.535 63.211 409.699 63.211 c 409.715
 57.023 l 410.633 57.074 411.336 57.328 411.824 57.789 c 412.305 58.258 
412.543 58.836 412.543 59.523 c 412.543 60.043 412.41 60.484 412.137 60.852
 c 411.855 61.215 411.418 61.5 410.824 61.711 c h
408.559 57.102 m 408.543 61.727 l 407.848 61.664 407.324 61.48 406.98 61.18
 c 406.449 60.73 406.184 60.152 406.184 59.445 c 406.184 58.797 406.402 
58.258 406.84 57.82 c 407.27 57.383 407.84 57.141 408.559 57.102 c h
408.559 57.102 m f
450.07 50.172 m 448.539 50.16 447.406 50.582 446.664 51.438 c 446.051 52.156
 445.742 53.023 445.742 54.047 c 445.734 55.191 446.102 56.125 446.852 56.844
 c 447.594 57.57 448.625 57.941 449.945 57.953 c 451.008 57.953 451.848 
57.789 452.461 57.469 c 453.078 57.145 453.555 56.676 453.898 56.063 c 454.242
 55.457 454.414 54.789 454.414 54.063 c 454.414 52.906 454.047 51.969 453.305
 51.25 c 452.555 50.531 451.477 50.172 450.07 50.172 c h
450.07 51.625 m 451.133 51.625 451.93 51.852 452.461 52.313 c 452.992 52.781
 453.258 53.363 453.258 54.063 c 453.258 54.758 452.992 55.336 452.461 55.797
 c 451.922 56.266 451.102 56.5 450.008 56.5 c 448.988 56.5 448.219 56.266
 447.695 55.797 c 447.164 55.328 446.898 54.742 446.898 54.047 c 446.898
 53.348 447.164 52.77 447.695 52.313 c 448.219 51.852 449.008 51.625 450.07
 51.625 c h
454.215 59.938 m 447.012 59.922 l 447.012 58.688 l 445.918 58.688 l 445.918
 59.922 l 445.027 59.922 l 444.477 59.922 444.066 59.973 443.793 60.078 
c 443.43 60.211 443.133 60.445 442.902 60.781 c 442.676 61.125 442.559 61.602
 442.559 62.219 c 442.559 62.613 442.605 63.051 442.699 63.531 c 443.934
 63.328 l 443.883 63.035 443.855 62.758 443.855 62.5 c 443.855 62.07 443.949
 61.77 444.137 61.594 c 444.316 61.414 444.652 61.328 445.152 61.328 c 445.918
 61.328 l 445.918 62.938 l 447.012 62.938 l 447.012 61.328 l 454.215 61.344
 l h
454.215 59.938 m f
494.816 38.285 m 493.77 38.285 l 494.605 37.762 495.02 36.992 495.02 35.973
 c 495.02 35.305 494.836 34.695 494.473 34.145 c 494.109 33.59 493.598 33.16
 492.941 32.848 c 492.285 32.543 491.535 32.395 490.691 32.395 c 489.859
 32.395 489.109 32.527 488.441 32.801 c 487.766 33.07 487.25 33.48 486.895
 34.035 c 486.531 34.586 486.348 35.207 486.348 35.895 c 486.348 36.395 
486.453 36.836 486.66 37.223 c 486.871 37.617 487.141 37.934 487.473 38.176
 c 483.363 38.176 l 483.363 39.582 l 494.816 39.598 l h
490.691 33.848 m 491.754 33.848 492.551 34.07 493.082 34.52 c 493.605 34.965
 493.863 35.492 493.863 36.098 c 493.863 36.711 493.609 37.23 493.098 37.66
 c 492.59 38.098 491.816 38.316 490.785 38.316 c 489.652 38.316 488.824 
38.09 488.301 37.645 c 487.77 37.207 487.504 36.664 487.504 36.02 c 487.504
 35.395 487.762 34.871 488.27 34.457 c 488.781 34.051 489.59 33.848 490.691
 33.848 c h
493.773 47.223 m 494.234 46.699 494.555 46.199 494.742 45.723 c 494.918
 45.242 495.008 44.727 495.008 44.176 c 495.008 43.258 494.785 42.555 494.336
 42.066 c 493.891 41.574 493.32 41.332 492.633 41.332 c 492.227 41.332 491.859
 41.426 491.523 41.613 c 491.18 41.801 490.91 42.039 490.711 42.332 c 490.504
 42.633 490.348 42.973 490.242 43.348 c 490.172 43.629 490.102 44.043 490.039
 44.598 c 489.906 45.73 489.738 46.57 489.539 47.113 c 489.344 47.113 489.219
 47.113 489.164 47.113 c 488.594 47.102 488.195 46.965 487.977 46.707 c 
487.656 46.34 487.492 45.805 487.492 45.098 c 487.492 44.441 487.613 43.949
 487.852 43.629 c 488.082 43.316 488.488 43.09 489.07 42.957 c 488.883 41.582
 l 488.301 41.695 487.828 41.895 487.461 42.176 c 487.098 42.465 486.82 
42.883 486.633 43.426 c 486.438 43.965 486.336 44.59 486.336 45.301 c 486.336
 46.008 486.422 46.582 486.586 47.02 c 486.742 47.465 486.945 47.793 487.195
 48.004 c 487.445 48.211 487.766 48.355 488.148 48.441 c 488.391 48.492 
488.82 48.523 489.445 48.535 c 491.32 48.535 l 492.633 48.535 493.461 48.559
 493.805 48.613 c 494.148 48.676 494.484 48.793 494.805 48.973 c 494.805
 47.504 l 494.516 47.355 494.172 47.262 493.773 47.223 c h
490.633 47.113 m 490.852 46.602 491.035 45.836 491.18 44.816 c 491.266 
44.23 491.359 43.82 491.461 43.582 c 491.566 43.34 491.723 43.152 491.93
 43.02 c 492.129 42.895 492.348 42.832 492.586 42.832 c 492.961 42.832 493.273
 42.973 493.523 43.254 c 493.773 43.543 493.898 43.961 493.898 44.504 c 
493.898 45.043 493.785 45.523 493.555 45.941 c 493.316 46.367 492.984 46.68
 492.555 46.879 c 492.242 47.035 491.773 47.113 491.148 47.113 c h
490.633 47.113 m f
493.543 53.785 m 494.793 53.988 l 494.875 53.59 494.918 53.238 494.918 
52.926 c 494.918 52.414 494.84 52.02 494.684 51.738 c 494.52 51.457 494.305
 51.258 494.043 51.145 c 493.773 51.027 493.215 50.973 492.371 50.973 c 
487.605 50.957 l 487.605 49.926 l 486.512 49.926 l 486.512 50.957 l 484.449
 50.957 l 483.605 52.363 l 486.512 52.363 l 486.512 53.77 l 487.605 53.77
 l 487.605 52.363 l 492.449 52.379 l 492.855 52.379 493.117 52.398 493.23
 52.441 c 493.348 52.492 493.441 52.574 493.512 52.691 c 493.574 52.805 
493.605 52.965 493.605 53.176 c 493.605 53.332 493.586 53.535 493.543 53.785
 c h
493.543 53.785 m f
493.754 60.566 m 494.215 60.043 494.535 59.543 494.723 59.066 c 494.898
 58.586 494.988 58.07 494.988 57.52 c 494.988 56.602 494.766 55.898 494.316
 55.41 c 493.871 54.918 493.301 54.676 492.613 54.676 c 492.207 54.676 491.84
 54.77 491.504 54.957 c 491.16 55.145 490.891 55.383 490.691 55.676 c 490.484
 55.977 490.328 56.316 490.223 56.691 c 490.152 56.973 490.082 57.387 490.02
 57.941 c 489.887 59.074 489.719 59.914 489.52 60.457 c 489.324 60.457 489.199
 60.457 489.145 60.457 c 488.574 60.445 488.176 60.309 487.957 60.051 c 
487.637 59.684 487.473 59.148 487.473 58.441 c 487.473 57.785 487.594 57.293
 487.832 56.973 c 488.063 56.66 488.469 56.434 489.051 56.301 c 488.863 
54.926 l 488.281 55.039 487.809 55.238 487.441 55.52 c 487.078 55.809 486.801
 56.227 486.613 56.77 c 486.418 57.309 486.316 57.934 486.316 58.645 c 486.316
 59.352 486.402 59.926 486.566 60.363 c 486.723 60.809 486.926 61.137 487.176
 61.348 c 487.426 61.555 487.746 61.699 488.129 61.785 c 488.371 61.836 
488.801 61.867 489.426 61.879 c 491.301 61.879 l 492.613 61.879 493.441 
61.902 493.785 61.957 c 494.129 62.02 494.465 62.137 494.785 62.316 c 494.785
 60.848 l 494.496 60.699 494.152 60.605 493.754 60.566 c h
490.613 60.457 m 490.832 59.945 491.016 59.18 491.16 58.16 c 491.246 57.574
 491.34 57.164 491.441 56.926 c 491.547 56.684 491.703 56.496 491.91 56.363
 c 492.109 56.238 492.328 56.176 492.566 56.176 c 492.941 56.176 493.254
 56.316 493.504 56.598 c 493.754 56.887 493.879 57.305 493.879 57.848 c 
493.879 58.387 493.766 58.867 493.535 59.285 c 493.297 59.711 492.965 60.023
 492.535 60.223 c 492.223 60.379 491.754 60.457 491.129 60.457 c h
490.613 60.457 m f
28.574 80.406 m 25.402 88.703 l 26.887 88.703 l 28.684 83.734 l 28.879 
83.203 29.059 82.645 29.215 82.063 c 29.34 82.5 29.516 83.023 29.746 83.641
 c 31.574 88.719 l 33.012 88.719 l 29.887 80.406 l h
39.715 81.465 m 39.191 81.004 38.691 80.684 38.215 80.496 c 37.734 80.32
 37.219 80.23 36.668 80.23 c 35.75 80.23 35.047 80.453 34.559 80.902 c 34.066
 81.348 33.824 81.918 33.824 82.605 c 33.824 83.012 33.918 83.379 34.105
 83.715 c 34.293 84.059 34.531 84.328 34.824 84.527 c 35.125 84.734 35.465
 84.891 35.84 84.996 c 36.121 85.066 36.535 85.137 37.09 85.199 c 38.223
 85.332 39.063 85.5 39.605 85.699 c 39.605 85.895 39.605 86.02 39.605 86.074
 c 39.594 86.645 39.457 87.043 39.199 87.262 c 38.832 87.582 38.297 87.746
 37.59 87.746 c 36.934 87.746 36.441 87.625 36.121 87.387 c 35.809 87.156
 35.582 86.75 35.449 86.168 c 34.074 86.355 l 34.188 86.938 34.387 87.41
 34.668 87.777 c 34.957 88.141 35.375 88.418 35.918 88.605 c 36.457 88.801
 37.082 88.902 37.793 88.902 c 38.5 88.902 39.074 88.816 39.512 88.652 c
 39.957 88.496 40.285 88.293 40.496 88.043 c 40.703 87.793 40.848 87.473
 40.934 87.09 c 40.984 86.848 41.016 86.418 41.027 85.793 c 41.027 83.918
 l 41.027 82.605 41.051 81.777 41.105 81.434 c 41.168 81.09 41.285 80.754
 41.465 80.434 c 39.996 80.434 l 39.848 80.723 39.754 81.066 39.715 81.465
 c h
39.605 84.605 m 39.094 84.387 38.328 84.203 37.309 84.059 c 36.723 83.973
 36.313 83.879 36.074 83.777 c 35.832 83.672 35.645 83.516 35.512 83.309
 c 35.387 83.109 35.324 82.891 35.324 82.652 c 35.324 82.277 35.465 81.965
 35.746 81.715 c 36.035 81.465 36.453 81.34 36.996 81.34 c 37.535 81.34 
38.016 81.453 38.434 81.684 c 38.859 81.922 39.172 82.254 39.371 82.684 
c 39.527 82.996 39.605 83.465 39.605 84.09 c h
39.605 84.605 m f
43.184 80.43 m 43.168 91.883 l 44.574 91.883 l 44.59 80.43 l h
43.184 80.43 m f
52.215 80.449 m 52.215 81.668 l 51.566 80.719 50.688 80.246 49.574 80.246
 c 49.082 80.246 48.625 80.34 48.199 80.527 c 47.781 80.715 47.469 80.949
 47.262 81.23 c 47.051 81.52 46.906 81.871 46.824 82.277 c 46.77 82.559 
46.746 82.996 46.746 83.59 c 46.73 88.73 l 48.137 88.73 l 48.152 84.137 
l 48.152 83.395 48.176 82.902 48.23 82.652 c 48.324 82.277 48.512 81.984
 48.793 81.777 c 49.082 81.566 49.438 81.465 49.855 81.465 c 50.281 81.465
 50.676 81.566 51.043 81.777 c 51.418 81.996 51.676 82.293 51.824 82.668
 c 51.98 83.051 52.059 83.598 52.059 84.309 c 52.043 88.746 l 53.449 88.746
 l 53.465 80.449 l h
52.215 80.449 m f
61.355 83.133 m 62.809 82.961 l 62.578 82.105 62.152 81.438 61.527 80.961
 c 60.91 80.492 60.125 80.258 59.168 80.258 c 57.949 80.258 56.984 80.633
 56.277 81.383 c 55.566 82.133 55.215 83.18 55.215 84.523 c 55.203 85.918
 55.559 87 56.277 87.773 c 56.996 88.543 57.926 88.93 59.074 88.93 c 60.176
 88.938 61.078 88.563 61.777 87.805 c 62.484 87.055 62.844 85.996 62.855
 84.633 c 62.855 84.547 62.855 84.422 62.855 84.258 c 56.668 84.242 l 56.719
 83.324 56.973 82.621 57.434 82.133 c 57.902 81.652 58.48 81.414 59.168 
81.414 c 59.688 81.414 60.129 81.547 60.496 81.82 c 60.859 82.102 61.145
 82.539 61.355 83.133 c h
56.746 85.398 m 61.371 85.414 l 61.309 86.109 61.125 86.633 60.824 86.977
 c 60.375 87.508 59.797 87.773 59.09 87.773 c 58.441 87.773 57.902 87.555
 57.465 87.117 c 57.027 86.688 56.785 86.117 56.746 85.398 c h
56.746 85.398 m f
60.715 115.594 m 60.191 115.133 59.691 114.813 59.215 114.625 c 58.734 
114.449 58.219 114.359 57.668 114.359 c 56.75 114.359 56.047 114.582 55.559
 115.031 c 55.066 115.477 54.824 116.047 54.824 116.734 c 54.824 117.141
 54.918 117.508 55.105 117.844 c 55.293 118.188 55.531 118.457 55.824 118.656
 c 56.125 118.863 56.465 119.02 56.84 119.125 c 57.121 119.195 57.535 119.266
 58.09 119.328 c 59.223 119.461 60.063 119.629 60.605 119.828 c 60.605 120.023
 60.605 120.148 60.605 120.203 c 60.594 120.773 60.457 121.172 60.199 121.391
 c 59.832 121.711 59.297 121.875 58.59 121.875 c 57.934 121.875 57.441 121.754
 57.121 121.516 c 56.809 121.285 56.582 120.879 56.449 120.297 c 55.074 
120.484 l 55.188 121.066 55.387 121.539 55.668 121.906 c 55.957 122.27 56.375
 122.547 56.918 122.734 c 57.457 122.93 58.082 123.031 58.793 123.031 c 
59.5 123.031 60.074 122.945 60.512 122.781 c 60.957 122.625 61.285 122.422
 61.496 122.172 c 61.703 121.922 61.848 121.602 61.934 121.219 c 61.984 
120.977 62.016 120.547 62.027 119.922 c 62.027 118.047 l 62.027 116.734 
62.051 115.906 62.105 115.563 c 62.168 115.219 62.285 114.883 62.465 114.563
 c 60.996 114.563 l 60.848 114.852 60.754 115.195 60.715 115.594 c h
60.605 118.734 m 60.094 118.516 59.328 118.332 58.309 118.188 c 57.723 
118.102 57.313 118.008 57.074 117.906 c 56.832 117.801 56.645 117.645 56.512
 117.438 c 56.387 117.238 56.324 117.02 56.324 116.781 c 56.324 116.406 
56.465 116.094 56.746 115.844 c 57.035 115.594 57.453 115.469 57.996 115.469
 c 58.535 115.469 59.016 115.582 59.434 115.813 c 59.859 116.051 60.172 
116.383 60.371 116.813 c 60.527 117.125 60.605 117.594 60.605 118.219 c 
h
60.605 118.734 m f
28.984 151.098 m 30.375 151.316 l 30.445 150.754 30.66 150.32 31.016 150.02
 c 31.379 149.727 31.879 149.582 32.516 149.582 c 33.16 149.582 33.641 149.711
 33.953 149.973 c 34.266 150.242 34.422 150.555 34.422 150.91 c 34.422 151.223
 34.285 151.473 34.016 151.66 c 33.816 151.785 33.336 151.941 32.578 152.129
 c 31.547 152.387 30.828 152.613 30.422 152.801 c 30.023 152.996 29.723 
153.262 29.516 153.598 c 29.316 153.93 29.219 154.301 29.219 154.707 c 29.207
 155.082 29.285 155.426 29.453 155.738 c 29.617 156.051 29.848 156.309 30.141
 156.52 c 30.359 156.684 30.656 156.82 31.031 156.926 c 31.414 157.039 31.82
 157.098 32.25 157.098 c 32.906 157.098 33.477 157.004 33.969 156.816 c 
34.457 156.637 34.816 156.387 35.047 156.066 c 35.285 155.754 35.453 155.324
 35.547 154.785 c 34.188 154.582 l 34.113 155.008 33.926 155.34 33.625 155.582
 c 33.32 155.82 32.898 155.941 32.359 155.941 c 31.711 155.941 31.25 155.832
 30.969 155.613 c 30.695 155.402 30.563 155.16 30.563 154.879 c 30.57 154.691
 30.633 154.523 30.75 154.379 c 30.863 154.23 31.039 154.105 31.281 154.004
 c 31.426 153.949 31.844 153.832 32.531 153.645 c 33.52 153.383 34.211 153.168
 34.609 153.004 c 35.004 152.836 35.313 152.59 35.531 152.27 c 35.758 151.945
 35.875 151.543 35.875 151.066 c 35.875 150.598 35.734 150.152 35.453 149.738
 c 35.18 149.332 34.785 149.008 34.266 148.77 c 33.754 148.543 33.176 148.426
 32.531 148.426 c 31.445 148.426 30.625 148.648 30.063 149.098 c 29.5 149.543
 29.141 150.211 28.984 151.098 c h
40.609 149.887 m 40.813 148.637 l 40.414 148.555 40.063 148.512 39.75 148.512
 c 39.238 148.512 38.844 148.59 38.563 148.746 c 38.281 148.91 38.082 149.125
 37.969 149.387 c 37.852 149.656 37.797 150.215 37.797 151.059 c 37.781 
155.824 l 36.75 155.824 l 36.75 156.918 l 37.781 156.918 l 37.781 158.98
 l 39.188 159.824 l 39.188 156.918 l 40.594 156.918 l 40.594 155.824 l 39.188
 155.824 l 39.203 150.98 l 39.203 150.574 39.223 150.313 39.266 150.199 
c 39.316 150.082 39.398 149.988 39.516 149.918 c 39.629 149.855 39.789 149.824
 40 149.824 c 40.156 149.824 40.359 149.844 40.609 149.887 c h
40.609 149.887 m f
41.453 152.785 m 41.441 154.316 41.863 155.449 42.719 156.191 c 43.438 
156.805 44.305 157.113 45.328 157.113 c 46.473 157.121 47.406 156.754 48.125
 156.004 c 48.852 155.262 49.223 154.23 49.234 152.91 c 49.234 151.848 49.07
 151.008 48.75 150.395 c 48.426 149.777 47.957 149.301 47.344 148.957 c 
46.738 148.613 46.07 148.441 45.344 148.441 c 44.188 148.441 43.25 148.809
 42.531 149.551 c 41.813 150.301 41.453 151.379 41.453 152.785 c h
42.906 152.785 m 42.906 151.723 43.133 150.926 43.594 150.395 c 44.063 
149.863 44.645 149.598 45.344 149.598 c 46.039 149.598 46.617 149.863 47.078
 150.395 c 47.547 150.934 47.781 151.754 47.781 152.848 c 47.781 153.867
 47.547 154.637 47.078 155.16 c 46.609 155.691 46.023 155.957 45.328 155.957
 c 44.629 155.957 44.051 155.691 43.594 155.16 c 43.133 154.637 42.906 153.848
 42.906 152.785 c h
42.906 152.785 m f
50.875 148.641 m 50.859 156.938 l 52.125 156.938 l 52.125 155.688 l 52.445
 156.27 52.742 156.656 53.016 156.844 c 53.285 157.031 53.586 157.125 53.922
 157.125 c 54.391 157.125 54.867 156.973 55.359 156.672 c 54.875 155.375
 l 54.531 155.57 54.188 155.672 53.844 155.672 c 53.539 155.672 53.266 155.578
 53.016 155.391 c 52.773 155.211 52.609 154.957 52.516 154.625 c 52.359 
154.125 52.281 153.578 52.281 152.984 c 52.281 148.641 l h
50.875 148.641 m f
61.906 151.336 m 63.359 151.164 l 63.129 150.309 62.703 149.641 62.078 
149.164 c 61.461 148.695 60.676 148.461 59.719 148.461 c 58.5 148.461 57.535
 148.836 56.828 149.586 c 56.117 150.336 55.766 151.383 55.766 152.727 c
 55.754 154.121 56.109 155.203 56.828 155.977 c 57.547 156.746 58.477 157.133
 59.625 157.133 c 60.727 157.141 61.629 156.766 62.328 156.008 c 63.035 
155.258 63.395 154.199 63.406 152.836 c 63.406 152.75 63.406 152.625 63.406
 152.461 c 57.219 152.445 l 57.27 151.527 57.523 150.824 57.984 150.336 
c 58.453 149.855 59.031 149.617 59.719 149.617 c 60.238 149.617 60.68 149.75
 61.047 150.023 c 61.41 150.305 61.695 150.742 61.906 151.336 c h
57.297 153.602 m 61.922 153.617 l 61.859 154.313 61.676 154.836 61.375 
155.18 c 60.926 155.711 60.348 155.977 59.641 155.977 c 58.992 155.977 58.453
 155.758 58.016 155.32 c 57.578 154.891 57.336 154.32 57.297 153.602 c h
57.297 153.602 m f
44.363 185.785 m 45.754 185.598 l 45.598 184.648 45.207 183.898 44.582 
183.348 c 43.965 182.805 43.207 182.535 42.301 182.535 c 41.164 182.535 
40.246 182.902 39.551 183.645 c 38.863 184.395 38.52 185.461 38.52 186.848
 c 38.52 187.742 38.664 188.523 38.957 189.191 c 39.246 189.867 39.695 190.371
 40.301 190.707 c 40.914 191.039 41.574 191.207 42.285 191.207 c 43.191 
191.207 43.93 190.98 44.504 190.535 c 45.074 190.086 45.445 189.441 45.613
 188.598 c 44.254 188.395 l 44.105 188.945 43.867 189.355 43.535 189.629
 c 43.211 189.91 42.816 190.051 42.348 190.051 c 41.637 190.051 41.066 189.793
 40.629 189.285 c 40.191 188.785 39.973 187.98 39.973 186.879 c 39.973 185.762
 40.184 184.949 40.613 184.441 c 41.039 183.941 41.598 183.691 42.285 183.691
 c 42.836 183.691 43.293 183.863 43.66 184.207 c 44.035 184.551 44.27 185.074
 44.363 185.785 c h
52.363 183.781 m 51.84 183.32 51.34 183 50.863 182.813 c 50.383 182.637
 49.867 182.547 49.316 182.547 c 48.398 182.547 47.695 182.77 47.207 183.219
 c 46.715 183.664 46.473 184.234 46.473 184.922 c 46.473 185.328 46.566 
185.695 46.754 186.031 c 46.941 186.375 47.18 186.645 47.473 186.844 c 47.773
 187.051 48.113 187.207 48.488 187.313 c 48.77 187.383 49.184 187.453 49.738
 187.516 c 50.871 187.648 51.711 187.816 52.254 188.016 c 52.254 188.211
 52.254 188.336 52.254 188.391 c 52.242 188.961 52.105 189.359 51.848 189.578
 c 51.48 189.898 50.945 190.063 50.238 190.063 c 49.582 190.063 49.09 189.941
 48.77 189.703 c 48.457 189.473 48.23 189.066 48.098 188.484 c 46.723 188.672
 l 46.836 189.254 47.035 189.727 47.316 190.094 c 47.605 190.457 48.023 
190.734 48.566 190.922 c 49.105 191.117 49.73 191.219 50.441 191.219 c 51.148
 191.219 51.723 191.133 52.16 190.969 c 52.605 190.813 52.934 190.609 53.145
 190.359 c 53.352 190.109 53.496 189.789 53.582 189.406 c 53.633 189.164
 53.664 188.734 53.676 188.109 c 53.676 186.234 l 53.676 184.922 53.699 
184.094 53.754 183.75 c 53.816 183.406 53.934 183.07 54.113 182.75 c 52.645
 182.75 l 52.496 183.039 52.402 183.383 52.363 183.781 c h
52.254 186.922 m 51.742 186.703 50.977 186.52 49.957 186.375 c 49.371 186.289
 48.961 186.195 48.723 186.094 c 48.48 185.988 48.293 185.832 48.16 185.625
 c 48.035 185.426 47.973 185.207 47.973 184.969 c 47.973 184.594 48.113 
184.281 48.395 184.031 c 48.684 183.781 49.102 183.656 49.645 183.656 c 
50.184 183.656 50.664 183.77 51.082 184 c 51.508 184.238 51.82 184.57 52.02
 185 c 52.176 185.313 52.254 185.781 52.254 186.406 c h
52.254 186.922 m f
55.863 182.746 m 55.848 191.043 l 57.113 191.043 l 57.113 189.871 l 57.715
 190.777 58.598 191.23 59.754 191.23 c 60.254 191.23 60.711 191.141 61.129
 190.965 c 61.543 190.797 61.855 190.566 62.066 190.277 c 62.273 189.984
 62.418 189.637 62.504 189.23 c 62.566 188.969 62.598 188.516 62.598 187.871
 c 62.598 182.762 l 61.191 182.762 l 61.191 187.809 l 61.191 188.379 61.133
 188.809 61.02 189.09 c 60.902 189.371 60.707 189.594 60.426 189.762 c 60.152
 189.926 59.832 190.012 59.457 190.012 c 58.852 190.012 58.332 189.816 57.895
 189.434 c 57.465 189.059 57.258 188.34 57.27 187.277 c 57.27 182.746 l 
h
55.863 182.746 m f
40.586 218.09 m 40.789 216.84 l 40.391 216.758 40.039 216.715 39.727 216.715
 c 39.215 216.715 38.82 216.793 38.539 216.949 c 38.258 217.113 38.059 217.328
 37.945 217.59 c 37.828 217.859 37.773 218.418 37.773 219.262 c 37.758 224.027
 l 36.727 224.027 l 36.727 225.121 l 37.758 225.121 l 37.758 227.184 l 39.164
 228.027 l 39.164 225.121 l 40.57 225.121 l 40.57 224.027 l 39.164 224.027
 l 39.18 219.184 l 39.18 218.777 39.199 218.516 39.242 218.402 c 39.293 
218.285 39.375 218.191 39.492 218.121 c 39.605 218.059 39.766 218.027 39.977
 218.027 c 40.133 218.027 40.336 218.047 40.586 218.09 c h
41.961 216.828 m 41.945 228.281 l 43.352 228.281 l 43.352 224.172 l 44.008
 224.93 44.836 225.313 45.836 225.313 c 46.449 225.313 46.98 225.191 47.43
 224.953 c 47.887 224.723 48.211 224.395 48.398 223.969 c 48.594 223.539
 48.699 222.922 48.711 222.109 c 48.711 216.844 l 47.305 216.844 l 47.305
 222.109 l 47.293 222.805 47.137 223.313 46.836 223.625 c 46.531 223.945
 46.102 224.109 45.539 224.109 c 45.121 224.109 44.73 224 44.367 223.781
 c 44 223.563 43.742 223.266 43.586 222.891 c 43.438 222.523 43.367 222.02
 43.367 221.375 c 43.367 216.828 l h
41.961 216.828 m f
56.273 217.887 m 55.75 217.426 55.25 217.105 54.773 216.918 c 54.293 216.742
 53.777 216.652 53.227 216.652 c 52.309 216.652 51.605 216.875 51.117 217.324
 c 50.625 217.77 50.383 218.34 50.383 219.027 c 50.383 219.434 50.477 219.801
 50.664 220.137 c 50.852 220.48 51.09 220.75 51.383 220.949 c 51.684 221.156
 52.023 221.313 52.398 221.418 c 52.68 221.488 53.094 221.559 53.648 221.621
 c 54.781 221.754 55.621 221.922 56.164 222.121 c 56.164 222.316 56.164 
222.441 56.164 222.496 c 56.152 223.066 56.016 223.465 55.758 223.684 c 
55.391 224.004 54.855 224.168 54.148 224.168 c 53.492 224.168 53 224.047
 52.68 223.809 c 52.367 223.578 52.141 223.172 52.008 222.59 c 50.633 222.777
 l 50.746 223.359 50.945 223.832 51.227 224.199 c 51.516 224.563 51.934 
224.84 52.477 225.027 c 53.016 225.223 53.641 225.324 54.352 225.324 c 55.059
 225.324 55.633 225.238 56.07 225.074 c 56.516 224.918 56.844 224.715 57.055
 224.465 c 57.262 224.215 57.406 223.895 57.492 223.512 c 57.543 223.27 
57.574 222.84 57.586 222.215 c 57.586 220.34 l 57.586 219.027 57.609 218.199
 57.664 217.855 c 57.727 217.512 57.844 217.176 58.023 216.855 c 56.555 
216.855 l 56.406 217.145 56.313 217.488 56.273 217.887 c h
56.164 221.027 m 55.652 220.809 54.887 220.625 53.867 220.48 c 53.281 220.395
 52.871 220.301 52.633 220.199 c 52.391 220.094 52.203 219.938 52.07 219.73
 c 51.945 219.531 51.883 219.313 51.883 219.074 c 51.883 218.699 52.023 
218.387 52.305 218.137 c 52.594 217.887 53.012 217.762 53.555 217.762 c 
54.094 217.762 54.574 217.875 54.992 218.105 c 55.418 218.344 55.73 218.676
 55.93 219.105 c 56.086 219.418 56.164 219.887 56.164 220.512 c h
56.164 221.027 m f
62.836 218.117 m 63.039 216.867 l 62.641 216.785 62.289 216.742 61.977 
216.742 c 61.465 216.742 61.07 216.82 60.789 216.977 c 60.508 217.141 60.309
 217.355 60.195 217.617 c 60.078 217.887 60.023 218.445 60.023 219.289 c
 60.008 224.055 l 58.977 224.055 l 58.977 225.148 l 60.008 225.148 l 60.008
 227.211 l 61.414 228.055 l 61.414 225.148 l 62.82 225.148 l 62.82 224.055
 l 61.414 224.055 l 61.43 219.211 l 61.43 218.805 61.449 218.543 61.492 
218.43 c 61.543 218.313 61.625 218.219 61.742 218.148 c 61.855 218.086 62.016
 218.055 62.227 218.055 c 62.383 218.055 62.586 218.074 62.836 218.117 c
 h
62.836 218.117 m f
6.555 251.008 m 6.539 259.305 l 7.789 259.305 l 7.789 258.148 l 8.047 258.555
 8.391 258.875 8.82 259.117 c 9.258 259.367 9.75 259.492 10.305 259.492 
c 10.918 259.492 11.422 259.367 11.82 259.117 c 12.215 258.867 12.492 258.512
 12.648 258.055 c 13.305 259.023 14.156 259.508 15.211 259.508 c 16.031 
259.508 16.664 259.277 17.102 258.82 c 17.547 258.371 17.777 257.672 17.789
 256.727 c 17.789 251.023 l 16.398 251.023 l 16.398 256.258 l 16.398 256.82
 16.344 257.219 16.242 257.461 c 16.148 257.711 15.98 257.906 15.742 258.055
 c 15.5 258.211 15.219 258.289 14.898 258.289 c 14.313 258.289 13.828 258.094
 13.445 257.711 c 13.059 257.324 12.871 256.703 12.883 255.852 c 12.883 
251.023 l 11.477 251.008 l 11.477 256.398 l 11.465 257.023 11.344 257.492
 11.117 257.805 c 10.887 258.117 10.512 258.273 9.992 258.273 c 9.594 258.273
 9.23 258.168 8.898 257.961 c 8.563 257.75 8.324 257.445 8.18 257.039 c 
8.031 256.641 7.961 256.07 7.961 255.32 c 7.961 251.008 l h
25.602 253.711 m 27.055 253.539 l 26.824 252.684 26.398 252.016 25.773 
251.539 c 25.156 251.07 24.371 250.836 23.414 250.836 c 22.195 250.836 21.23
 251.211 20.523 251.961 c 19.813 252.711 19.461 253.758 19.461 255.102 c
 19.449 256.496 19.805 257.578 20.523 258.352 c 21.242 259.121 22.172 259.508
 23.32 259.508 c 24.422 259.516 25.324 259.141 26.023 258.383 c 26.73 257.633
 27.09 256.574 27.102 255.211 c 27.102 255.125 27.102 255 27.102 254.836
 c 20.914 254.82 l 20.965 253.902 21.219 253.199 21.68 252.711 c 22.148 
252.23 22.727 251.992 23.414 251.992 c 23.934 251.992 24.375 252.125 24.742
 252.398 c 25.105 252.68 25.391 253.117 25.602 253.711 c h
20.992 255.977 m 25.617 255.992 l 25.555 256.688 25.371 257.211 25.07 257.555
 c 24.621 258.086 24.043 258.352 23.336 258.352 c 22.688 258.352 22.148 
258.133 21.711 257.695 c 21.273 257.266 21.031 256.695 20.992 255.977 c 
h
20.992 255.977 m f
28.836 251.035 m 28.82 259.332 l 30.07 259.332 l 30.07 258.176 l 30.328
 258.582 30.672 258.902 31.102 259.145 c 31.539 259.395 32.031 259.52 32.586
 259.52 c 33.199 259.52 33.703 259.395 34.102 259.145 c 34.496 258.895 34.773
 258.539 34.93 258.082 c 35.586 259.051 36.438 259.535 37.492 259.535 c 
38.313 259.535 38.945 259.305 39.383 258.848 c 39.828 258.398 40.059 257.699
 40.07 256.754 c 40.07 251.051 l 38.68 251.051 l 38.68 256.285 l 38.68 256.848
 38.625 257.246 38.523 257.488 c 38.43 257.738 38.262 257.934 38.023 258.082
 c 37.781 258.238 37.5 258.316 37.18 258.316 c 36.594 258.316 36.109 258.121
 35.727 257.738 c 35.34 257.352 35.152 256.73 35.164 255.879 c 35.164 251.051
 l 33.758 251.035 l 33.758 256.426 l 33.746 257.051 33.625 257.52 33.398
 257.832 c 33.168 258.145 32.793 258.301 32.273 258.301 c 31.875 258.301
 31.512 258.195 31.18 257.988 c 30.844 257.777 30.605 257.473 30.461 257.066
 c 30.313 256.668 30.242 256.098 30.242 255.348 c 30.242 251.035 l h
28.836 251.035 m f
41.68 255.211 m 41.668 256.742 42.09 257.875 42.945 258.617 c 43.664 259.23
 44.531 259.539 45.555 259.539 c 46.699 259.547 47.633 259.18 48.352 258.43
 c 49.078 257.688 49.449 256.656 49.461 255.336 c 49.461 254.273 49.297 
253.434 48.977 252.82 c 48.652 252.203 48.184 251.727 47.57 251.383 c 46.965
 251.039 46.297 250.867 45.57 250.867 c 44.414 250.867 43.477 251.234 42.758
 251.977 c 42.039 252.727 41.68 253.805 41.68 255.211 c h
43.133 255.211 m 43.133 254.148 43.359 253.352 43.82 252.82 c 44.289 252.289
 44.871 252.023 45.57 252.023 c 46.266 252.023 46.844 252.289 47.305 252.82
 c 47.773 253.359 48.008 254.18 48.008 255.273 c 48.008 256.293 47.773 257.063
 47.305 257.586 c 46.836 258.117 46.25 258.383 45.555 258.383 c 44.855 258.383
 44.277 258.117 43.82 257.586 c 43.359 257.063 43.133 256.273 43.133 255.211
 c h
43.133 255.211 m f
51.102 251.066 m 51.086 259.363 l 52.352 259.363 l 52.352 258.113 l 52.672
 258.695 52.969 259.082 53.242 259.27 c 53.512 259.457 53.813 259.551 54.148
 259.551 c 54.617 259.551 55.094 259.398 55.586 259.098 c 55.102 257.801
 l 54.758 257.996 54.414 258.098 54.07 258.098 c 53.766 258.098 53.492 258.004
 53.242 257.816 c 53 257.637 52.836 257.383 52.742 257.051 c 52.586 256.551
 52.508 256.004 52.508 255.41 c 52.508 251.066 l h
51.102 251.066 m f
56.398 247.867 m 56.242 249.195 l 56.543 249.113 56.809 249.07 57.039 249.07
 c 57.352 249.07 57.602 249.125 57.789 249.227 c 57.977 249.332 58.133 249.477
 58.258 249.664 c 58.34 249.801 58.48 250.148 58.68 250.711 c 58.711 250.785
 58.75 250.898 58.805 251.055 c 55.648 259.367 l 57.164 259.367 l 58.898
 254.57 l 59.125 253.953 59.328 253.313 59.508 252.648 c 59.664 253.293 
59.855 253.922 60.086 254.539 c 61.836 259.383 l 63.242 259.383 l 60.102
 250.93 l 59.766 250.016 59.508 249.383 59.32 249.039 c 59.07 248.582 58.781
 248.242 58.461 248.023 c 58.137 247.805 57.75 247.695 57.305 247.695 c 
57.031 247.695 56.73 247.754 56.398 247.867 c h
56.398 247.867 m f
51.934 294.887 m 51.934 296.496 l 53.34 296.496 l 53.34 294.887 l h
51.949 285.043 m 51.934 293.34 l 53.34 293.34 l 53.355 285.043 l h
55.512 285.047 m 55.496 293.344 l 56.762 293.344 l 56.762 292.172 l 57.363
 293.078 58.246 293.531 59.402 293.531 c 59.902 293.531 60.359 293.441 60.777
 293.266 c 61.191 293.098 61.504 292.867 61.715 292.578 c 61.922 292.285
 62.066 291.938 62.152 291.531 c 62.215 291.27 62.246 290.816 62.246 290.172
 c 62.246 285.063 l 60.84 285.063 l 60.84 290.109 l 60.84 290.68 60.781 
291.109 60.668 291.391 c 60.551 291.672 60.355 291.895 60.074 292.063 c 
59.801 292.227 59.48 292.313 59.105 292.313 c 58.5 292.313 57.98 292.117
 57.543 291.734 c 57.113 291.359 56.906 290.641 56.918 289.578 c 56.918 
285.047 l h
55.512 285.047 m f
8.656 319.086 m 8.641 330.539 l 10.047 330.539 l 10.063 319.086 l h
11.719 323.246 m 11.707 324.777 12.129 325.91 12.984 326.652 c 13.703 327.266
 14.57 327.574 15.594 327.574 c 16.738 327.582 17.672 327.215 18.391 326.465
 c 19.117 325.723 19.488 324.691 19.5 323.371 c 19.5 322.309 19.336 321.469
 19.016 320.855 c 18.691 320.238 18.223 319.762 17.609 319.418 c 17.004 
319.074 16.336 318.902 15.609 318.902 c 14.453 318.902 13.516 319.27 12.797
 320.012 c 12.078 320.762 11.719 321.84 11.719 323.246 c h
13.172 323.246 m 13.172 322.184 13.398 321.387 13.859 320.855 c 14.328 
320.324 14.91 320.059 15.609 320.059 c 16.305 320.059 16.883 320.324 17.344
 320.855 c 17.813 321.395 18.047 322.215 18.047 323.309 c 18.047 324.328
 17.813 325.098 17.344 325.621 c 16.875 326.152 16.289 326.418 15.594 326.418
 c 14.895 326.418 14.316 326.152 13.859 325.621 c 13.398 325.098 13.172 
324.309 13.172 323.246 c h
13.172 323.246 m f
26.563 322.164 m 27.953 321.977 l 27.797 321.027 27.406 320.277 26.781 
319.727 c 26.164 319.184 25.406 318.914 24.5 318.914 c 23.363 318.914 22.445
 319.281 21.75 320.023 c 21.063 320.773 20.719 321.84 20.719 323.227 c 20.719
 324.121 20.863 324.902 21.156 325.57 c 21.445 326.246 21.895 326.75 22.5
 327.086 c 23.113 327.418 23.773 327.586 24.484 327.586 c 25.391 327.586
 26.129 327.359 26.703 326.914 c 27.273 326.465 27.645 325.82 27.813 324.977
 c 26.453 324.773 l 26.305 325.324 26.066 325.734 25.734 326.008 c 25.41
 326.289 25.016 326.43 24.547 326.43 c 23.836 326.43 23.266 326.172 22.828
 325.664 c 22.391 325.164 22.172 324.359 22.172 323.258 c 22.172 322.141
 22.383 321.328 22.813 320.82 c 23.238 320.32 23.797 320.07 24.484 320.07
 c 25.035 320.07 25.492 320.242 25.859 320.586 c 26.234 320.93 26.469 321.453
 26.563 322.164 c h
26.563 322.164 m f
34.563 320.16 m 34.039 319.699 33.539 319.379 33.063 319.191 c 32.582 319.016
 32.066 318.926 31.516 318.926 c 30.598 318.926 29.895 319.148 29.406 319.598
 c 28.914 320.043 28.672 320.613 28.672 321.301 c 28.672 321.707 28.766 
322.074 28.953 322.41 c 29.141 322.754 29.379 323.023 29.672 323.223 c 29.973
 323.43 30.313 323.586 30.688 323.691 c 30.969 323.762 31.383 323.832 31.938
 323.895 c 33.07 324.027 33.91 324.195 34.453 324.395 c 34.453 324.59 34.453
 324.715 34.453 324.77 c 34.441 325.34 34.305 325.738 34.047 325.957 c 33.68
 326.277 33.145 326.441 32.438 326.441 c 31.781 326.441 31.289 326.32 30.969
 326.082 c 30.656 325.852 30.43 325.445 30.297 324.863 c 28.922 325.051 
l 29.035 325.633 29.234 326.105 29.516 326.473 c 29.805 326.836 30.223 327.113
 30.766 327.301 c 31.305 327.496 31.93 327.598 32.641 327.598 c 33.348 327.598
 33.922 327.512 34.359 327.348 c 34.805 327.191 35.133 326.988 35.344 326.738
 c 35.551 326.488 35.695 326.168 35.781 325.785 c 35.832 325.543 35.863 
325.113 35.875 324.488 c 35.875 322.613 l 35.875 321.301 35.898 320.473 
35.953 320.129 c 36.016 319.785 36.133 319.449 36.313 319.129 c 34.844 319.129
 l 34.695 319.418 34.602 319.762 34.563 320.16 c h
34.453 323.301 m 33.941 323.082 33.176 322.898 32.156 322.754 c 31.57 322.668
 31.16 322.574 30.922 322.473 c 30.68 322.367 30.492 322.211 30.359 322.004
 c 30.234 321.805 30.172 321.586 30.172 321.348 c 30.172 320.973 30.313 
320.66 30.594 320.41 c 30.883 320.16 31.301 320.035 31.844 320.035 c 32.383
 320.035 32.863 320.148 33.281 320.379 c 33.707 320.617 34.02 320.949 34.219
 321.379 c 34.375 321.691 34.453 322.16 34.453 322.785 c h
34.453 323.301 m f
41.125 320.391 m 41.328 319.141 l 40.93 319.059 40.578 319.016 40.266 319.016
 c 39.754 319.016 39.359 319.094 39.078 319.25 c 38.797 319.414 38.598 319.629
 38.484 319.891 c 38.367 320.16 38.313 320.719 38.313 321.563 c 38.297 326.328
 l 37.266 326.328 l 37.266 327.422 l 38.297 327.422 l 38.297 329.484 l 39.703
 330.328 l 39.703 327.422 l 41.109 327.422 l 41.109 326.328 l 39.703 326.328
 l 39.719 321.484 l 39.719 321.078 39.738 320.816 39.781 320.703 c 39.832
 320.586 39.914 320.492 40.031 320.422 c 40.145 320.359 40.305 320.328 40.516
 320.328 c 40.672 320.328 40.875 320.348 41.125 320.391 c h
41.125 320.391 m f
42.484 328.973 m 42.484 330.582 l 43.891 330.582 l 43.891 328.973 l h
42.5 319.129 m 42.484 327.426 l 43.891 327.426 l 43.906 319.129 l h
42.5 319.129 m f
45.531 323.289 m 45.52 324.82 45.941 325.953 46.797 326.695 c 47.516 327.309
 48.383 327.617 49.406 327.617 c 50.551 327.625 51.484 327.258 52.203 326.508
 c 52.93 325.766 53.301 324.734 53.313 323.414 c 53.313 322.352 53.148 321.512
 52.828 320.898 c 52.504 320.281 52.035 319.805 51.422 319.461 c 50.816 
319.117 50.148 318.945 49.422 318.945 c 48.266 318.945 47.328 319.313 46.609
 320.055 c 45.891 320.805 45.531 321.883 45.531 323.289 c h
46.984 323.289 m 46.984 322.227 47.211 321.43 47.672 320.898 c 48.141 320.367
 48.723 320.102 49.422 320.102 c 50.117 320.102 50.695 320.367 51.156 320.898
 c 51.625 321.438 51.859 322.258 51.859 323.352 c 51.859 324.371 51.625 
325.141 51.156 325.664 c 50.688 326.195 50.102 326.461 49.406 326.461 c 
48.707 326.461 48.129 326.195 47.672 325.664 c 47.211 325.141 46.984 324.352
 46.984 323.289 c h
46.984 323.289 m f
54.969 319.145 m 54.953 327.441 l 56.219 327.441 l 56.219 326.27 l 56.82
 327.176 57.703 327.629 58.859 327.629 c 59.359 327.629 59.816 327.539 60.234
 327.363 c 60.648 327.195 60.961 326.965 61.172 326.676 c 61.379 326.383
 61.523 326.035 61.609 325.629 c 61.672 325.367 61.703 324.914 61.703 324.27
 c 61.703 319.16 l 60.297 319.16 l 60.297 324.207 l 60.297 324.777 60.238
 325.207 60.125 325.488 c 60.008 325.77 59.813 325.992 59.531 326.16 c 59.258
 326.324 58.938 326.41 58.563 326.41 c 57.957 326.41 57.438 326.215 57 325.832
 c 56.57 325.457 56.363 324.738 56.375 323.676 c 56.375 319.145 l h
54.969 319.145 m f
58.906 354.289 m 58.383 353.828 57.883 353.508 57.406 353.32 c 56.926 353.145
 56.41 353.055 55.859 353.055 c 54.941 353.055 54.238 353.277 53.75 353.727
 c 53.258 354.172 53.016 354.742 53.016 355.43 c 53.016 355.836 53.109 356.203
 53.297 356.539 c 53.484 356.883 53.723 357.152 54.016 357.352 c 54.316 
357.559 54.656 357.715 55.031 357.82 c 55.313 357.891 55.727 357.961 56.281
 358.023 c 57.414 358.156 58.254 358.324 58.797 358.523 c 58.797 358.719
 58.797 358.844 58.797 358.898 c 58.785 359.469 58.648 359.867 58.391 360.086
 c 58.023 360.406 57.488 360.57 56.781 360.57 c 56.125 360.57 55.633 360.449
 55.313 360.211 c 55 359.98 54.773 359.574 54.641 358.992 c 53.266 359.18
 l 53.379 359.762 53.578 360.234 53.859 360.602 c 54.148 360.965 54.566 
361.242 55.109 361.43 c 55.648 361.625 56.273 361.727 56.984 361.727 c 57.691
 361.727 58.266 361.641 58.703 361.477 c 59.148 361.32 59.477 361.117 59.688
 360.867 c 59.895 360.617 60.039 360.297 60.125 359.914 c 60.176 359.672
 60.207 359.242 60.219 358.617 c 60.219 356.742 l 60.219 355.43 60.242 354.602
 60.297 354.258 c 60.359 353.914 60.477 353.578 60.656 353.258 c 59.188 
353.258 l 59.039 353.547 58.945 353.891 58.906 354.289 c h
58.797 357.43 m 58.285 357.211 57.52 357.027 56.5 356.883 c 55.914 356.797
 55.504 356.703 55.266 356.602 c 55.023 356.496 54.836 356.34 54.703 356.133
 c 54.578 355.934 54.516 355.715 54.516 355.477 c 54.516 355.102 54.656 
354.789 54.938 354.539 c 55.227 354.289 55.645 354.164 56.188 354.164 c 
56.727 354.164 57.207 354.277 57.625 354.508 c 58.051 354.746 58.363 355.078
 58.563 355.508 c 58.719 355.82 58.797 356.289 58.797 356.914 c h
58.797 357.43 m f
Q q
65.5 373.5 446 -308 re W n
q
65 374 447 -309 re W n
[ 1 0 0 1 0 0 ] concat
  q
Q q
65 374 448 -309 re W n
66.09 65.996 m 512.492 66.574 l 512.094 373.473 l 65.695 372.898 l h
66.09 65.996 m W n
q
65 374 448 -309 re W n
[ 1 0 0 1 0 0 ] concat
  q
Q q
65.5 373.5 446 -308 re W n
q
65 374 447 -309 re W n
[ 1 0 0 1 0 0 ] concat
  q
Q q
65.5 373.5 446 -308 re W n
q
65 374 447 -309 re W n
[ 1 0 0 1 0 0 ] concat
  q
Q q
65.5 373.5 446 -308 re W n
q
65 374 447 -309 re W n
[ 1 0 0 1 0 0 ] concat
  q
Q q
65 374 446.5 -309 re W n
q
65 374 447 -309 re W n
[ 1 0 0 1 0 0 ] concat
  q
Q q
64.5 374.5 447 -310 re W n
q
64 375 448 -311 re W n
[ 1 0 0 1 0 0 ] concat
  q
Q q
64.5 374.5 447 -310 re W n
q
64 375 448 -311 re W n
[ 1 0 0 1 0 0 ] concat
  q
Q q
64.5 374.5 447 -310 re W n
q
64 375 448 -311 re W n
[ 1 0 0 1 0 0 ] concat
  q
0.211765 0.137255 0.278431 rg
66.09 65.996 m 106.672 66.051 l 106.629 100.148 l 66.047 100.098 l h
66.09 65.996 m f
0.521569 0.301961 0.494118 rg
106.672 66.051 m 147.254 66.102 l 147.211 100.203 l 106.629 100.148 l h
106.672 66.051 m f
0.643137 0.388235 0.54902 rg
147.254 66.102 m 187.836 66.152 l 187.793 100.254 l 147.211 100.203 l h
147.254 66.102 m f
0.772549 0.513726 0.611765 rg
187.836 66.152 m 228.418 66.207 l 228.375 100.305 l 187.793 100.254 l h
187.836 66.152 m f
0.901961 0.741176 0.737255 rg
228.418 66.207 m 269 66.258 l 268.957 100.359 l 228.375 100.305 l h
228.418 66.207 m f
0.835294 0.603922 0.654902 rg
269 66.258 m 309.582 66.313 l 309.539 100.41 l 268.957 100.359 l h
269 66.258 m f
0.772549 0.513726 0.611765 rg
309.582 66.313 m 350.164 66.363 l 350.121 100.465 l 309.539 100.41 l h
309.582 66.313 m f
0.847059 0.627451 0.666667 rg
350.164 66.363 m 390.746 66.418 l 390.703 100.516 l 350.121 100.465 l h
350.164 66.363 m f
0.839216 0.607843 0.658824 rg
390.746 66.418 m 431.328 66.469 l 431.281 100.57 l 390.703 100.516 l h
390.746 66.418 m f
0.815686 0.568627 0.639216 rg
431.328 66.469 m 471.91 66.52 l 471.863 100.621 l 431.281 100.57 l h
431.328 66.469 m f
0.929412 0.811765 0.788235 rg
471.91 66.52 m 512.492 66.574 l 512.445 100.672 l 471.863 100.621 l h
471.91 66.52 m f
0.415686 0.239216 0.435294 rg
66.047 100.098 m 106.629 100.148 l 106.586 134.25 l 66.004 134.195 l h
66.047 100.098 m f
0.780392 0.52549 0.615686 rg
106.629 100.148 m 147.211 100.203 l 147.168 134.301 l 106.586 134.25 l 
h
106.629 100.148 m f
0.847059 0.623529 0.662745 rg
147.211 100.203 m 187.793 100.254 l 187.75 134.355 l 147.168 134.301 l 
h
147.211 100.203 m f
0.913725 0.768627 0.756863 rg
187.793 100.254 m 228.375 100.305 l 228.332 134.406 l 187.75 134.355 l 
h
187.793 100.254 m f
0.709804 0.447059 0.580392 rg
228.375 100.305 m 268.957 100.359 l 268.914 134.457 l 228.332 134.406 l
 h
228.375 100.305 m f
0.890196 0.709804 0.717647 rg
268.957 100.359 m 309.539 100.41 l 309.496 134.512 l 268.914 134.457 l 
h
268.957 100.359 m f
0.909804 0.760784 0.74902 rg
309.539 100.41 m 350.121 100.465 l 350.074 134.563 l 309.496 134.512 l 
h
309.539 100.41 m f
0.929412 0.811765 0.788235 rg
350.121 100.465 m 390.703 100.516 l 390.656 134.617 l 350.074 134.563 l
 h
350.121 100.465 m f
0.933333 0.823529 0.8 rg
390.703 100.516 m 431.281 100.57 l 431.238 134.668 l 390.656 134.617 l 
h
390.703 100.516 m f
0.929412 0.811765 0.788235 rg
431.281 100.57 m 471.863 100.621 l 471.82 134.723 l 431.238 134.668 l h
431.281 100.57 m f
0.772549 0.513726 0.611765 rg
471.863 100.621 m 512.445 100.672 l 512.402 134.773 l 471.82 134.723 l 
h
471.863 100.621 m f
0.235294 0.14902 0.301961 rg
66.004 134.195 m 106.586 134.25 l 106.543 168.348 l 65.961 168.297 l h
66.004 134.195 m f
0.690196 0.427451 0.572549 rg
106.586 134.25 m 147.168 134.301 l 147.125 168.402 l 106.543 168.348 l 
h
106.586 134.25 m f
0.788235 0.533333 0.619608 rg
147.168 134.301 m 187.75 134.355 l 187.703 168.453 l 147.125 168.402 l 
h
147.168 134.301 m f
0.894118 0.72549 0.72549 rg
187.75 134.355 m 228.332 134.406 l 228.285 168.508 l 187.703 168.453 l 
h
187.75 134.355 m f
0.705882 0.443137 0.580392 rg
228.332 134.406 m 268.914 134.457 l 268.867 168.559 l 228.285 168.508 l
 h
228.332 134.406 m f
0.890196 0.709804 0.717647 rg
268.914 134.457 m 309.496 134.512 l 309.449 168.609 l 268.867 168.559 l
 h
268.914 134.457 m f
0.886275 0.701961 0.709804 rg
309.496 134.512 m 350.074 134.563 l 350.031 168.664 l 309.449 168.609 l
 h
309.496 134.512 m f
0.933333 0.823529 0.8 rg
350.074 134.563 m 390.656 134.617 l 390.613 168.715 l 350.031 168.664 l
 h
350.074 134.563 m f
390.656 134.617 m 431.238 134.668 l 431.195 168.77 l 390.613 168.715 l 
h
390.656 134.617 m f
0.929412 0.811765 0.788235 rg
431.238 134.668 m 471.82 134.723 l 471.777 168.82 l 431.195 168.77 l h
431.238 134.668 m f
0.784314 0.529412 0.619608 rg
471.82 134.723 m 512.402 134.773 l 512.359 168.875 l 471.777 168.82 l h
471.82 134.723 m f
0.192157 0.12549 0.258824 rg
65.961 168.297 m 106.543 168.348 l 106.496 202.449 l 65.914 202.398 l h
65.961 168.297 m f
0.67451 0.415686 0.564706 rg
106.543 168.348 m 147.125 168.402 l 147.078 202.5 l 106.496 202.449 l h
106.543 168.348 m f
0.776471 0.517647 0.615686 rg
147.125 168.402 m 187.703 168.453 l 187.66 202.555 l 147.078 202.5 l h
147.125 168.402 m f
0.890196 0.709804 0.717647 rg
187.703 168.453 m 228.285 168.508 l 228.242 202.605 l 187.66 202.555 l 
h
187.703 168.453 m f
0.713726 0.45098 0.584314 rg
228.285 168.508 m 268.867 168.559 l 268.824 202.66 l 228.242 202.605 l 
h
228.285 168.508 m f
0.894118 0.721569 0.721569 rg
268.867 168.559 m 309.449 168.609 l 309.406 202.711 l 268.824 202.66 l 
h
268.867 168.559 m f
0.87451 0.682353 0.698039 rg
309.449 168.609 m 350.031 168.664 l 349.988 202.762 l 309.406 202.711 l
 h
309.449 168.609 m f
0.937255 0.831373 0.807843 rg
350.031 168.664 m 390.613 168.715 l 390.57 202.816 l 349.988 202.762 l 
h
350.031 168.664 m f
0.929412 0.815686 0.792157 rg
390.613 168.715 m 431.195 168.77 l 431.152 202.867 l 390.57 202.816 l h
390.613 168.715 m f
0.921569 0.788235 0.772549 rg
431.195 168.77 m 471.777 168.82 l 471.734 202.922 l 431.152 202.867 l h
431.195 168.77 m f
0.776471 0.517647 0.615686 rg
471.777 168.82 m 512.359 168.875 l 512.316 202.973 l 471.734 202.922 l 
h
471.777 168.82 m f
0.337255 0.2 0.384314 rg
65.914 202.398 m 106.496 202.449 l 106.453 236.551 l 65.871 236.496 l h
65.914 202.398 m f
0.733333 0.466667 0.592157 rg
106.496 202.449 m 147.078 202.5 l 147.035 236.602 l 106.453 236.551 l h
106.496 202.449 m f
0.827451 0.588235 0.647059 rg
147.078 202.5 m 187.66 202.555 l 187.617 236.652 l 147.035 236.602 l h
147.078 202.5 m f
0.909804 0.760784 0.74902 rg
187.66 202.555 m 228.242 202.605 l 228.199 236.707 l 187.617 236.652 l 
h
187.66 202.555 m f
0.752941 0.490196 0.6 rg
228.242 202.605 m 268.824 202.66 l 268.781 236.758 l 228.199 236.707 l 
h
228.242 202.605 m f
0.898039 0.737255 0.733333 rg
268.824 202.66 m 309.406 202.711 l 309.363 236.813 l 268.781 236.758 l 
h
268.824 202.66 m f
0.905882 0.74902 0.741176 rg
309.406 202.711 m 349.988 202.762 l 349.945 236.863 l 309.363 236.813 l
 h
309.406 202.711 m f
0.929412 0.811765 0.788235 rg
349.988 202.762 m 390.57 202.816 l 390.527 236.914 l 349.945 236.863 l 
h
349.988 202.762 m f
390.57 202.816 m 431.152 202.867 l 431.105 236.969 l 390.527 236.914 l 
h
390.57 202.816 m f
0.937255 0.831373 0.807843 rg
431.152 202.867 m 471.734 202.922 l 471.688 237.02 l 431.105 236.969 l 
h
431.152 202.867 m f
0.796078 0.541176 0.627451 rg
471.734 202.922 m 512.316 202.973 l 512.27 237.074 l 471.688 237.02 l h
471.734 202.922 m f
0.25098 0.160784 0.317647 rg
65.871 236.496 m 106.453 236.551 l 106.41 270.648 l 65.828 270.598 l h
65.871 236.496 m f
0.666667 0.407843 0.560784 rg
106.453 236.551 m 147.035 236.602 l 146.992 270.703 l 106.41 270.648 l 
h
106.453 236.551 m f
0.784314 0.529412 0.619608 rg
147.035 236.602 m 187.617 236.652 l 187.57 270.754 l 146.992 270.703 l 
h
147.035 236.602 m f
0.882353 0.694118 0.705882 rg
187.617 236.652 m 228.199 236.707 l 228.152 270.805 l 187.57 270.754 l 
h
187.617 236.652 m f
0.733333 0.466667 0.592157 rg
228.199 236.707 m 268.781 236.758 l 268.734 270.859 l 228.152 270.805 l
 h
228.199 236.707 m f
0.862745 0.654902 0.682353 rg
268.781 236.758 m 309.363 236.813 l 309.316 270.91 l 268.734 270.859 l 
h
268.781 236.758 m f
0.870588 0.670588 0.690196 rg
309.363 236.813 m 349.945 236.863 l 349.898 270.965 l 309.316 270.91 l 
h
309.363 236.813 m f
0.894118 0.721569 0.721569 rg
349.945 236.863 m 390.527 236.914 l 390.48 271.016 l 349.898 270.965 l 
h
349.945 236.863 m f
390.527 236.914 m 431.105 236.969 l 431.063 271.07 l 390.48 271.016 l h
390.527 236.914 m f
0.901961 0.745098 0.737255 rg
431.105 236.969 m 471.688 237.02 l 471.645 271.121 l 431.063 271.07 l h
431.105 236.969 m f
0.784314 0.529412 0.619608 rg
471.688 237.02 m 512.27 237.074 l 512.227 271.172 l 471.645 271.121 l h
471.688 237.02 m f
0.356863 0.211765 0.396078 rg
65.828 270.598 m 106.41 270.648 l 106.363 304.75 l 65.781 304.695 l h
65.828 270.598 m f
0.760784 0.498039 0.603922 rg
106.41 270.648 m 146.992 270.703 l 146.945 304.801 l 106.363 304.75 l h
106.41 270.648 m f
0.815686 0.572549 0.643137 rg
146.992 270.703 m 187.57 270.754 l 187.527 304.855 l 146.945 304.801 l 
h
146.992 270.703 m f
0.854902 0.643137 0.67451 rg
187.57 270.754 m 228.152 270.805 l 228.109 304.906 l 187.527 304.855 l 
h
187.57 270.754 m f
0.843137 0.615686 0.662745 rg
228.152 270.805 m 268.734 270.859 l 268.691 304.957 l 228.109 304.906 l
 h
228.152 270.805 m f
0.85098 0.631373 0.670588 rg
268.734 270.859 m 309.316 270.91 l 309.273 305.012 l 268.691 304.957 l 
h
268.734 270.859 m f
0.858824 0.647059 0.678431 rg
309.316 270.91 m 349.898 270.965 l 349.855 305.063 l 309.273 305.012 l 
h
309.316 270.91 m f
0.862745 0.654902 0.682353 rg
349.898 270.965 m 390.48 271.016 l 390.438 305.117 l 349.855 305.063 l 
h
349.898 270.965 m f
0.866667 0.666667 0.690196 rg
390.48 271.016 m 431.063 271.07 l 431.02 305.168 l 390.438 305.117 l h
390.48 271.016 m f
0.886275 0.705882 0.713726 rg
431.063 271.07 m 471.645 271.121 l 471.602 305.223 l 431.02 305.168 l h
431.063 271.07 m f
0.87451 0.682353 0.698039 rg
471.645 271.121 m 512.227 271.172 l 512.184 305.273 l 471.602 305.223 l
 h
471.645 271.121 m f
0.333333 0.2 0.380392 rg
65.781 304.695 m 106.363 304.75 l 106.32 338.848 l 65.738 338.797 l h
65.781 304.695 m f
0.447059 0.258824 0.454902 rg
106.363 304.75 m 146.945 304.801 l 146.902 338.902 l 106.32 338.848 l h
106.363 304.75 m f
0.419608 0.243137 0.435294 rg
146.945 304.801 m 187.527 304.855 l 187.484 338.953 l 146.902 338.902 l
 h
146.945 304.801 m f
0.396078 0.231373 0.423529 rg
187.527 304.855 m 228.109 304.906 l 228.066 339.008 l 187.484 338.953 l
 h
187.527 304.855 m f
0.807843 0.560784 0.635294 rg
228.109 304.906 m 268.691 304.957 l 268.648 339.059 l 228.066 339.008 l
 h
228.109 304.906 m f
0.6 0.352941 0.529412 rg
268.691 304.957 m 309.273 305.012 l 309.23 339.109 l 268.648 339.059 l 
h
268.691 304.957 m f
0.513726 0.298039 0.490196 rg
309.273 305.012 m 349.855 305.063 l 349.813 339.164 l 309.23 339.109 l 
h
309.273 305.012 m f
0.556863 0.32549 0.509804 rg
349.855 305.063 m 390.438 305.117 l 390.395 339.215 l 349.813 339.164 l
 h
349.855 305.063 m f
0.435294 0.25098 0.447059 rg
390.438 305.117 m 431.02 305.168 l 430.977 339.27 l 390.395 339.215 l h
390.438 305.117 m f
0.447059 0.258824 0.454902 rg
431.02 305.168 m 471.602 305.223 l 471.559 339.32 l 430.977 339.27 l h
431.02 305.168 m f
0.843137 0.615686 0.662745 rg
471.602 305.223 m 512.184 305.273 l 512.141 339.375 l 471.559 339.32 l 
h
471.602 305.223 m f
0.862745 0.654902 0.682353 rg
65.738 338.797 m 106.32 338.848 l 106.277 372.949 l 65.695 372.898 l h
65.738 338.797 m f
0.482353 0.278431 0.47451 rg
106.32 338.848 m 146.902 338.902 l 146.859 373 l 106.277 372.949 l h
106.32 338.848 m f
0.447059 0.258824 0.454902 rg
146.902 338.902 m 187.484 338.953 l 187.441 373.055 l 146.859 373 l h
146.902 338.902 m f
0.454902 0.262745 0.458824 rg
187.484 338.953 m 228.066 339.008 l 228.023 373.105 l 187.441 373.055 l
 h
187.484 338.953 m f
0.27451 0.168627 0.333333 rg
228.066 339.008 m 268.648 339.059 l 268.605 373.16 l 228.023 373.105 l 
h
228.066 339.008 m f
0.521569 0.301961 0.494118 rg
268.648 339.059 m 309.23 339.109 l 309.188 373.211 l 268.605 373.16 l h
268.648 339.059 m f
0.596078 0.34902 0.529412 rg
309.23 339.109 m 349.813 339.164 l 349.77 373.262 l 309.188 373.211 l h
309.23 339.109 m f
0.498039 0.286275 0.482353 rg
349.813 339.164 m 390.395 339.215 l 390.352 373.316 l 349.77 373.262 l 
h
349.813 339.164 m f
0.392157 0.227451 0.419608 rg
390.395 339.215 m 430.977 339.27 l 430.93 373.367 l 390.352 373.316 l h
390.395 339.215 m f
430.977 339.27 m 471.559 339.32 l 471.512 373.422 l 430.93 373.367 l h
430.977 339.27 m f
0.321569 0.192157 0.372549 rg
471.559 339.32 m 512.141 339.375 l 512.094 373.473 l 471.512 373.422 l 
h
471.559 339.32 m f
  Q
Q
  Q
Q
  Q
Q
  Q
Q
  Q
Q
  Q
Q
  Q
Q
  Q
Q
  Q
Q
Q Q
showpage
%%Trailer
end restore
%%EOF
