%!PS-Adobe-3.0 EPSF-3.0
%%Creator: cairo 1.15.2 (http://cairographics.org)
%%CreationDate: Fri Jun 09 16:43:43 2017
%%Pages: 1
%%DocumentData: Clean7Bit
%%LanguageLevel: 2
%%BoundingBox: 22 8 535 385
%%EndComments
%%BeginProlog
save
50 dict begin
/q { gsave } bind def
/Q { grestore } bind def
/cm { 6 array astore concat } bind def
/w { setlinewidth } bind def
/J { setlinecap } bind def
/j { setlinejoin } bind def
/M { setmiterlimit } bind def
/d { setdash } bind def
/m { moveto } bind def
/l { lineto } bind def
/c { curveto } bind def
/h { closepath } bind def
/re { exch dup neg 3 1 roll 5 3 roll moveto 0 rlineto
      0 exch rlineto 0 rlineto closepath } bind def
/S { stroke } bind def
/f { fill } bind def
/f* { eofill } bind def
/n { newpath } bind def
/W { clip } bind def
/W* { eoclip } bind def
/BT { } bind def
/ET { } bind def
/pdfmark where { pop globaldict /?pdfmark /exec load put }
    { globaldict begin /?pdfmark /pop load def /pdfmark
    /cleartomark load def end } ifelse
/BDC { mark 3 1 roll /BDC pdfmark } bind def
/EMC { mark /EMC pdfmark } bind def
/cairo_store_point { /cairo_point_y exch def /cairo_point_x exch def } def
/Tj { show currentpoint cairo_store_point } bind def
/TJ {
  {
    dup
    type /stringtype eq
    { show } { -0.001 mul 0 cairo_font_matrix dtransform rmoveto } ifelse
  } forall
  currentpoint cairo_store_point
} bind def
/cairo_selectfont { cairo_font_matrix aload pop pop pop 0 0 6 array astore
    cairo_font exch selectfont cairo_point_x cairo_point_y moveto } bind def
/Tf { pop /cairo_font exch def /cairo_font_matrix where
      { pop cairo_selectfont } if } bind def
/Td { matrix translate cairo_font_matrix matrix concatmatrix dup
      /cairo_font_matrix exch def dup 4 get exch 5 get cairo_store_point
      /cairo_font where { pop cairo_selectfont } if } bind def
/Tm { 2 copy 8 2 roll 6 array astore /cairo_font_matrix exch def
      cairo_store_point /cairo_font where { pop cairo_selectfont } if } bind def
/g { setgray } bind def
/rg { setrgbcolor } bind def
/d1 { setcachedevice } bind def
%%EndProlog
%%BeginSetup
%%EndSetup
%%Page: 1 1
%%BeginPageSetup
%%PageBoundingBox: 22 8 535 385
%%EndPageSetup
q 22 8 513 377 rectclip q
0.917647 0.917647 0.94902 rg
88.563 384.613 446.398 -306.898 re f
Q q
88.563 384.613 446.398 -306.898 re W n
q
88 385 447 -308 re W n
[ 1 0 0 1 0 0 ] concat
  q
0.662745 0.403922 0.560784 rg
88.563 111.813 40.582 -34.098 re f
0.686275 0.423529 0.568627 rg
129.145 111.813 40.582 -34.098 re f
169.727 111.813 40.582 -34.098 re f
0.270588 0.168627 0.329412 rg
210.309 111.813 40.582 -34.098 re f
0.176471 0.117647 0.243137 rg
250.891 111.813 40.582 -34.098 re f
291.473 111.813 40.582 -34.098 re f
332.055 111.813 40.582 -34.098 re f
372.637 111.813 40.582 -34.098 re f
0.235294 0.14902 0.301961 rg
413.219 111.813 40.578 -34.098 re f
0.25098 0.160784 0.317647 rg
453.797 111.813 40.582 -34.098 re f
0.176471 0.117647 0.243137 rg
494.379 111.813 40.582 -34.098 re f
0.815686 0.572549 0.643137 rg
88.563 145.914 40.582 -34.102 re f
0.356863 0.211765 0.396078 rg
129.145 145.914 40.582 -34.102 re f
0.764706 0.501961 0.607843 rg
169.727 145.914 40.582 -34.102 re f
0.576471 0.337255 0.521569 rg
210.309 145.914 40.582 -34.102 re f
0.176471 0.117647 0.243137 rg
250.891 145.914 40.582 -34.102 re f
0.321569 0.192157 0.372549 rg
291.473 145.914 40.582 -34.102 re f
0.184314 0.12549 0.25098 rg
332.055 145.914 40.582 -34.102 re f
0.176471 0.117647 0.243137 rg
372.637 145.914 40.582 -34.102 re f
0.415686 0.239216 0.435294 rg
413.219 145.914 40.578 -34.102 re f
0.576471 0.337255 0.521569 rg
453.797 145.914 40.582 -34.102 re f
0.431373 0.25098 0.443137 rg
494.379 145.914 40.582 -34.102 re f
0.831373 0.6 0.65098 rg
88.563 180.012 40.582 -34.098 re f
0.396078 0.231373 0.423529 rg
129.145 180.012 40.582 -34.098 re f
0.772549 0.513726 0.611765 rg
169.727 180.012 40.582 -34.098 re f
0.513726 0.298039 0.490196 rg
210.309 180.012 40.582 -34.098 re f
0.176471 0.117647 0.243137 rg
250.891 180.012 40.582 -34.098 re f
0.239216 0.152941 0.305882 rg
291.473 180.012 40.582 -34.098 re f
0.176471 0.117647 0.243137 rg
332.055 180.012 40.582 -34.098 re f
372.637 180.012 40.582 -34.098 re f
0.360784 0.215686 0.4 rg
413.219 180.012 40.578 -34.098 re f
0.494118 0.286275 0.478431 rg
453.797 180.012 40.582 -34.098 re f
0.34902 0.207843 0.392157 rg
494.379 180.012 40.582 -34.098 re f
0.811765 0.564706 0.635294 rg
88.563 214.113 40.582 -34.102 re f
0.396078 0.231373 0.423529 rg
129.145 214.113 40.582 -34.102 re f
0.74902 0.486275 0.6 rg
169.727 214.113 40.582 -34.102 re f
0.458824 0.266667 0.458824 rg
210.309 214.113 40.582 -34.102 re f
0.176471 0.117647 0.243137 rg
250.891 214.113 40.582 -34.102 re f
0.207843 0.137255 0.27451 rg
291.473 214.113 40.582 -34.102 re f
0.176471 0.117647 0.243137 rg
332.055 214.113 40.582 -34.102 re f
372.637 214.113 40.582 -34.102 re f
0.345098 0.203922 0.388235 rg
413.219 214.113 40.578 -34.102 re f
0.470588 0.270588 0.466667 rg
453.797 214.113 40.582 -34.102 re f
0.32549 0.196078 0.376471 rg
494.379 214.113 40.582 -34.102 re f
0.827451 0.588235 0.647059 rg
88.563 248.215 40.582 -34.102 re f
0.356863 0.211765 0.396078 rg
129.145 248.215 40.582 -34.102 re f
0.760784 0.498039 0.603922 rg
169.727 248.215 40.582 -34.102 re f
0.52549 0.305882 0.498039 rg
210.309 248.215 40.582 -34.102 re f
0.176471 0.117647 0.243137 rg
250.891 248.215 40.582 -34.102 re f
0.305882 0.184314 0.356863 rg
291.473 248.215 40.582 -34.102 re f
0.176471 0.117647 0.243137 rg
332.055 248.215 40.582 -34.102 re f
372.637 248.215 40.582 -34.102 re f
0.415686 0.239216 0.435294 rg
413.219 248.215 40.578 -34.102 re f
0.556863 0.32549 0.509804 rg
453.797 248.215 40.582 -34.102 re f
0.403922 0.235294 0.427451 rg
494.379 248.215 40.582 -34.102 re f
0.768627 0.509804 0.611765 rg
88.563 282.313 40.582 -34.098 re f
0.305882 0.184314 0.356863 rg
129.145 282.313 40.582 -34.098 re f
0.705882 0.443137 0.580392 rg
169.727 282.313 40.582 -34.098 re f
0.466667 0.270588 0.462745 rg
210.309 282.313 40.582 -34.098 re f
0.176471 0.117647 0.243137 rg
250.891 282.313 40.582 -34.098 re f
0.262745 0.164706 0.32549 rg
291.473 282.313 40.582 -34.098 re f
0.176471 0.117647 0.243137 rg
332.055 282.313 40.582 -34.098 re f
372.637 282.313 40.582 -34.098 re f
0.345098 0.203922 0.388235 rg
413.219 282.313 40.578 -34.098 re f
0.513726 0.298039 0.490196 rg
453.797 282.313 40.582 -34.098 re f
0.333333 0.2 0.380392 rg
494.379 282.313 40.582 -34.098 re f
0.745098 0.482353 0.596078 rg
88.563 316.414 40.582 -34.102 re f
0.501961 0.290196 0.486275 rg
129.145 316.414 40.582 -34.102 re f
0.745098 0.482353 0.596078 rg
169.727 316.414 40.582 -34.102 re f
0.498039 0.286275 0.482353 rg
210.309 316.414 40.582 -34.102 re f
0.176471 0.117647 0.243137 rg
250.891 316.414 40.582 -34.102 re f
0.298039 0.180392 0.352941 rg
291.473 316.414 40.582 -34.102 re f
0.176471 0.117647 0.243137 rg
332.055 316.414 40.582 -34.102 re f
372.637 316.414 40.582 -34.102 re f
0.372549 0.219608 0.407843 rg
413.219 316.414 40.578 -34.102 re f
0.470588 0.270588 0.466667 rg
453.797 316.414 40.582 -34.102 re f
0.309804 0.188235 0.360784 rg
494.379 316.414 40.582 -34.102 re f
0.360784 0.215686 0.4 rg
88.563 350.512 40.582 -34.098 re f
0.572549 0.337255 0.517647 rg
129.145 350.512 40.582 -34.098 re f
0.482353 0.278431 0.47451 rg
169.727 350.512 40.582 -34.098 re f
0.176471 0.117647 0.243137 rg
210.309 350.512 40.582 -34.098 re f
0.262745 0.164706 0.32549 rg
250.891 350.512 40.582 -34.098 re f
0.176471 0.117647 0.243137 rg
291.473 350.512 40.582 -34.098 re f
332.055 350.512 40.582 -34.098 re f
372.637 350.512 40.582 -34.098 re f
413.219 350.512 40.578 -34.098 re f
453.797 350.512 40.582 -34.098 re f
494.379 350.512 40.582 -34.098 re f
0.486275 0.282353 0.47451 rg
88.563 384.613 40.582 -34.102 re f
0.176471 0.117647 0.243137 rg
129.145 384.613 40.582 -34.102 re f
0.247059 0.156863 0.309804 rg
169.727 384.613 40.582 -34.102 re f
0.176471 0.117647 0.243137 rg
210.309 384.613 40.582 -34.102 re f
250.891 384.613 40.582 -34.102 re f
291.473 384.613 40.582 -34.102 re f
332.055 384.613 40.582 -34.102 re f
372.637 384.613 40.582 -34.102 re f
413.219 384.613 40.578 -34.102 re f
0.219608 0.141176 0.286275 rg
453.797 384.613 40.582 -34.102 re f
0.176471 0.117647 0.243137 rg
494.379 384.613 40.582 -34.102 re f
  Q
Q
Q q
0 g
104.113 20.059 m 112.848 16.527 l 112.848 15.043 l 104.113 11.543 l 104.113
 13.137 l 111.066 15.84 l 104.113 18.512 l h
104.113 20.059 m f
112.848 28.762 m 112.848 27.293 l 111.91 27.293 l 112.004 27.168 112.129
 26.988 112.285 26.762 c 112.441 26.543 112.566 26.328 112.66 26.121 c 112.785
 25.879 112.887 25.598 112.973 25.277 c 113.055 24.965 113.098 24.594 113.098
 24.168 c 113.098 23.375 112.84 22.703 112.316 22.152 c 111.785 21.609 111.121
 21.34 110.316 21.34 c 109.652 21.34 109.113 21.48 108.707 21.762 c 108.301
 22.051 107.98 22.457 107.738 22.98 c 107.512 23.512 107.355 24.145 107.27
 24.887 c 107.188 25.637 107.125 26.438 107.082 27.293 c 106.848 27.293 
l 106.516 27.293 106.238 27.234 106.02 27.121 c 105.801 27.004 105.629 26.84
 105.504 26.621 c 105.391 26.41 105.313 26.16 105.27 25.871 c 105.23 25.578
 105.207 25.27 105.207 24.949 c 105.207 24.563 105.262 24.129 105.363 23.652
 c 105.457 23.184 105.605 22.699 105.801 22.199 c 105.801 22.121 l 104.301
 22.121 l 104.23 22.402 104.145 22.813 104.051 23.355 c 103.957 23.895 103.91
 24.434 103.91 24.965 c 103.91 25.578 103.965 26.109 104.066 26.559 c 104.16
 27.016 104.332 27.41 104.582 27.746 c 104.824 28.078 105.137 28.328 105.52
 28.496 c 105.895 28.672 106.363 28.762 106.926 28.762 c h
110.691 27.293 m 108.27 27.293 l 108.293 26.844 108.328 26.316 108.379 
25.715 c 108.434 25.109 108.512 24.629 108.613 24.277 c 108.73 23.848 108.918
 23.504 109.176 23.246 c 109.426 22.984 109.77 22.855 110.207 22.855 c 110.707
 22.855 111.09 23.004 111.348 23.309 c 111.598 23.609 111.723 24.074 111.723
 24.699 c 111.723 25.207 111.625 25.676 111.426 26.105 c 111.219 26.531 
110.973 26.926 110.691 27.293 c h
110.691 27.293 m f
105.723 37.043 m 105.723 36.965 l 105.672 36.746 105.637 36.531 105.613
 36.324 c 105.582 36.125 105.566 35.887 105.566 35.605 c 105.566 35.145 
105.672 34.703 105.879 34.277 c 106.078 33.859 106.332 33.457 106.645 33.074
 c 112.848 33.074 l 112.848 31.605 l 104.113 31.605 l 104.113 33.074 l 105.41
 33.074 l 104.941 33.656 104.609 34.168 104.41 34.605 c 104.215 35.051 104.113
 35.512 104.113 35.98 c 104.113 36.23 104.125 36.41 104.145 36.527 c 104.156
 36.641 104.176 36.813 104.207 37.043 c h
105.723 37.043 m f
102.66 40.027 m 102.66 38.371 l 101.129 38.371 l 101.129 40.027 l h
112.848 39.934 m 112.848 38.465 l 104.113 38.465 l 104.113 39.934 l h
112.848 39.934 m f
112.848 49.574 m 112.848 48.105 l 111.91 48.105 l 112.004 47.98 112.129
 47.801 112.285 47.574 c 112.441 47.355 112.566 47.141 112.66 46.934 c 112.785
 46.691 112.887 46.41 112.973 46.09 c 113.055 45.777 113.098 45.406 113.098
 44.98 c 113.098 44.188 112.84 43.516 112.316 42.965 c 111.785 42.422 111.121
 42.152 110.316 42.152 c 109.652 42.152 109.113 42.293 108.707 42.574 c 
108.301 42.863 107.98 43.27 107.738 43.793 c 107.512 44.324 107.355 44.957
 107.27 45.699 c 107.188 46.449 107.125 47.25 107.082 48.105 c 106.848 48.105
 l 106.516 48.105 106.238 48.047 106.02 47.934 c 105.801 47.816 105.629 
47.652 105.504 47.434 c 105.391 47.223 105.313 46.973 105.27 46.684 c 105.23
 46.391 105.207 46.082 105.207 45.762 c 105.207 45.375 105.262 44.941 105.363
 44.465 c 105.457 43.996 105.605 43.512 105.801 43.012 c 105.801 42.934 
l 104.301 42.934 l 104.23 43.215 104.145 43.625 104.051 44.168 c 103.957
 44.707 103.91 45.246 103.91 45.777 c 103.91 46.391 103.965 46.922 104.066
 47.371 c 104.16 47.828 104.332 48.223 104.582 48.559 c 104.824 48.891 105.137
 49.141 105.52 49.309 c 105.895 49.484 106.363 49.574 106.926 49.574 c h
110.691 48.105 m 108.27 48.105 l 108.293 47.656 108.328 47.129 108.379 
46.527 c 108.434 45.922 108.512 45.441 108.613 45.09 c 108.73 44.66 108.918
 44.316 109.176 44.059 c 109.426 43.797 109.77 43.668 110.207 43.668 c 110.707
 43.668 111.09 43.816 111.348 44.121 c 111.598 44.422 111.723 44.887 111.723
 45.512 c 111.723 46.02 111.625 46.488 111.426 46.918 c 111.219 47.344 110.973
 47.738 110.691 48.105 c h
110.691 48.105 m f
108.41 60.09 m 109.141 60.09 109.797 59.984 110.379 59.777 c 110.965 59.578
 111.453 59.301 111.848 58.949 c 112.266 58.582 112.578 58.176 112.785 57.73
 c 112.992 57.293 113.098 56.809 113.098 56.277 c 113.098 55.777 113.035
 55.34 112.91 54.965 c 112.797 54.598 112.641 54.238 112.441 53.887 c 112.848
 53.793 l 112.848 52.418 l 100.691 52.418 l 100.691 53.887 l 105.035 53.887
 l 104.691 54.293 104.418 54.723 104.207 55.184 c 103.988 55.652 103.879
 56.176 103.879 56.762 c 103.879 57.793 104.277 58.605 105.066 59.199 c 
105.859 59.793 106.973 60.09 108.41 60.09 c h
108.457 58.574 m 107.418 58.574 106.625 58.402 106.082 58.059 c 105.543
 57.715 105.27 57.16 105.27 56.402 c 105.27 55.973 105.363 55.543 105.551
 55.105 c 105.738 54.668 105.98 54.262 106.27 53.887 c 111.27 53.887 l 111.457
 54.301 111.59 54.656 111.66 54.949 c 111.734 55.25 111.77 55.594 111.77
 55.98 c 111.77 56.793 111.504 57.426 110.973 57.887 c 110.434 58.344 109.594
 58.574 108.457 58.574 c h
108.457 58.574 m f
100.691 63.871 12.156 -1.469 re f
108.629 74.027 m 108.629 67.605 l 109.172 67.605 109.641 67.684 110.035
 67.84 c 110.434 68.004 110.762 68.23 111.02 68.512 c 111.27 68.781 111.457
 69.098 111.582 69.465 c 111.707 69.84 111.77 70.25 111.77 70.699 c 111.77
 71.293 111.652 71.891 111.41 72.496 c 111.172 73.098 110.938 73.527 110.707
 73.777 c 110.707 73.855 l 112.316 73.855 l 112.527 73.363 112.703 72.859
 112.848 72.34 c 112.98 71.828 113.051 71.285 113.051 70.715 c 113.051 69.266
 112.66 68.137 111.879 67.324 c 111.09 66.512 109.973 66.105 108.535 66.105
 c 107.109 66.105 105.98 66.496 105.145 67.277 c 104.301 68.059 103.879 
69.082 103.879 70.355 c 103.879 71.531 104.223 72.438 104.91 73.074 c 105.598
 73.707 106.574 74.027 107.832 74.027 c h
107.504 72.605 m 106.734 72.594 106.141 72.395 105.723 72.012 c 105.297
 71.637 105.082 71.059 105.082 70.277 c 105.082 69.484 105.316 68.855 105.785
 68.387 c 106.246 67.926 106.816 67.668 107.504 67.605 c h
107.504 72.605 m f
152.816 55.457 m 153.047 54.965 153.23 54.496 153.363 54.051 c 153.496 
53.613 153.566 53.148 153.566 52.66 c 153.566 52.023 153.473 51.441 153.285
 50.91 c 153.098 50.387 152.816 49.941 152.441 49.566 c 152.066 49.191 151.594
 48.898 151.02 48.691 c 150.449 48.48 149.777 48.379 149.004 48.379 c 147.578
 48.379 146.457 48.77 145.645 49.551 c 144.832 50.332 144.426 51.367 144.426
 52.66 c 144.426 53.16 144.5 53.648 144.645 54.129 c 144.781 54.605 144.953
 55.051 145.16 55.457 c 146.785 55.457 l 146.785 55.379 l 146.441 54.93 
146.176 54.465 145.988 53.988 c 145.801 53.508 145.707 53.043 145.707 52.598
 c 145.707 51.762 145.988 51.102 146.551 50.613 c 147.105 50.133 147.922
 49.895 149.004 49.895 c 150.059 49.895 150.871 50.129 151.441 50.598 c 
152.004 51.074 152.285 51.742 152.285 52.598 c 152.285 52.887 152.25 53.184
 152.176 53.488 c 152.094 53.801 151.988 54.082 151.863 54.332 c 151.75 
54.539 151.637 54.738 151.52 54.926 c 151.395 55.113 151.285 55.262 151.191
 55.379 c 151.191 55.457 l h
152.816 55.457 m f
153.363 64.129 m 153.363 62.66 l 152.426 62.66 l 152.52 62.535 152.645 
62.355 152.801 62.129 c 152.957 61.91 153.082 61.695 153.176 61.488 c 153.301
 61.246 153.402 60.965 153.488 60.645 c 153.57 60.332 153.613 59.961 153.613
 59.535 c 153.613 58.742 153.355 58.07 152.832 57.52 c 152.301 56.977 151.637
 56.707 150.832 56.707 c 150.168 56.707 149.629 56.848 149.223 57.129 c 
148.816 57.418 148.496 57.824 148.254 58.348 c 148.027 58.879 147.871 59.512
 147.785 60.254 c 147.703 61.004 147.641 61.805 147.598 62.66 c 147.363 
62.66 l 147.031 62.66 146.754 62.602 146.535 62.488 c 146.316 62.371 146.145
 62.207 146.02 61.988 c 145.906 61.777 145.828 61.527 145.785 61.238 c 145.746
 60.945 145.723 60.637 145.723 60.316 c 145.723 59.93 145.777 59.496 145.879
 59.02 c 145.973 58.551 146.121 58.066 146.316 57.566 c 146.316 57.488 l
 144.816 57.488 l 144.746 57.77 144.66 58.18 144.566 58.723 c 144.473 59.262
 144.426 59.801 144.426 60.332 c 144.426 60.945 144.48 61.477 144.582 61.926
 c 144.676 62.383 144.848 62.777 145.098 63.113 c 145.34 63.445 145.652 
63.695 146.035 63.863 c 146.41 64.039 146.879 64.129 147.441 64.129 c h
151.207 62.66 m 148.785 62.66 l 148.809 62.211 148.844 61.684 148.895 61.082
 c 148.949 60.477 149.027 59.996 149.129 59.645 c 149.246 59.215 149.434
 58.871 149.691 58.613 c 149.941 58.352 150.285 58.223 150.723 58.223 c 
151.223 58.223 151.605 58.371 151.863 58.676 c 152.113 58.977 152.238 59.441
 152.238 60.066 c 152.238 60.574 152.141 61.043 151.941 61.473 c 151.734
 61.898 151.488 62.293 151.207 62.66 c h
151.207 62.66 m f
153.363 74.27 m 153.363 72.801 l 148.395 72.801 l 147.988 72.801 147.613
 72.773 147.27 72.723 c 146.918 72.68 146.641 72.598 146.441 72.473 c 146.223
 72.336 146.063 72.145 145.957 71.895 c 145.844 71.652 145.785 71.34 145.785
 70.957 c 145.785 70.551 145.887 70.129 146.082 69.691 c 146.281 69.254 
146.535 68.836 146.848 68.441 c 153.363 68.441 l 153.363 66.973 l 144.629
 66.973 l 144.629 68.441 l 145.598 68.441 l 145.223 68.898 144.934 69.371
 144.723 69.863 c 144.504 70.352 144.395 70.852 144.395 71.363 c 144.395
 72.309 144.684 73.027 145.254 73.52 c 145.816 74.02 146.629 74.27 147.691
 74.27 c h
153.363 74.27 m f
190.359 64.039 m 191.09 64.039 191.746 63.934 192.328 63.727 c 192.914 
63.527 193.402 63.25 193.797 62.898 c 194.215 62.531 194.527 62.125 194.734
 61.68 c 194.941 61.242 195.047 60.758 195.047 60.227 c 195.047 59.727 194.984
 59.289 194.859 58.914 c 194.746 58.547 194.59 58.188 194.391 57.836 c 194.797
 57.742 l 194.797 56.367 l 182.641 56.367 l 182.641 57.836 l 186.984 57.836
 l 186.641 58.242 186.367 58.672 186.156 59.133 c 185.938 59.602 185.828
 60.125 185.828 60.711 c 185.828 61.742 186.227 62.555 187.016 63.148 c 
187.809 63.742 188.922 64.039 190.359 64.039 c h
190.406 62.523 m 189.367 62.523 188.574 62.352 188.031 62.008 c 187.492
 61.664 187.219 61.109 187.219 60.352 c 187.219 59.922 187.313 59.492 187.5
 59.055 c 187.688 58.617 187.93 58.211 188.219 57.836 c 193.219 57.836 l
 193.406 58.25 193.539 58.605 193.609 58.898 c 193.684 59.199 193.719 59.543
 193.719 59.93 c 193.719 60.742 193.453 61.375 192.922 61.836 c 192.383 
62.293 191.543 62.523 190.406 62.523 c h
190.406 62.523 m f
190.578 73.633 m 190.578 67.211 l 191.121 67.211 191.59 67.289 191.984 
67.445 c 192.383 67.609 192.711 67.836 192.969 68.117 c 193.219 68.387 193.406
 68.703 193.531 69.07 c 193.656 69.445 193.719 69.855 193.719 70.305 c 193.719
 70.898 193.602 71.496 193.359 72.102 c 193.121 72.703 192.887 73.133 192.656
 73.383 c 192.656 73.461 l 194.266 73.461 l 194.477 72.969 194.652 72.465
 194.797 71.945 c 194.93 71.434 195 70.891 195 70.32 c 195 68.871 194.609
 67.742 193.828 66.93 c 193.039 66.117 191.922 65.711 190.484 65.711 c 189.059
 65.711 187.93 66.102 187.094 66.883 c 186.25 67.664 185.828 68.688 185.828
 69.961 c 185.828 71.137 186.172 72.043 186.859 72.68 c 187.547 73.313 188.523
 73.633 189.781 73.633 c h
189.453 72.211 m 188.684 72.199 188.09 72 187.672 71.617 c 187.246 71.242
 187.031 70.664 187.031 69.883 c 187.031 69.09 187.266 68.461 187.734 67.992
 c 188.195 67.531 188.766 67.273 189.453 67.211 c h
189.453 72.211 m f
236.23 72.355 m 236.23 70.887 l 235.293 70.887 l 235.387 70.762 235.512
 70.582 235.668 70.355 c 235.824 70.137 235.949 69.922 236.043 69.715 c 
236.168 69.473 236.27 69.191 236.355 68.871 c 236.438 68.559 236.48 68.188
 236.48 67.762 c 236.48 66.969 236.223 66.297 235.699 65.746 c 235.168 65.203
 234.504 64.934 233.699 64.934 c 233.035 64.934 232.496 65.074 232.09 65.355
 c 231.684 65.645 231.363 66.051 231.121 66.574 c 230.895 67.105 230.738
 67.738 230.652 68.48 c 230.57 69.23 230.508 70.031 230.465 70.887 c 230.23
 70.887 l 229.898 70.887 229.621 70.828 229.402 70.715 c 229.184 70.598 
229.012 70.434 228.887 70.215 c 228.773 70.004 228.695 69.754 228.652 69.465
 c 228.613 69.172 228.59 68.863 228.59 68.543 c 228.59 68.156 228.645 67.723
 228.746 67.246 c 228.84 66.777 228.988 66.293 229.184 65.793 c 229.184 
65.715 l 227.684 65.715 l 227.613 65.996 227.527 66.406 227.434 66.949 c
 227.34 67.488 227.293 68.027 227.293 68.559 c 227.293 69.172 227.348 69.703
 227.449 70.152 c 227.543 70.609 227.715 71.004 227.965 71.34 c 228.207 
71.672 228.52 71.922 228.902 72.09 c 229.277 72.266 229.746 72.355 230.309
 72.355 c h
234.074 70.887 m 231.652 70.887 l 231.676 70.438 231.711 69.91 231.762 
69.309 c 231.816 68.703 231.895 68.223 231.996 67.871 c 232.113 67.441 232.301
 67.098 232.559 66.84 c 232.809 66.578 233.152 66.449 233.59 66.449 c 234.09
 66.449 234.473 66.598 234.73 66.902 c 234.98 67.203 235.105 67.668 235.105
 68.293 c 235.105 68.801 235.008 69.27 234.809 69.699 c 234.602 70.125 234.355
 70.52 234.074 70.887 c h
234.074 70.887 m f
266.555 21.457 m 266.555 19.801 l 265.023 19.801 l 265.023 21.457 l h
276.742 21.363 m 276.742 19.895 l 268.008 19.895 l 268.008 21.363 l h
276.742 21.363 m f
276.742 31.52 m 276.742 30.051 l 271.773 30.051 l 271.367 30.051 270.992
 30.023 270.648 29.973 c 270.297 29.93 270.02 29.848 269.82 29.723 c 269.602
 29.586 269.441 29.395 269.336 29.145 c 269.223 28.902 269.164 28.59 269.164
 28.207 c 269.164 27.801 269.266 27.379 269.461 26.941 c 269.66 26.504 269.914
 26.086 270.227 25.691 c 276.742 25.691 l 276.742 24.223 l 268.008 24.223
 l 268.008 25.691 l 268.977 25.691 l 268.602 26.148 268.313 26.621 268.102
 27.113 c 267.883 27.602 267.773 28.102 267.773 28.613 c 267.773 29.559 
268.063 30.277 268.633 30.77 c 269.195 31.27 270.008 31.52 271.07 31.52 
c h
276.742 31.52 m f
276.664 38.879 m 276.738 38.598 276.793 38.293 276.836 37.973 c 276.887
 37.648 276.914 37.355 276.914 37.098 c 276.914 36.211 276.676 35.535 276.195
 35.066 c 275.719 34.605 274.945 34.379 273.883 34.379 c 269.242 34.379 
l 269.242 33.379 l 268.008 33.379 l 268.008 34.379 l 265.508 34.379 l 265.508
 35.848 l 268.008 35.848 l 268.008 38.879 l 269.242 38.879 l 269.242 35.848
 l 273.227 35.848 l 273.688 35.848 274.047 35.855 274.305 35.879 c 274.555
 35.898 274.797 35.973 275.023 36.098 c 275.234 36.211 275.383 36.367 275.477
 36.566 c 275.57 36.762 275.617 37.07 275.617 37.488 c 275.617 37.727 275.586
 37.977 275.523 38.238 c 275.453 38.496 275.391 38.684 275.336 38.801 c 
275.336 38.879 l h
276.664 38.879 m f
272.523 47.957 m 272.523 41.535 l 273.066 41.535 273.535 41.613 273.93 
41.77 c 274.328 41.934 274.656 42.16 274.914 42.441 c 275.164 42.711 275.352
 43.027 275.477 43.395 c 275.602 43.77 275.664 44.18 275.664 44.629 c 275.664
 45.223 275.547 45.82 275.305 46.426 c 275.066 47.027 274.832 47.457 274.602
 47.707 c 274.602 47.785 l 276.211 47.785 l 276.422 47.293 276.598 46.789
 276.742 46.27 c 276.875 45.758 276.945 45.215 276.945 44.645 c 276.945 
43.195 276.555 42.066 275.773 41.254 c 274.984 40.441 273.867 40.035 272.43
 40.035 c 271.004 40.035 269.875 40.426 269.039 41.207 c 268.195 41.988 
267.773 43.012 267.773 44.285 c 267.773 45.461 268.117 46.367 268.805 47.004
 c 269.492 47.637 270.469 47.957 271.727 47.957 c h
271.398 46.535 m 270.629 46.523 270.035 46.324 269.617 45.941 c 269.191
 45.566 268.977 44.988 268.977 44.207 c 268.977 43.414 269.211 42.785 269.68
 42.316 c 270.141 41.855 270.711 41.598 271.398 41.535 c h
271.398 46.535 m f
275.742 57.27 m 277.23 57.27 278.32 56.93 279.008 56.254 c 279.703 55.586
 280.055 54.555 280.055 53.16 c 280.055 52.691 280.016 52.238 279.945 51.801
 c 279.883 51.363 279.793 50.93 279.68 50.504 c 278.18 50.504 l 278.18 50.582
 l 278.273 50.82 278.387 51.199 278.523 51.723 c 278.656 52.242 278.727 
52.762 278.727 53.285 c 278.727 53.785 278.664 54.195 278.539 54.52 c 278.422
 54.852 278.262 55.105 278.055 55.285 c 277.844 55.473 277.594 55.602 277.305
 55.676 c 277.023 55.758 276.707 55.801 276.352 55.801 c 275.555 55.801 
l 275.91 55.352 276.176 54.926 276.352 54.52 c 276.52 54.121 276.602 53.613
 276.602 52.988 c 276.602 51.945 276.227 51.117 275.477 50.504 c 274.727
 49.887 273.664 49.582 272.289 49.582 c 271.539 49.582 270.895 49.684 270.352
 49.895 c 269.813 50.113 269.344 50.402 268.945 50.77 c 268.57 51.102 268.285
 51.508 268.086 51.988 c 267.879 52.477 267.773 52.961 267.773 53.441 c 
267.773 53.949 267.828 54.371 267.93 54.707 c 268.023 55.051 268.176 55.414
 268.383 55.801 c 268.008 55.895 l 268.008 57.27 l h
274.336 55.801 m 269.586 55.801 l 269.41 55.402 269.285 55.039 269.211 
54.707 c 269.129 54.371 269.086 54.039 269.086 53.707 c 269.086 52.895 269.359
 52.254 269.898 51.785 c 270.441 51.324 271.227 51.098 272.258 51.098 c 
273.238 51.098 273.984 51.27 274.492 51.613 c 274.992 51.957 275.242 52.527
 275.242 53.332 c 275.242 53.758 275.164 54.184 275.008 54.613 c 274.844
 55.039 274.617 55.434 274.336 55.801 c h
274.336 55.801 m f
272.523 67.457 m 272.523 61.035 l 273.066 61.035 273.535 61.113 273.93 
61.27 c 274.328 61.434 274.656 61.66 274.914 61.941 c 275.164 62.211 275.352
 62.527 275.477 62.895 c 275.602 63.27 275.664 63.68 275.664 64.129 c 275.664
 64.723 275.547 65.32 275.305 65.926 c 275.066 66.527 274.832 66.957 274.602
 67.207 c 274.602 67.285 l 276.211 67.285 l 276.422 66.793 276.598 66.289
 276.742 65.77 c 276.875 65.258 276.945 64.715 276.945 64.145 c 276.945 
62.695 276.555 61.566 275.773 60.754 c 274.984 59.941 273.867 59.535 272.43
 59.535 c 271.004 59.535 269.875 59.926 269.039 60.707 c 268.195 61.488 
267.773 62.512 267.773 63.785 c 267.773 64.961 268.117 65.867 268.805 66.504
 c 269.492 67.137 270.469 67.457 271.727 67.457 c h
271.398 66.035 m 270.629 66.023 270.035 65.824 269.617 65.441 c 269.191
 65.066 268.977 64.488 268.977 63.707 c 268.977 62.914 269.211 62.285 269.68
 61.816 c 270.141 61.355 270.711 61.098 271.398 61.035 c h
271.398 66.035 m f
269.617 75.129 m 269.617 75.051 l 269.566 74.832 269.531 74.617 269.508
 74.41 c 269.477 74.211 269.461 73.973 269.461 73.691 c 269.461 73.23 269.566
 72.789 269.773 72.363 c 269.973 71.945 270.227 71.543 270.539 71.16 c 276.742
 71.16 l 276.742 69.691 l 268.008 69.691 l 268.008 71.16 l 269.305 71.16
 l 268.836 71.742 268.504 72.254 268.305 72.691 c 268.109 73.137 268.008
 73.598 268.008 74.066 c 268.008 74.316 268.02 74.496 268.039 74.613 c 268.051
 74.727 268.07 74.898 268.102 75.129 c h
269.617 75.129 m f
312.898 66.566 m 314.316 66.566 315.441 66.199 316.273 65.473 c 317.098
 64.742 317.508 63.762 317.508 62.535 c 317.508 61.305 317.098 60.324 316.273
 59.598 c 315.441 58.867 314.316 58.504 312.898 58.504 c 311.473 58.504 
310.348 58.867 309.523 59.598 c 308.703 60.324 308.289 61.305 308.289 62.535
 c 308.289 63.762 308.703 64.742 309.523 65.473 c 310.348 66.199 311.473
 66.566 312.898 66.566 c h
312.898 65.051 m 311.766 65.051 310.926 64.824 310.383 64.379 c 309.832
 63.941 309.555 63.324 309.555 62.535 c 309.555 61.742 309.832 61.121 310.383
 60.676 c 310.926 60.238 311.766 60.02 312.898 60.02 c 313.992 60.02 314.82
 60.238 315.383 60.676 c 315.945 61.121 316.227 61.742 316.227 62.535 c 
316.227 63.316 315.953 63.93 315.398 64.379 c 314.836 64.824 314.004 65.051
 312.898 65.051 c h
312.898 65.051 m f
310.133 74.285 m 310.133 74.207 l 310.082 73.988 310.047 73.773 310.023
 73.566 c 309.992 73.367 309.977 73.129 309.977 72.848 c 309.977 72.387 
310.082 71.945 310.289 71.52 c 310.488 71.102 310.742 70.699 311.055 70.316
 c 317.258 70.316 l 317.258 68.848 l 308.523 68.848 l 308.523 70.316 l 309.82
 70.316 l 309.352 70.898 309.02 71.41 308.82 71.848 c 308.625 72.293 308.523
 72.754 308.523 73.223 c 308.523 73.473 308.535 73.652 308.555 73.77 c 308.566
 73.883 308.586 74.055 308.617 74.285 c h
310.133 74.285 m f
356.848 73.277 m 356.848 71.809 l 355.91 71.809 l 356.004 71.684 356.129
 71.504 356.285 71.277 c 356.441 71.059 356.566 70.844 356.66 70.637 c 356.785
 70.395 356.887 70.113 356.973 69.793 c 357.055 69.48 357.098 69.109 357.098
 68.684 c 357.098 67.891 356.84 67.219 356.316 66.668 c 355.785 66.125 355.121
 65.855 354.316 65.855 c 353.652 65.855 353.113 65.996 352.707 66.277 c 
352.301 66.566 351.98 66.973 351.738 67.496 c 351.512 68.027 351.355 68.66
 351.27 69.402 c 351.188 70.152 351.125 70.953 351.082 71.809 c 350.848 
71.809 l 350.516 71.809 350.238 71.75 350.02 71.637 c 349.801 71.52 349.629
 71.355 349.504 71.137 c 349.391 70.926 349.313 70.676 349.27 70.387 c 349.23
 70.094 349.207 69.785 349.207 69.465 c 349.207 69.078 349.262 68.645 349.363
 68.168 c 349.457 67.699 349.605 67.215 349.801 66.715 c 349.801 66.637 
l 348.301 66.637 l 348.23 66.918 348.145 67.328 348.051 67.871 c 347.957
 68.41 347.91 68.949 347.91 69.48 c 347.91 70.094 347.965 70.625 348.066
 71.074 c 348.16 71.531 348.332 71.926 348.582 72.262 c 348.824 72.594 349.137
 72.844 349.52 73.012 c 349.895 73.188 350.363 73.277 350.926 73.277 c h
354.691 71.809 m 352.27 71.809 l 352.293 71.359 352.328 70.832 352.379 
70.23 c 352.434 69.625 352.512 69.145 352.613 68.793 c 352.73 68.363 352.918
 68.02 353.176 67.762 c 353.426 67.5 353.77 67.371 354.207 67.371 c 354.707
 67.371 355.09 67.52 355.348 67.824 c 355.598 68.125 355.723 68.59 355.723
 69.215 c 355.723 69.723 355.625 70.191 355.426 70.621 c 355.219 71.047 
354.973 71.441 354.691 71.809 c h
354.691 71.809 m f
396.688 37.742 m 397.48 37.742 398.137 37.406 398.656 36.742 c 399.168 
36.086 399.422 35.188 399.422 34.055 c 399.422 33.406 399.344 32.813 399.188
 32.273 c 399.031 31.73 398.859 31.277 398.672 30.914 c 397.031 30.914 l
 397.031 30.992 l 397.375 31.461 397.652 31.977 397.859 32.539 c 398.07 
33.109 398.172 33.656 398.172 34.18 c 398.172 34.824 398.07 35.328 397.859
 35.695 c 397.652 36.059 397.324 36.242 396.875 36.242 c 396.531 36.242 
396.273 36.141 396.094 35.945 c 395.918 35.746 395.766 35.367 395.641 34.805
 c 395.59 34.594 395.531 34.32 395.469 33.977 c 395.406 33.641 395.34 33.34
 395.266 33.07 c 395.07 32.297 394.773 31.75 394.375 31.43 c 393.98 31.117
 393.496 30.961 392.922 30.961 c 392.57 30.961 392.234 31.031 391.922 31.18
 c 391.602 31.324 391.313 31.547 391.063 31.852 c 390.813 32.141 390.621
 32.512 390.484 32.961 c 390.34 33.418 390.266 33.922 390.266 34.477 c 390.266
 34.996 390.328 35.523 390.453 36.055 c 390.578 36.594 390.734 37.043 390.922
 37.398 c 392.484 37.398 l 392.484 37.32 l 392.215 36.945 391.984 36.484
 391.797 35.945 c 391.602 35.414 391.5 34.887 391.5 34.367 c 391.5 33.836
 391.605 33.383 391.813 33.008 c 392.023 32.641 392.328 32.461 392.734 32.461
 c 393.09 32.461 393.359 32.57 393.547 32.789 c 393.727 33.008 393.871 33.359
 393.984 33.852 c 394.047 34.121 394.109 34.422 394.172 34.758 c 394.234
 35.102 394.293 35.383 394.344 35.602 c 394.5 36.289 394.773 36.813 395.156
 37.18 c 395.543 37.555 396.055 37.742 396.688 37.742 c h
396.688 37.742 m f
399.125 44.383 m 399.199 44.102 399.254 43.797 399.297 43.477 c 399.348
 43.152 399.375 42.859 399.375 42.602 c 399.375 41.715 399.137 41.039 398.656
 40.57 c 398.18 40.109 397.406 39.883 396.344 39.883 c 391.703 39.883 l 
391.703 38.883 l 390.469 38.883 l 390.469 39.883 l 387.969 39.883 l 387.969
 41.352 l 390.469 41.352 l 390.469 44.383 l 391.703 44.383 l 391.703 41.352
 l 395.688 41.352 l 396.148 41.352 396.508 41.359 396.766 41.383 c 397.016
 41.402 397.258 41.477 397.484 41.602 c 397.695 41.715 397.844 41.871 397.938
 42.07 c 398.031 42.266 398.078 42.574 398.078 42.992 c 398.078 43.23 398.047
 43.48 397.984 43.742 c 397.914 44 397.852 44.188 397.797 44.305 c 397.797
 44.383 l h
399.125 44.383 m f
392.078 51.602 m 392.078 51.523 l 392.027 51.305 391.992 51.09 391.969 
50.883 c 391.938 50.684 391.922 50.445 391.922 50.164 c 391.922 49.703 392.027
 49.262 392.234 48.836 c 392.434 48.418 392.688 48.016 393 47.633 c 399.203
 47.633 l 399.203 46.164 l 390.469 46.164 l 390.469 47.633 l 391.766 47.633
 l 391.297 48.215 390.965 48.727 390.766 49.164 c 390.57 49.609 390.469 
50.07 390.469 50.539 c 390.469 50.789 390.48 50.969 390.5 51.086 c 390.512
 51.199 390.531 51.371 390.563 51.602 c h
392.078 51.602 m f
389.016 54.586 m 389.016 52.93 l 387.484 52.93 l 387.484 54.586 l h
399.203 54.492 m 399.203 53.023 l 390.469 53.023 l 390.469 54.492 l h
399.203 54.492 m f
399.203 64.648 m 399.203 63.18 l 394.234 63.18 l 393.828 63.18 393.453 
63.152 393.109 63.102 c 392.758 63.059 392.48 62.977 392.281 62.852 c 392.063
 62.715 391.902 62.523 391.797 62.273 c 391.684 62.031 391.625 61.719 391.625
 61.336 c 391.625 60.93 391.727 60.508 391.922 60.07 c 392.121 59.633 392.375
 59.215 392.688 58.82 c 399.203 58.82 l 399.203 57.352 l 390.469 57.352 
l 390.469 58.82 l 391.438 58.82 l 391.063 59.277 390.773 59.75 390.563 60.242
 c 390.344 60.73 390.234 61.23 390.234 61.742 c 390.234 62.688 390.523 63.406
 391.094 63.898 c 391.656 64.398 392.469 64.648 393.531 64.648 c h
399.203 64.648 m f
398.203 74.555 m 399.691 74.555 400.781 74.215 401.469 73.539 c 402.164
 72.871 402.516 71.84 402.516 70.445 c 402.516 69.977 402.477 69.523 402.406
 69.086 c 402.344 68.648 402.254 68.215 402.141 67.789 c 400.641 67.789 
l 400.641 67.867 l 400.734 68.105 400.848 68.484 400.984 69.008 c 401.117
 69.527 401.188 70.047 401.188 70.57 c 401.188 71.07 401.125 71.48 401 71.805
 c 400.883 72.137 400.723 72.391 400.516 72.57 c 400.305 72.758 400.055 
72.887 399.766 72.961 c 399.484 73.043 399.168 73.086 398.813 73.086 c 398.016
 73.086 l 398.371 72.637 398.637 72.211 398.813 71.805 c 398.98 71.406 399.063
 70.898 399.063 70.273 c 399.063 69.23 398.688 68.402 397.938 67.789 c 397.188
 67.172 396.125 66.867 394.75 66.867 c 394 66.867 393.355 66.969 392.813
 67.18 c 392.273 67.398 391.805 67.688 391.406 68.055 c 391.031 68.387 390.746
 68.793 390.547 69.273 c 390.34 69.762 390.234 70.246 390.234 70.727 c 390.234
 71.234 390.289 71.656 390.391 71.992 c 390.484 72.336 390.637 72.699 390.844
 73.086 c 390.469 73.18 l 390.469 74.555 l h
396.797 73.086 m 392.047 73.086 l 391.871 72.688 391.746 72.324 391.672
 71.992 c 391.59 71.656 391.547 71.324 391.547 70.992 c 391.547 70.18 391.82
 69.539 392.359 69.07 c 392.902 68.609 393.688 68.383 394.719 68.383 c 395.699
 68.383 396.445 68.555 396.953 68.898 c 397.453 69.242 397.703 69.813 397.703
 70.617 c 397.703 71.043 397.625 71.469 397.469 71.898 c 397.305 72.324 
397.078 72.719 396.797 73.086 c h
396.797 73.086 m f
429.531 64.391 m 429.531 62.734 l 428 62.734 l 428 64.391 l h
439.719 64.297 m 439.719 62.828 l 430.984 62.828 l 430.984 64.297 l h
439.719 64.297 m f
439.719 74.453 m 439.719 72.984 l 434.75 72.984 l 434.344 72.984 433.969
 72.957 433.625 72.906 c 433.273 72.863 432.996 72.781 432.797 72.656 c 
432.578 72.52 432.418 72.328 432.313 72.078 c 432.199 71.836 432.141 71.523
 432.141 71.141 c 432.141 70.734 432.242 70.313 432.438 69.875 c 432.637
 69.438 432.891 69.02 433.203 68.625 c 439.719 68.625 l 439.719 67.156 l
 430.984 67.156 l 430.984 68.625 l 431.953 68.625 l 431.578 69.082 431.289
 69.555 431.078 70.047 c 430.859 70.535 430.75 71.035 430.75 71.547 c 430.75
 72.492 431.039 73.211 431.609 73.703 c 432.172 74.203 432.984 74.453 434.047
 74.453 c h
439.719 74.453 m f
482.07 71.777 m 482.07 70.309 l 481.133 70.309 l 481.227 70.184 481.352
 70.004 481.508 69.777 c 481.664 69.559 481.789 69.344 481.883 69.137 c 
482.008 68.895 482.109 68.613 482.195 68.293 c 482.277 67.98 482.32 67.609
 482.32 67.184 c 482.32 66.391 482.063 65.719 481.539 65.168 c 481.008 64.625
 480.344 64.355 479.539 64.355 c 478.875 64.355 478.336 64.496 477.93 64.777
 c 477.523 65.066 477.203 65.473 476.961 65.996 c 476.734 66.527 476.578
 67.16 476.492 67.902 c 476.41 68.652 476.348 69.453 476.305 70.309 c 476.07
 70.309 l 475.738 70.309 475.461 70.25 475.242 70.137 c 475.023 70.02 474.852
 69.855 474.727 69.637 c 474.613 69.426 474.535 69.176 474.492 68.887 c 
474.453 68.594 474.43 68.285 474.43 67.965 c 474.43 67.578 474.484 67.145
 474.586 66.668 c 474.68 66.199 474.828 65.715 475.023 65.215 c 475.023 
65.137 l 473.523 65.137 l 473.453 65.418 473.367 65.828 473.273 66.371 c
 473.18 66.91 473.133 67.449 473.133 67.98 c 473.133 68.594 473.188 69.125
 473.289 69.574 c 473.383 70.031 473.555 70.426 473.805 70.762 c 474.047
 71.094 474.359 71.344 474.742 71.512 c 475.117 71.688 475.586 71.777 476.148
 71.777 c h
479.914 70.309 m 477.492 70.309 l 477.516 69.859 477.551 69.332 477.602
 68.73 c 477.656 68.125 477.734 67.645 477.836 67.293 c 477.953 66.863 478.141
 66.52 478.398 66.262 c 478.648 66 478.992 65.871 479.43 65.871 c 479.93
 65.871 480.313 66.02 480.57 66.324 c 480.82 66.625 480.945 67.09 480.945
 67.715 c 480.945 68.223 480.848 68.691 480.648 69.121 c 480.441 69.547 
480.195 69.941 479.914 70.309 c h
479.914 70.309 m f
514.434 16.16 m 515.145 16.16 515.789 16.055 516.371 15.848 c 516.957 15.648
 517.449 15.367 517.855 15.004 c 518.242 14.66 518.543 14.254 518.762 13.785
 c 518.969 13.316 519.074 12.82 519.074 12.301 c 519.074 11.852 519.02 11.441
 518.918 11.066 c 518.824 10.699 518.676 10.332 518.465 9.957 c 522.121 
9.957 l 522.121 8.488 l 510.168 8.488 l 510.168 9.957 l 511.09 9.957 l 510.758
 10.34 510.48 10.777 510.262 11.27 c 510.043 11.758 509.934 12.277 509.934
 12.832 c 509.934 13.883 510.332 14.699 511.121 15.285 c 511.914 15.867 
513.02 16.16 514.434 16.16 c h
514.465 14.645 m 513.414 14.645 512.629 14.461 512.105 14.098 c 511.586
 13.742 511.324 13.195 511.324 12.457 c 511.324 12.027 511.418 11.602 511.605
 11.176 c 511.785 10.746 512.023 10.34 512.324 9.957 c 517.262 9.957 l 517.449
 10.371 517.582 10.727 517.652 11.02 c 517.715 11.32 517.746 11.664 517.746
 12.051 c 517.746 12.863 517.473 13.496 516.918 13.957 c 516.367 14.414 
515.551 14.645 514.465 14.645 c h
514.465 14.645 m f
511.777 23.895 m 511.777 23.816 l 511.727 23.598 511.691 23.383 511.668
 23.176 c 511.637 22.977 511.621 22.738 511.621 22.457 c 511.621 21.996 
511.727 21.555 511.934 21.129 c 512.133 20.711 512.387 20.309 512.699 19.926
 c 518.902 19.926 l 518.902 18.457 l 510.168 18.457 l 510.168 19.926 l 511.465
 19.926 l 510.996 20.508 510.664 21.02 510.465 21.457 c 510.27 21.902 510.168
 22.363 510.168 22.832 c 510.168 23.082 510.18 23.262 510.199 23.379 c 510.211
 23.492 510.23 23.664 510.262 23.895 c h
511.777 23.895 m f
514.543 32.738 m 515.961 32.738 517.086 32.371 517.918 31.645 c 518.742
 30.914 519.152 29.934 519.152 28.707 c 519.152 27.477 518.742 26.496 517.918
 25.77 c 517.086 25.039 515.961 24.676 514.543 24.676 c 513.117 24.676 511.992
 25.039 511.168 25.77 c 510.348 26.496 509.934 27.477 509.934 28.707 c 509.934
 29.934 510.348 30.914 511.168 31.645 c 511.992 32.371 513.117 32.738 514.543
 32.738 c h
514.543 31.223 m 513.41 31.223 512.57 30.996 512.027 30.551 c 511.477 30.113
 511.199 29.496 511.199 28.707 c 511.199 27.914 511.477 27.293 512.027 26.848
 c 512.57 26.41 513.41 26.191 514.543 26.191 c 515.637 26.191 516.465 26.41
 517.027 26.848 c 517.59 27.293 517.871 27.914 517.871 28.707 c 517.871 
29.488 517.598 30.102 517.043 30.551 c 516.48 30.996 515.648 31.223 514.543
 31.223 c h
514.543 31.223 m f
517.902 42.098 m 519.391 42.098 520.48 41.758 521.168 41.082 c 521.863 
40.414 522.215 39.383 522.215 37.988 c 522.215 37.52 522.176 37.066 522.105
 36.629 c 522.043 36.191 521.953 35.758 521.84 35.332 c 520.34 35.332 l 
520.34 35.41 l 520.434 35.648 520.547 36.027 520.684 36.551 c 520.816 37.07
 520.887 37.59 520.887 38.113 c 520.887 38.613 520.824 39.023 520.699 39.348
 c 520.582 39.68 520.422 39.934 520.215 40.113 c 520.004 40.301 519.754 
40.43 519.465 40.504 c 519.184 40.586 518.867 40.629 518.512 40.629 c 517.715
 40.629 l 518.07 40.18 518.336 39.754 518.512 39.348 c 518.68 38.949 518.762
 38.441 518.762 37.816 c 518.762 36.773 518.387 35.945 517.637 35.332 c 
516.887 34.715 515.824 34.41 514.449 34.41 c 513.699 34.41 513.055 34.512
 512.512 34.723 c 511.973 34.941 511.504 35.23 511.105 35.598 c 510.73 35.93
 510.445 36.336 510.246 36.816 c 510.039 37.305 509.934 37.789 509.934 38.27
 c 509.934 38.777 509.988 39.199 510.09 39.535 c 510.184 39.879 510.336 
40.242 510.543 40.629 c 510.168 40.723 l 510.168 42.098 l h
516.496 40.629 m 511.746 40.629 l 511.57 40.23 511.445 39.867 511.371 39.535
 c 511.289 39.199 511.246 38.867 511.246 38.535 c 511.246 37.723 511.52 
37.082 512.059 36.613 c 512.602 36.152 513.387 35.926 514.418 35.926 c 515.398
 35.926 516.145 36.098 516.652 36.441 c 517.152 36.785 517.402 37.355 517.402
 38.16 c 517.402 38.586 517.324 39.012 517.168 39.441 c 517.004 39.867 516.777
 40.262 516.496 40.629 c h
516.496 40.629 m f
511.777 50.426 m 511.777 50.348 l 511.727 50.129 511.691 49.914 511.668
 49.707 c 511.637 49.508 511.621 49.27 511.621 48.988 c 511.621 48.527 511.727
 48.086 511.934 47.66 c 512.133 47.242 512.387 46.84 512.699 46.457 c 518.902
 46.457 l 518.902 44.988 l 510.168 44.988 l 510.168 46.457 l 511.465 46.457
 l 510.996 47.039 510.664 47.551 510.465 47.988 c 510.27 48.434 510.168 
48.895 510.168 49.363 c 510.168 49.613 510.18 49.793 510.199 49.91 c 510.211
 50.023 510.23 50.195 510.262 50.426 c h
511.777 50.426 m f
518.902 58.613 m 518.902 57.145 l 517.965 57.145 l 518.059 57.02 518.184
 56.84 518.34 56.613 c 518.496 56.395 518.621 56.18 518.715 55.973 c 518.84
 55.73 518.941 55.449 519.027 55.129 c 519.109 54.816 519.152 54.445 519.152
 54.02 c 519.152 53.227 518.895 52.555 518.371 52.004 c 517.84 51.461 517.176
 51.191 516.371 51.191 c 515.707 51.191 515.168 51.332 514.762 51.613 c 
514.355 51.902 514.035 52.309 513.793 52.832 c 513.566 53.363 513.41 53.996
 513.324 54.738 c 513.242 55.488 513.18 56.289 513.137 57.145 c 512.902 
57.145 l 512.57 57.145 512.293 57.086 512.074 56.973 c 511.855 56.855 511.684
 56.691 511.559 56.473 c 511.445 56.262 511.367 56.012 511.324 55.723 c 
511.285 55.43 511.262 55.121 511.262 54.801 c 511.262 54.414 511.316 53.98
 511.418 53.504 c 511.512 53.035 511.66 52.551 511.855 52.051 c 511.855 
51.973 l 510.355 51.973 l 510.285 52.254 510.199 52.664 510.105 53.207 c
 510.012 53.746 509.965 54.285 509.965 54.816 c 509.965 55.43 510.02 55.961
 510.121 56.41 c 510.215 56.867 510.387 57.262 510.637 57.598 c 510.879 
57.93 511.191 58.18 511.574 58.348 c 511.949 58.523 512.418 58.613 512.98
 58.613 c h
516.746 57.145 m 514.324 57.145 l 514.348 56.695 514.383 56.168 514.434
 55.566 c 514.488 54.961 514.566 54.48 514.668 54.129 c 514.785 53.699 514.973
 53.355 515.23 53.098 c 515.48 52.836 515.824 52.707 516.262 52.707 c 516.762
 52.707 517.145 52.855 517.402 53.16 c 517.652 53.461 517.777 53.926 517.777
 54.551 c 517.777 55.059 517.68 55.527 517.48 55.957 c 517.273 56.383 517.027
 56.777 516.746 57.145 c h
516.746 57.145 m f
518.902 74.191 m 518.902 72.723 l 513.934 72.723 l 513.559 72.723 513.199
 72.699 512.855 72.66 c 512.504 72.629 512.223 72.559 512.012 72.457 c 511.785
 72.332 511.613 72.152 511.496 71.926 c 511.383 71.707 511.324 71.387 511.324
 70.973 c 511.324 70.555 511.43 70.137 511.637 69.723 c 511.848 69.316 512.105
 68.91 512.418 68.504 c 512.543 68.512 512.684 68.523 512.84 68.535 c 512.996
 68.543 513.152 68.551 513.309 68.551 c 518.902 68.551 l 518.902 67.082 
l 513.934 67.082 l 513.551 67.082 513.184 67.066 512.84 67.035 c 512.488
 67.004 512.207 66.93 511.996 66.816 c 511.777 66.699 511.613 66.527 511.496
 66.301 c 511.383 66.082 511.324 65.758 511.324 65.332 c 511.324 64.934 
511.426 64.535 511.621 64.129 c 511.82 63.723 512.074 63.32 512.387 62.926
 c 518.902 62.926 l 518.902 61.457 l 510.168 61.457 l 510.168 62.926 l 511.137
 62.926 l 510.762 63.383 510.473 63.836 510.262 64.285 c 510.043 64.742 
509.934 65.23 509.934 65.754 c 509.934 66.348 510.059 66.848 510.309 67.254
 c 510.559 67.668 510.902 67.98 511.34 68.191 c 510.84 68.785 510.48 69.324
 510.262 69.816 c 510.043 70.305 509.934 70.824 509.934 71.379 c 509.934
 72.336 510.227 73.043 510.809 73.504 c 511.383 73.961 512.191 74.191 513.23
 74.191 c h
518.902 74.191 m f
83.672 365.383 m 82.203 365.383 l 82.203 366.32 l 82.078 366.227 81.898
 366.102 81.672 365.945 c 81.453 365.789 81.238 365.664 81.031 365.57 c 
80.789 365.445 80.508 365.344 80.188 365.258 c 79.875 365.176 79.504 365.133
 79.078 365.133 c 78.285 365.133 77.613 365.391 77.063 365.914 c 76.52 366.445
 76.25 367.109 76.25 367.914 c 76.25 368.578 76.391 369.117 76.672 369.523
 c 76.961 369.93 77.367 370.25 77.891 370.492 c 78.422 370.719 79.055 370.875
 79.797 370.961 c 80.547 371.043 81.348 371.105 82.203 371.148 c 82.203 
371.383 l 82.203 371.715 82.145 371.992 82.031 372.211 c 81.914 372.43 81.75
 372.602 81.531 372.727 c 81.32 372.84 81.07 372.918 80.781 372.961 c 80.488
 373 80.18 373.023 79.859 373.023 c 79.473 373.023 79.039 372.969 78.563
 372.867 c 78.094 372.773 77.609 372.625 77.109 372.43 c 77.031 372.43 l
 77.031 373.93 l 77.313 374 77.723 374.086 78.266 374.18 c 78.805 374.273
 79.344 374.32 79.875 374.32 c 80.488 374.32 81.02 374.266 81.469 374.164
 c 81.926 374.07 82.32 373.898 82.656 373.648 c 82.988 373.406 83.238 373.094
 83.406 372.711 c 83.582 372.336 83.672 371.867 83.672 371.305 c h
82.203 367.539 m 82.203 369.961 l 81.754 369.938 81.227 369.902 80.625 
369.852 c 80.02 369.797 79.539 369.719 79.188 369.617 c 78.758 369.5 78.414
 369.313 78.156 369.055 c 77.895 368.805 77.766 368.461 77.766 368.023 c
 77.766 367.523 77.914 367.141 78.219 366.883 c 78.52 366.633 78.984 366.508
 79.609 366.508 c 80.117 366.508 80.586 366.605 81.016 366.805 c 81.441 
367.012 81.836 367.258 82.203 367.539 c h
82.203 367.539 m f
25.492 343.785 1.469 -12.156 re f
37.258 335.988 m 37.258 334.57 36.891 333.445 36.164 332.613 c 35.434 331.789
 34.453 331.379 33.227 331.379 c 31.996 331.379 31.016 331.789 30.289 332.613
 c 29.559 333.445 29.195 334.57 29.195 335.988 c 29.195 337.414 29.559 338.539
 30.289 339.363 c 31.016 340.184 31.996 340.598 33.227 340.598 c 34.453 
340.598 35.434 340.184 36.164 339.363 c 36.891 338.539 37.258 337.414 37.258
 335.988 c h
35.742 335.988 m 35.742 337.121 35.516 337.961 35.07 338.504 c 34.633 339.055
 34.016 339.332 33.227 339.332 c 32.434 339.332 31.813 339.055 31.367 338.504
 c 30.93 337.961 30.711 337.121 30.711 335.988 c 30.711 334.895 30.93 334.066
 31.367 333.504 c 31.813 332.941 32.434 332.66 33.227 332.66 c 34.008 332.66
 34.621 332.934 35.07 333.488 c 35.516 334.051 35.742 334.883 35.742 335.988
 c h
35.742 335.988 m f
45.992 332.176 m 45.5 331.945 45.031 331.762 44.586 331.629 c 44.148 331.496
 43.684 331.426 43.195 331.426 c 42.559 331.426 41.977 331.52 41.445 331.707
 c 40.922 331.895 40.477 332.176 40.102 332.551 c 39.727 332.926 39.434 
333.398 39.227 333.973 c 39.016 334.543 38.914 335.215 38.914 335.988 c 
38.914 337.414 39.305 338.535 40.086 339.348 c 40.867 340.16 41.902 340.566
 43.195 340.566 c 43.695 340.566 44.184 340.492 44.664 340.348 c 45.141 
340.211 45.586 340.039 45.992 339.832 c 45.992 338.207 l 45.914 338.207 
l 45.465 338.551 45 338.816 44.523 339.004 c 44.043 339.191 43.578 339.285
 43.133 339.285 c 42.297 339.285 41.637 339.004 41.148 338.441 c 40.668 
337.887 40.43 337.07 40.43 335.988 c 40.43 334.934 40.664 334.121 41.133
 333.551 c 41.609 332.988 42.277 332.707 43.133 332.707 c 43.422 332.707
 43.719 332.742 44.023 332.816 c 44.336 332.898 44.617 333.004 44.867 333.129
 c 45.074 333.242 45.273 333.355 45.461 333.473 c 45.648 333.598 45.797 
333.707 45.914 333.801 c 45.992 333.801 l h
45.992 332.176 m f
54.664 331.629 m 53.195 331.629 l 53.195 332.566 l 53.07 332.473 52.891
 332.348 52.664 332.191 c 52.445 332.035 52.23 331.91 52.023 331.816 c 51.781
 331.691 51.5 331.59 51.18 331.504 c 50.867 331.422 50.496 331.379 50.07
 331.379 c 49.277 331.379 48.605 331.637 48.055 332.16 c 47.512 332.691 
47.242 333.355 47.242 334.16 c 47.242 334.824 47.383 335.363 47.664 335.77
 c 47.953 336.176 48.359 336.496 48.883 336.738 c 49.414 336.965 50.047 
337.121 50.789 337.207 c 51.539 337.289 52.34 337.352 53.195 337.395 c 53.195
 337.629 l 53.195 337.961 53.137 338.238 53.023 338.457 c 52.906 338.676
 52.742 338.848 52.523 338.973 c 52.313 339.086 52.063 339.164 51.773 339.207
 c 51.48 339.246 51.172 339.27 50.852 339.27 c 50.465 339.27 50.031 339.215
 49.555 339.113 c 49.086 339.02 48.602 338.871 48.102 338.676 c 48.023 338.676
 l 48.023 340.176 l 48.305 340.246 48.715 340.332 49.258 340.426 c 49.797
 340.52 50.336 340.566 50.867 340.566 c 51.48 340.566 52.012 340.512 52.461
 340.41 c 52.918 340.316 53.313 340.145 53.648 339.895 c 53.98 339.652 54.23
 339.34 54.398 338.957 c 54.574 338.582 54.664 338.113 54.664 337.551 c 
h
53.195 333.785 m 53.195 336.207 l 52.746 336.184 52.219 336.148 51.617 
336.098 c 51.012 336.043 50.531 335.965 50.18 335.863 c 49.75 335.746 49.406
 335.559 49.148 335.301 c 48.887 335.051 48.758 334.707 48.758 334.27 c 
48.758 333.77 48.906 333.387 49.211 333.129 c 49.512 332.879 49.977 332.754
 50.602 332.754 c 51.109 332.754 51.578 332.852 52.008 333.051 c 52.434 
333.258 52.828 333.504 53.195 333.785 c h
53.195 333.785 m f
62.039 331.707 m 61.758 331.633 61.453 331.578 61.133 331.535 c 60.809 
331.484 60.516 331.457 60.258 331.457 c 59.371 331.457 58.695 331.695 58.227
 332.176 c 57.766 332.652 57.539 333.426 57.539 334.488 c 57.539 339.129
 l 56.539 339.129 l 56.539 340.363 l 57.539 340.363 l 57.539 342.863 l 59.008
 342.863 l 59.008 340.363 l 62.039 340.363 l 62.039 339.129 l 59.008 339.129
 l 59.008 335.145 l 59.008 334.684 59.016 334.324 59.039 334.066 c 59.059
 333.816 59.133 333.574 59.258 333.348 c 59.371 333.137 59.527 332.988 59.727
 332.895 c 59.922 332.801 60.23 332.754 60.648 332.754 c 60.887 332.754 
61.137 332.785 61.398 332.848 c 61.656 332.918 61.844 332.98 61.961 333.035
 c 62.039 333.035 l h
62.039 331.707 m f
65.398 341.816 m 63.742 341.816 l 63.742 343.348 l 65.398 343.348 l h
65.305 331.629 m 63.836 331.629 l 63.836 340.363 l 65.305 340.363 l h
65.305 331.629 m f
75.602 335.988 m 75.602 334.57 75.234 333.445 74.508 332.613 c 73.777 331.789
 72.797 331.379 71.57 331.379 c 70.34 331.379 69.359 331.789 68.633 332.613
 c 67.902 333.445 67.539 334.57 67.539 335.988 c 67.539 337.414 67.902 338.539
 68.633 339.363 c 69.359 340.184 70.34 340.598 71.57 340.598 c 72.797 340.598
 73.777 340.184 74.508 339.363 c 75.234 338.539 75.602 337.414 75.602 335.988
 c h
74.086 335.988 m 74.086 337.121 73.859 337.961 73.414 338.504 c 72.977 
339.055 72.359 339.332 71.57 339.332 c 70.777 339.332 70.156 339.055 69.711
 338.504 c 69.273 337.961 69.055 337.121 69.055 335.988 c 69.055 334.895
 69.273 334.066 69.711 333.504 c 70.156 332.941 70.777 332.66 71.57 332.66
 c 72.352 332.66 72.965 332.934 73.414 333.488 c 73.859 334.051 74.086 334.883
 74.086 335.988 c h
74.086 335.988 m f
85.18 331.629 m 83.711 331.629 l 83.711 336.598 l 83.711 337.004 83.684
 337.379 83.633 337.723 c 83.59 338.074 83.508 338.352 83.383 338.551 c 
83.246 338.77 83.055 338.93 82.805 339.035 c 82.563 339.148 82.25 339.207
 81.867 339.207 c 81.461 339.207 81.039 339.105 80.602 338.91 c 80.164 338.711
 79.746 338.457 79.352 338.145 c 79.352 331.629 l 77.883 331.629 l 77.883
 340.363 l 79.352 340.363 l 79.352 339.395 l 79.809 339.77 80.281 340.059
 80.773 340.27 c 81.262 340.488 81.762 340.598 82.273 340.598 c 83.219 340.598
 83.938 340.309 84.43 339.738 c 84.93 339.176 85.18 338.363 85.18 337.301
 c h
85.18 331.629 m f
73.332 305.871 m 71.676 305.871 l 71.676 307.402 l 73.332 307.402 l h
73.238 295.684 m 71.77 295.684 l 71.77 304.418 l 73.238 304.418 l h
73.238 295.684 m f
83.395 295.684 m 81.926 295.684 l 81.926 300.652 l 81.926 301.059 81.898
 301.434 81.848 301.777 c 81.805 302.129 81.723 302.406 81.598 302.605 c
 81.461 302.824 81.27 302.984 81.02 303.09 c 80.777 303.203 80.465 303.262
 80.082 303.262 c 79.676 303.262 79.254 303.16 78.816 302.965 c 78.379 302.766
 77.961 302.512 77.566 302.199 c 77.566 295.684 l 76.098 295.684 l 76.098
 304.418 l 77.566 304.418 l 77.566 303.449 l 78.023 303.824 78.496 304.113
 78.988 304.324 c 79.477 304.543 79.977 304.652 80.488 304.652 c 81.434 
304.652 82.152 304.363 82.645 303.793 c 83.145 303.23 83.395 302.418 83.395
 301.355 c h
83.395 295.684 m f
34.746 261.734 m 33.277 261.734 l 33.277 266.703 l 33.277 267.078 33.254
 267.438 33.215 267.781 c 33.184 268.133 33.113 268.414 33.012 268.625 c
 32.887 268.852 32.707 269.023 32.48 269.141 c 32.262 269.254 31.941 269.313
 31.527 269.313 c 31.109 269.313 30.691 269.207 30.277 269 c 29.871 268.789
 29.465 268.531 29.059 268.219 c 29.066 268.094 29.078 267.953 29.09 267.797
 c 29.098 267.641 29.105 267.484 29.105 267.328 c 29.105 261.734 l 27.637
 261.734 l 27.637 266.703 l 27.637 267.086 27.621 267.453 27.59 267.797 
c 27.559 268.148 27.484 268.43 27.371 268.641 c 27.254 268.859 27.082 269.023
 26.855 269.141 c 26.637 269.254 26.313 269.313 25.887 269.313 c 25.488 
269.313 25.09 269.211 24.684 269.016 c 24.277 268.816 23.875 268.563 23.48
 268.25 c 23.48 261.734 l 22.012 261.734 l 22.012 270.469 l 23.48 270.469
 l 23.48 269.5 l 23.938 269.875 24.391 270.164 24.84 270.375 c 25.297 270.594
 25.785 270.703 26.309 270.703 c 26.902 270.703 27.402 270.578 27.809 270.328
 c 28.223 270.078 28.535 269.734 28.746 269.297 c 29.34 269.797 29.879 270.156
 30.371 270.375 c 30.859 270.594 31.379 270.703 31.934 270.703 c 32.891 
270.703 33.598 270.41 34.059 269.828 c 34.516 269.254 34.746 268.445 34.746
 267.406 c h
34.746 261.734 m f
44.871 265.953 m 38.449 265.953 l 38.449 265.41 38.527 264.941 38.684 264.547
 c 38.848 264.148 39.074 263.82 39.355 263.563 c 39.625 263.313 39.941 263.125
 40.309 263 c 40.684 262.875 41.094 262.813 41.543 262.813 c 42.137 262.813
 42.734 262.93 43.34 263.172 c 43.941 263.41 44.371 263.645 44.621 263.875
 c 44.699 263.875 l 44.699 262.266 l 44.207 262.055 43.703 261.879 43.184
 261.734 c 42.672 261.602 42.129 261.531 41.559 261.531 c 40.109 261.531
 38.98 261.922 38.168 262.703 c 37.355 263.492 36.949 264.609 36.949 266.047
 c 36.949 267.473 37.34 268.602 38.121 269.438 c 38.902 270.281 39.926 270.703
 41.199 270.703 c 42.375 270.703 43.281 270.359 43.918 269.672 c 44.551 
268.984 44.871 268.008 44.871 266.75 c h
43.449 267.078 m 43.438 267.848 43.238 268.441 42.855 268.859 c 42.48 269.285
 41.902 269.5 41.121 269.5 c 40.328 269.5 39.699 269.266 39.23 268.797 c
 38.77 268.336 38.512 267.766 38.449 267.078 c h
43.449 267.078 m f
59.84 261.734 m 58.371 261.734 l 58.371 266.703 l 58.371 267.078 58.348
 267.438 58.309 267.781 c 58.277 268.133 58.207 268.414 58.105 268.625 c
 57.98 268.852 57.801 269.023 57.574 269.141 c 57.355 269.254 57.035 269.313
 56.621 269.313 c 56.203 269.313 55.785 269.207 55.371 269 c 54.965 268.789
 54.559 268.531 54.152 268.219 c 54.16 268.094 54.172 267.953 54.184 267.797
 c 54.191 267.641 54.199 267.484 54.199 267.328 c 54.199 261.734 l 52.73
 261.734 l 52.73 266.703 l 52.73 267.086 52.715 267.453 52.684 267.797 c
 52.652 268.148 52.578 268.43 52.465 268.641 c 52.348 268.859 52.176 269.023
 51.949 269.141 c 51.73 269.254 51.406 269.313 50.98 269.313 c 50.582 269.313
 50.184 269.211 49.777 269.016 c 49.371 268.816 48.969 268.563 48.574 268.25
 c 48.574 261.734 l 47.105 261.734 l 47.105 270.469 l 48.574 270.469 l 48.574
 269.5 l 49.031 269.875 49.484 270.164 49.934 270.375 c 50.391 270.594 50.879
 270.703 51.402 270.703 c 51.996 270.703 52.496 270.578 52.902 270.328 c
 53.316 270.078 53.629 269.734 53.84 269.297 c 54.434 269.797 54.973 270.156
 55.465 270.375 c 55.953 270.594 56.473 270.703 57.027 270.703 c 57.984 
270.703 58.691 270.41 59.152 269.828 c 59.609 269.254 59.84 268.445 59.84
 267.406 c h
59.84 261.734 m f
70.105 266.094 m 70.105 264.676 69.738 263.551 69.012 262.719 c 68.281 
261.895 67.301 261.484 66.074 261.484 c 64.844 261.484 63.863 261.895 63.137
 262.719 c 62.406 263.551 62.043 264.676 62.043 266.094 c 62.043 267.52 
62.406 268.645 63.137 269.469 c 63.863 270.289 64.844 270.703 66.074 270.703
 c 67.301 270.703 68.281 270.289 69.012 269.469 c 69.738 268.645 70.105 
267.52 70.105 266.094 c h
68.59 266.094 m 68.59 267.227 68.363 268.066 67.918 268.609 c 67.48 269.16
 66.863 269.438 66.074 269.438 c 65.281 269.438 64.66 269.16 64.215 268.609
 c 63.777 268.066 63.559 267.227 63.559 266.094 c 63.559 265 63.777 264.172
 64.215 263.609 c 64.66 263.047 65.281 262.766 66.074 262.766 c 66.855 262.766
 67.469 263.039 67.918 263.594 c 68.363 264.156 68.59 264.988 68.59 266.094
 c h
68.59 266.094 m f
77.824 268.859 m 77.746 268.859 l 77.527 268.91 77.313 268.945 77.105 268.969
 c 76.906 269 76.668 269.016 76.387 269.016 c 75.926 269.016 75.484 268.91
 75.059 268.703 c 74.641 268.504 74.238 268.25 73.855 267.938 c 73.855 261.734
 l 72.387 261.734 l 72.387 270.469 l 73.855 270.469 l 73.855 269.172 l 74.438
 269.641 74.949 269.973 75.387 270.172 c 75.832 270.367 76.293 270.469 76.762
 270.469 c 77.012 270.469 77.191 270.457 77.309 270.438 c 77.422 270.426
 77.594 270.406 77.824 270.375 c h
77.824 268.859 m f
86.777 270.469 m 81.684 258.516 l 80.105 258.516 l 81.73 262.156 l 78.262
 270.469 l 79.855 270.469 l 82.527 264 l 85.23 270.469 l h
86.777 270.469 m f
58.863 226.43 m 58.582 226.355 58.277 226.301 57.957 226.258 c 57.633 226.207
 57.34 226.18 57.082 226.18 c 56.195 226.18 55.52 226.418 55.051 226.898
 c 54.59 227.375 54.363 228.148 54.363 229.211 c 54.363 233.852 l 53.363
 233.852 l 53.363 235.086 l 54.363 235.086 l 54.363 237.586 l 55.832 237.586
 l 55.832 235.086 l 58.863 235.086 l 58.863 233.852 l 55.832 233.852 l 55.832
 229.867 l 55.832 229.406 55.84 229.047 55.863 228.789 c 55.883 228.539 
55.957 228.297 56.082 228.07 c 56.195 227.859 56.352 227.711 56.551 227.617
 c 56.746 227.523 57.055 227.477 57.473 227.477 c 57.711 227.477 57.961 
227.508 58.223 227.57 c 58.48 227.641 58.668 227.703 58.785 227.758 c 58.863
 227.758 l h
58.863 226.43 m f
67.941 226.352 m 66.473 226.352 l 66.473 231.32 l 66.473 231.727 66.445
 232.102 66.395 232.445 c 66.352 232.797 66.27 233.074 66.145 233.273 c 
66.008 233.492 65.816 233.652 65.566 233.758 c 65.324 233.871 65.012 233.93
 64.629 233.93 c 64.223 233.93 63.801 233.828 63.363 233.633 c 62.926 233.434
 62.508 233.18 62.113 232.867 c 62.113 226.352 l 60.645 226.352 l 60.645
 238.508 l 62.113 238.508 l 62.113 234.117 l 62.57 234.492 63.043 234.781
 63.535 234.992 c 64.023 235.211 64.523 235.32 65.035 235.32 c 65.98 235.32
 66.699 235.031 67.191 234.461 c 67.691 233.898 67.941 233.086 67.941 232.023
 c h
67.941 226.352 m f
77.551 226.352 m 76.082 226.352 l 76.082 227.289 l 75.957 227.195 75.777
 227.07 75.551 226.914 c 75.332 226.758 75.117 226.633 74.91 226.539 c 74.668
 226.414 74.387 226.313 74.066 226.227 c 73.754 226.145 73.383 226.102 72.957
 226.102 c 72.164 226.102 71.492 226.359 70.941 226.883 c 70.398 227.414
 70.129 228.078 70.129 228.883 c 70.129 229.547 70.27 230.086 70.551 230.492
 c 70.84 230.898 71.246 231.219 71.77 231.461 c 72.301 231.688 72.934 231.844
 73.676 231.93 c 74.426 232.012 75.227 232.074 76.082 232.117 c 76.082 232.352
 l 76.082 232.684 76.023 232.961 75.91 233.18 c 75.793 233.398 75.629 233.57
 75.41 233.695 c 75.199 233.809 74.949 233.887 74.66 233.93 c 74.367 233.969
 74.059 233.992 73.738 233.992 c 73.352 233.992 72.918 233.938 72.441 233.836
 c 71.973 233.742 71.488 233.594 70.988 233.398 c 70.91 233.398 l 70.91 
234.898 l 71.191 234.969 71.602 235.055 72.145 235.148 c 72.684 235.242 
73.223 235.289 73.754 235.289 c 74.367 235.289 74.898 235.234 75.348 235.133
 c 75.805 235.039 76.199 234.867 76.535 234.617 c 76.867 234.375 77.117 
234.063 77.285 233.68 c 77.461 233.305 77.551 232.836 77.551 232.273 c h
76.082 228.508 m 76.082 230.93 l 75.633 230.906 75.105 230.871 74.504 230.82
 c 73.898 230.766 73.418 230.688 73.066 230.586 c 72.637 230.469 72.293 
230.281 72.035 230.023 c 71.773 229.773 71.645 229.43 71.645 228.992 c 71.645
 228.492 71.793 228.109 72.098 227.852 c 72.398 227.602 72.863 227.477 73.488
 227.477 c 73.996 227.477 74.465 227.574 74.895 227.773 c 75.32 227.98 75.715
 228.227 76.082 228.508 c h
76.082 228.508 m f
84.926 226.43 m 84.645 226.355 84.34 226.301 84.02 226.258 c 83.695 226.207
 83.402 226.18 83.145 226.18 c 82.258 226.18 81.582 226.418 81.113 226.898
 c 80.652 227.375 80.426 228.148 80.426 229.211 c 80.426 233.852 l 79.426
 233.852 l 79.426 235.086 l 80.426 235.086 l 80.426 237.586 l 81.895 237.586
 l 81.895 235.086 l 84.926 235.086 l 84.926 233.852 l 81.895 233.852 l 81.895
 229.867 l 81.895 229.406 81.902 229.047 81.926 228.789 c 81.945 228.539
 82.02 228.297 82.145 228.07 c 82.258 227.859 82.414 227.711 82.613 227.617
 c 82.809 227.523 83.117 227.477 83.535 227.477 c 83.773 227.477 84.023 
227.508 84.285 227.57 c 84.543 227.641 84.73 227.703 84.848 227.758 c 84.926
 227.758 l h
84.926 226.43 m f
65.797 195.613 m 65.305 195.383 64.836 195.199 64.391 195.066 c 63.953 
194.934 63.488 194.863 63 194.863 c 62.363 194.863 61.781 194.957 61.25 
195.145 c 60.727 195.332 60.281 195.613 59.906 195.988 c 59.531 196.363 
59.238 196.836 59.031 197.41 c 58.82 197.98 58.719 198.652 58.719 199.426
 c 58.719 200.852 59.109 201.973 59.891 202.785 c 60.672 203.598 61.707 
204.004 63 204.004 c 63.5 204.004 63.988 203.93 64.469 203.785 c 64.945 
203.648 65.391 203.477 65.797 203.27 c 65.797 201.645 l 65.719 201.645 l
 65.27 201.988 64.805 202.254 64.328 202.441 c 63.848 202.629 63.383 202.723
 62.938 202.723 c 62.102 202.723 61.441 202.441 60.953 201.879 c 60.473 
201.324 60.234 200.508 60.234 199.426 c 60.234 198.371 60.469 197.559 60.938
 196.988 c 61.414 196.426 62.082 196.145 62.938 196.145 c 63.227 196.145
 63.523 196.18 63.828 196.254 c 64.141 196.336 64.422 196.441 64.672 196.566
 c 64.879 196.68 65.078 196.793 65.266 196.91 c 65.453 197.035 65.602 197.145
 65.719 197.238 c 65.797 197.238 l h
65.797 195.613 m f
74.469 195.066 m 73 195.066 l 73 196.004 l 72.875 195.91 72.695 195.785
 72.469 195.629 c 72.25 195.473 72.035 195.348 71.828 195.254 c 71.586 195.129
 71.305 195.027 70.984 194.941 c 70.672 194.859 70.301 194.816 69.875 194.816
 c 69.082 194.816 68.41 195.074 67.859 195.598 c 67.316 196.129 67.047 196.793
 67.047 197.598 c 67.047 198.262 67.188 198.801 67.469 199.207 c 67.758 
199.613 68.164 199.934 68.688 200.176 c 69.219 200.402 69.852 200.559 70.594
 200.645 c 71.344 200.727 72.145 200.789 73 200.832 c 73 201.066 l 73 201.398
 72.941 201.676 72.828 201.895 c 72.711 202.113 72.547 202.285 72.328 202.41
 c 72.117 202.523 71.867 202.602 71.578 202.645 c 71.285 202.684 70.977 
202.707 70.656 202.707 c 70.27 202.707 69.836 202.652 69.359 202.551 c 68.891
 202.457 68.406 202.309 67.906 202.113 c 67.828 202.113 l 67.828 203.613
 l 68.109 203.684 68.52 203.77 69.063 203.863 c 69.602 203.957 70.141 204.004
 70.672 204.004 c 71.285 204.004 71.816 203.949 72.266 203.848 c 72.723 
203.754 73.117 203.582 73.453 203.332 c 73.785 203.09 74.035 202.777 74.203
 202.395 c 74.379 202.02 74.469 201.551 74.469 200.988 c h
73 197.223 m 73 199.645 l 72.551 199.621 72.023 199.586 71.422 199.535 
c 70.816 199.48 70.336 199.402 69.984 199.301 c 69.555 199.184 69.211 198.996
 68.953 198.738 c 68.691 198.488 68.563 198.145 68.563 197.707 c 68.563 
197.207 68.711 196.824 69.016 196.566 c 69.316 196.316 69.781 196.191 70.406
 196.191 c 70.914 196.191 71.383 196.289 71.813 196.488 c 72.238 196.695
 72.633 196.941 73 197.223 c h
73 197.223 m f
84.609 195.066 m 83.141 195.066 l 83.141 200.035 l 83.141 200.441 83.113
 200.816 83.063 201.16 c 83.02 201.512 82.938 201.789 82.813 201.988 c 82.676
 202.207 82.484 202.367 82.234 202.473 c 81.992 202.586 81.68 202.645 81.297
 202.645 c 80.891 202.645 80.469 202.543 80.031 202.348 c 79.594 202.148
 79.176 201.895 78.781 201.582 c 78.781 195.066 l 77.313 195.066 l 77.313
 203.801 l 78.781 203.801 l 78.781 202.832 l 79.238 203.207 79.711 203.496
 80.203 203.707 c 80.691 203.926 81.191 204.035 81.703 204.035 c 82.648 
204.035 83.367 203.746 83.859 203.176 c 84.359 202.613 84.609 201.801 84.609
 200.738 c h
84.609 195.066 m f
52.852 160.742 m 52.852 159.949 52.516 159.293 51.852 158.773 c 51.195 
158.262 50.297 158.008 49.164 158.008 c 48.516 158.008 47.922 158.086 47.383
 158.242 c 46.84 158.398 46.387 158.57 46.023 158.758 c 46.023 160.398 l
 46.102 160.398 l 46.57 160.055 47.086 159.777 47.648 159.57 c 48.219 159.359
 48.766 159.258 49.289 159.258 c 49.934 159.258 50.438 159.359 50.805 159.57
 c 51.168 159.777 51.352 160.105 51.352 160.555 c 51.352 160.898 51.25 161.156
 51.055 161.336 c 50.855 161.512 50.477 161.664 49.914 161.789 c 49.703 
161.84 49.43 161.898 49.086 161.961 c 48.75 162.023 48.449 162.09 48.18 
162.164 c 47.406 162.359 46.859 162.656 46.539 163.055 c 46.227 163.449 
46.07 163.934 46.07 164.508 c 46.07 164.859 46.141 165.195 46.289 165.508
 c 46.434 165.828 46.656 166.117 46.961 166.367 c 47.25 166.617 47.621 166.809
 48.07 166.945 c 48.527 167.09 49.031 167.164 49.586 167.164 c 50.105 167.164
 50.633 167.102 51.164 166.977 c 51.703 166.852 52.152 166.695 52.508 166.508
 c 52.508 164.945 l 52.43 164.945 l 52.055 165.215 51.594 165.445 51.055
 165.633 c 50.523 165.828 49.996 165.93 49.477 165.93 c 48.945 165.93 48.492
 165.824 48.117 165.617 c 47.75 165.406 47.57 165.102 47.57 164.695 c 47.57
 164.34 47.68 164.07 47.898 163.883 c 48.117 163.703 48.469 163.559 48.961
 163.445 c 49.23 163.383 49.531 163.32 49.867 163.258 c 50.211 163.195 50.492
 163.137 50.711 163.086 c 51.398 162.93 51.922 162.656 52.289 162.273 c 
52.664 161.887 52.852 161.375 52.852 160.742 c h
52.852 160.742 m f
59.492 158.305 m 59.211 158.23 58.906 158.176 58.586 158.133 c 58.262 158.082
 57.969 158.055 57.711 158.055 c 56.824 158.055 56.148 158.293 55.68 158.773
 c 55.219 159.25 54.992 160.023 54.992 161.086 c 54.992 165.727 l 53.992
 165.727 l 53.992 166.961 l 54.992 166.961 l 54.992 169.461 l 56.461 169.461
 l 56.461 166.961 l 59.492 166.961 l 59.492 165.727 l 56.461 165.727 l 56.461
 161.742 l 56.461 161.281 56.469 160.922 56.492 160.664 c 56.512 160.414
 56.586 160.172 56.711 159.945 c 56.824 159.734 56.98 159.586 57.18 159.492
 c 57.375 159.398 57.684 159.352 58.102 159.352 c 58.34 159.352 58.59 159.383
 58.852 159.445 c 59.109 159.516 59.297 159.578 59.414 159.633 c 59.492 
159.633 l h
59.492 158.305 m f
68.711 162.586 m 68.711 161.168 68.344 160.043 67.617 159.211 c 66.887 
158.387 65.906 157.977 64.68 157.977 c 63.449 157.977 62.469 158.387 61.742
 159.211 c 61.012 160.043 60.648 161.168 60.648 162.586 c 60.648 164.012
 61.012 165.137 61.742 165.961 c 62.469 166.781 63.449 167.195 64.68 167.195
 c 65.906 167.195 66.887 166.781 67.617 165.961 c 68.344 165.137 68.711 
164.012 68.711 162.586 c h
67.195 162.586 m 67.195 163.719 66.969 164.559 66.523 165.102 c 66.086 
165.652 65.469 165.93 64.68 165.93 c 63.887 165.93 63.266 165.652 62.82 
165.102 c 62.383 164.559 62.164 163.719 62.164 162.586 c 62.164 161.492 
62.383 160.664 62.82 160.102 c 63.266 159.539 63.887 159.258 64.68 159.258
 c 65.461 159.258 66.074 159.531 66.523 160.086 c 66.969 160.648 67.195 
161.48 67.195 162.586 c h
67.195 162.586 m f
76.43 165.352 m 76.352 165.352 l 76.133 165.402 75.918 165.438 75.711 165.461
 c 75.512 165.492 75.273 165.508 74.992 165.508 c 74.531 165.508 74.09 165.402
 73.664 165.195 c 73.246 164.996 72.844 164.742 72.461 164.43 c 72.461 158.227
 l 70.992 158.227 l 70.992 166.961 l 72.461 166.961 l 72.461 165.664 l 73.043
 166.133 73.555 166.465 73.992 166.664 c 74.438 166.859 74.898 166.961 75.367
 166.961 c 75.617 166.961 75.797 166.949 75.914 166.93 c 76.027 166.918 
76.199 166.898 76.43 166.867 c h
76.43 165.352 m f
85.133 162.445 m 78.711 162.445 l 78.711 161.902 78.789 161.434 78.945 
161.039 c 79.109 160.641 79.336 160.313 79.617 160.055 c 79.887 159.805 
80.203 159.617 80.57 159.492 c 80.945 159.367 81.355 159.305 81.805 159.305
 c 82.398 159.305 82.996 159.422 83.602 159.664 c 84.203 159.902 84.633 
160.137 84.883 160.367 c 84.961 160.367 l 84.961 158.758 l 84.469 158.547
 83.965 158.371 83.445 158.227 c 82.934 158.094 82.391 158.023 81.82 158.023
 c 80.371 158.023 79.242 158.414 78.43 159.195 c 77.617 159.984 77.211 161.102
 77.211 162.539 c 77.211 163.965 77.602 165.094 78.383 165.93 c 79.164 166.773
 80.188 167.195 81.461 167.195 c 82.637 167.195 83.543 166.852 84.18 166.164
 c 84.813 165.477 85.133 164.5 85.133 163.242 c h
83.711 163.57 m 83.699 164.34 83.5 164.934 83.117 165.352 c 82.742 165.777
 82.164 165.992 81.383 165.992 c 80.59 165.992 79.961 165.758 79.492 165.289
 c 79.031 164.828 78.773 164.258 78.711 163.57 c h
83.711 163.57 m f
83.332 125.066 m 81.863 125.066 l 81.863 126.004 l 81.738 125.91 81.559
 125.785 81.332 125.629 c 81.113 125.473 80.898 125.348 80.691 125.254 c
 80.449 125.129 80.168 125.027 79.848 124.941 c 79.535 124.859 79.164 124.816
 78.738 124.816 c 77.945 124.816 77.273 125.074 76.723 125.598 c 76.18 126.129
 75.91 126.793 75.91 127.598 c 75.91 128.262 76.051 128.801 76.332 129.207
 c 76.621 129.613 77.027 129.934 77.551 130.176 c 78.082 130.402 78.715 
130.559 79.457 130.645 c 80.207 130.727 81.008 130.789 81.863 130.832 c 
81.863 131.066 l 81.863 131.398 81.805 131.676 81.691 131.895 c 81.574 132.113
 81.41 132.285 81.191 132.41 c 80.98 132.523 80.73 132.602 80.441 132.645
 c 80.148 132.684 79.84 132.707 79.52 132.707 c 79.133 132.707 78.699 132.652
 78.223 132.551 c 77.754 132.457 77.27 132.309 76.77 132.113 c 76.691 132.113
 l 76.691 133.613 l 76.973 133.684 77.383 133.77 77.926 133.863 c 78.465
 133.957 79.004 134.004 79.535 134.004 c 80.148 134.004 80.68 133.949 81.129
 133.848 c 81.586 133.754 81.98 133.582 82.316 133.332 c 82.648 133.09 82.898
 132.777 83.066 132.395 c 83.242 132.02 83.332 131.551 83.332 130.988 c 
h
81.863 127.223 m 81.863 129.645 l 81.414 129.621 80.887 129.586 80.285 
129.535 c 79.68 129.48 79.199 129.402 78.848 129.301 c 78.418 129.184 78.074
 128.996 77.816 128.738 c 77.555 128.488 77.426 128.145 77.426 127.707 c
 77.426 127.207 77.574 126.824 77.879 126.566 c 78.18 126.316 78.645 126.191
 79.27 126.191 c 79.777 126.191 80.246 126.289 80.676 126.488 c 81.102 126.695
 81.496 126.941 81.863 127.223 c h
81.863 127.223 m f
51.223 98.422 m 47.691 89.688 l 46.207 89.688 l 42.707 98.422 l 44.301 
98.422 l 47.004 91.469 l 49.676 98.422 l h
51.223 98.422 m f
59.926 89.688 m 58.457 89.688 l 58.457 90.625 l 58.332 90.531 58.152 90.406
 57.926 90.25 c 57.707 90.094 57.492 89.969 57.285 89.875 c 57.043 89.75
 56.762 89.648 56.441 89.563 c 56.129 89.48 55.758 89.438 55.332 89.438 
c 54.539 89.438 53.867 89.695 53.316 90.219 c 52.773 90.75 52.504 91.414
 52.504 92.219 c 52.504 92.883 52.645 93.422 52.926 93.828 c 53.215 94.234
 53.621 94.555 54.145 94.797 c 54.676 95.023 55.309 95.18 56.051 95.266 
c 56.801 95.348 57.602 95.41 58.457 95.453 c 58.457 95.688 l 58.457 96.02
 58.398 96.297 58.285 96.516 c 58.168 96.734 58.004 96.906 57.785 97.031
 c 57.574 97.145 57.324 97.223 57.035 97.266 c 56.742 97.305 56.434 97.328
 56.113 97.328 c 55.727 97.328 55.293 97.273 54.816 97.172 c 54.348 97.078
 53.863 96.93 53.363 96.734 c 53.285 96.734 l 53.285 98.234 l 53.566 98.305
 53.977 98.391 54.52 98.484 c 55.059 98.578 55.598 98.625 56.129 98.625 
c 56.742 98.625 57.273 98.57 57.723 98.469 c 58.18 98.375 58.574 98.203 
58.91 97.953 c 59.242 97.711 59.492 97.398 59.66 97.016 c 59.836 96.641 
59.926 96.172 59.926 95.609 c h
58.457 91.844 m 58.457 94.266 l 58.008 94.242 57.48 94.207 56.879 94.156
 c 56.273 94.102 55.793 94.023 55.441 93.922 c 55.012 93.805 54.668 93.617
 54.41 93.359 c 54.148 93.109 54.02 92.766 54.02 92.328 c 54.02 91.828 54.168
 91.445 54.473 91.188 c 54.773 90.938 55.238 90.813 55.863 90.813 c 56.371
 90.813 56.84 90.91 57.27 91.109 c 57.695 91.316 58.09 91.563 58.457 91.844
 c h
58.457 91.844 m f
62.785 101.844 1.469 -12.156 re f
74.348 89.688 m 72.879 89.688 l 72.879 90.656 l 72.379 90.27 71.898 89.969
 71.441 89.75 c 70.992 89.543 70.496 89.438 69.957 89.438 c 69.039 89.438
 68.324 89.719 67.816 90.281 c 67.305 90.844 67.051 91.664 67.051 92.75 
c 67.051 98.422 l 68.52 98.422 l 68.52 93.453 l 68.52 93.004 68.539 92.625
 68.582 92.313 c 68.621 92 68.711 91.727 68.848 91.5 c 68.98 91.27 69.16
 91.102 69.379 91 c 69.605 90.895 69.934 90.844 70.363 90.844 c 70.746 90.844
 71.164 90.941 71.613 91.141 c 72.059 91.336 72.48 91.594 72.879 91.906 
c 72.879 98.422 l 74.348 98.422 l h
74.348 89.688 m f
84.535 93.906 m 78.113 93.906 l 78.113 93.363 78.191 92.895 78.348 92.5
 c 78.512 92.102 78.738 91.773 79.02 91.516 c 79.289 91.266 79.605 91.078
 79.973 90.953 c 80.348 90.828 80.758 90.766 81.207 90.766 c 81.801 90.766
 82.398 90.883 83.004 91.125 c 83.605 91.363 84.035 91.598 84.285 91.828
 c 84.363 91.828 l 84.363 90.219 l 83.871 90.008 83.367 89.832 82.848 89.688
 c 82.336 89.555 81.793 89.484 81.223 89.484 c 79.773 89.484 78.645 89.875
 77.832 90.656 c 77.02 91.445 76.613 92.563 76.613 94 c 76.613 95.426 77.004
 96.555 77.785 97.391 c 78.566 98.234 79.59 98.656 80.863 98.656 c 82.039
 98.656 82.945 98.313 83.582 97.625 c 84.215 96.938 84.535 95.961 84.535
 94.703 c h
83.113 95.031 m 83.102 95.801 82.902 96.395 82.52 96.813 c 82.145 97.238
 81.566 97.453 80.785 97.453 c 79.992 97.453 79.363 97.219 78.895 96.75 
c 78.434 96.289 78.176 95.719 78.113 95.031 c h
83.113 95.031 m f
Q Q
showpage
%%Trailer
end restore
%%EOF
